<?xml version="1.0" encoding="UTF-8"?>
<glyph name="interrobangdown.cap" format="1">
  <advance width="497"/>
  <unicode hex="E99B"/>
  <outline>
    <contour>
      <point x="172" y="205" type="line" smooth="yes"/>
      <point x="177" y="239" type="line" smooth="yes"/>
      <point x="192" y="272" type="line" smooth="yes"/>
      <point x="212" y="308" type="line" smooth="yes"/>
      <point x="208" y="134" type="line" smooth="yes"/>
      <point x="187" y="150" type="line" smooth="yes"/>
      <point x="176" y="175" type="line" smooth="yes"/>
    </contour>
    <contour>
      <point x="162" y="613" type="line" smooth="yes"/>
      <point x="328" y="613" type="line" smooth="yes"/>
      <point x="328" y="780" type="line" smooth="yes"/>
      <point x="162" y="780" type="line" smooth="yes"/>
    </contour>
    <contour>
      <point x="21" y="188" type="line" smooth="yes"/>
      <point x="40" y="91" type="line" smooth="yes"/>
      <point x="110" y="17" type="line" smooth="yes"/>
      <point x="247" y="-13" type="line" smooth="yes"/>
      <point x="384" y="17" type="line" smooth="yes"/>
      <point x="457" y="105" type="line" smooth="yes"/>
      <point x="479" y="246" type="line" smooth="yes"/>
      <point x="479" y="264" type="line" smooth="yes"/>
      <point x="336" y="264" type="line" smooth="yes"/>
      <point x="332" y="203" type="line" smooth="yes"/>
      <point x="318" y="160" type="line" smooth="yes"/>
      <point x="294" y="135" type="line" smooth="yes"/>
      <point x="286" y="552" type="line" smooth="yes"/>
      <point x="200" y="552" type="line" smooth="yes"/>
      <point x="147" y="418" type="line" smooth="yes"/>
      <point x="64" y="330" type="line" smooth="yes"/>
    </contour>
  </outline>
</glyph>
