<?xml version="1.0" encoding="UTF-8"?>
<glyph name="semicolon.T" format="1">
  <advance width="300"/>
  <unicode hex="F185"/>
  <outline>
    <contour>
      <point x="233" y="474" type="line" smooth="yes"/>
      <point x="67" y="474" type="line" smooth="yes"/>
      <point x="67" y="307" type="line" smooth="yes"/>
      <point x="233" y="307" type="line" smooth="yes"/>
    </contour>
    <contour>
      <point x="233" y="167" type="line" smooth="yes"/>
      <point x="67" y="167" type="line" smooth="yes"/>
      <point x="67" y="0" type="line" smooth="yes"/>
      <point x="151" y="0" type="line" smooth="yes"/>
      <point x="134" y="-36" type="line" smooth="yes"/>
      <point x="104" y="-57" type="line" smooth="yes"/>
      <point x="62" y="-64" type="line" smooth="yes"/>
      <point x="62" y="-143" type="line" smooth="yes"/>
      <point x="157" y="-123" type="line" smooth="yes"/>
      <point x="214" y="-63" type="line" smooth="yes"/>
      <point x="233" y="35" type="line" smooth="yes"/>
    </contour>
  </outline>
</glyph>
