<?xml version="1.0" encoding="UTF-8"?>
<glyph name="threequarteremdash.cap" format="1">
  <advance width="750"/>
  <unicode hex="E485"/>
  <outline>
    <contour>
      <point x="40" y="321" type="line" smooth="yes"/>
      <point x="710" y="321" type="line" smooth="yes"/>
      <point x="710" y="459" type="line" smooth="yes"/>
      <point x="40" y="459" type="line" smooth="yes"/>
    </contour>
  </outline>
</glyph>
