<?xml version="1.0" encoding="UTF-8"?>
<glyph name="atilde" format="1">
  <advance width="512"/>
  <unicode hex="00E3"/>
  <outline>
    <contour>
      <point x="357" y="746" type="line" smooth="yes"/>
      <point x="347" y="712" type="line" smooth="yes"/>
      <point x="321" y="703" type="line" smooth="yes"/>
      <point x="259" y="730" type="line" smooth="yes"/>
      <point x="181" y="757" type="line" smooth="yes"/>
      <point x="123" y="732" type="line" smooth="yes"/>
      <point x="100" y="654" type="line" smooth="yes"/>
      <point x="155" y="654" type="line" smooth="yes"/>
      <point x="166" y="688" type="line" smooth="yes"/>
      <point x="191" y="697" type="line" smooth="yes"/>
      <point x="253" y="670" type="line" smooth="yes"/>
      <point x="331" y="643" type="line" smooth="yes"/>
      <point x="390" y="668" type="line" smooth="yes"/>
      <point x="412" y="746" type="line" smooth="yes"/>
    </contour>
    <contour>
      <point x="216" y="50" type="line" smooth="yes"/>
      <point x="139" y="77" type="line" smooth="yes"/>
      <point x="115" y="140" type="line" smooth="yes"/>
      <point x="115" y="149" type="line" smooth="yes"/>
      <point x="144" y="220" type="line" smooth="yes"/>
      <point x="224" y="254" type="line" smooth="yes"/>
      <point x="378" y="279" type="line" smooth="yes"/>
      <point x="378" y="134" type="line" smooth="yes"/>
      <point x="327" y="80" type="line" smooth="yes"/>
    </contour>
    <contour>
      <point x="396" y="0" type="line" smooth="yes"/>
      <point x="454" y="0" type="line" smooth="yes"/>
      <point x="448" y="150" type="line" smooth="yes"/>
      <point x="448" y="344" type="line" smooth="yes"/>
      <point x="407" y="486" type="line" smooth="yes"/>
      <point x="256" y="541" type="line" smooth="yes"/>
      <point x="102" y="483" type="line" smooth="yes"/>
      <point x="65" y="364" type="line" smooth="yes"/>
      <point x="65" y="355" type="line" smooth="yes"/>
      <point x="132" y="355" type="line" smooth="yes"/>
      <point x="156" y="444" type="line" smooth="yes"/>
      <point x="255" y="482" type="line" smooth="yes"/>
      <point x="352" y="447" type="line" smooth="yes"/>
      <point x="378" y="344" type="line" smooth="yes"/>
      <point x="378" y="330" type="line" smooth="yes"/>
      <point x="218" y="305" type="line" smooth="yes"/>
      <point x="99" y="263" type="line" smooth="yes"/>
      <point x="45" y="144" type="line" smooth="yes"/>
      <point x="45" y="134" type="line" smooth="yes"/>
      <point x="85" y="30" type="line" smooth="yes"/>
      <point x="198" y="-11" type="line" smooth="yes"/>
      <point x="313" y="14" type="line" smooth="yes"/>
      <point x="385" y="74" type="line" smooth="yes"/>
    </contour>
  </outline>
</glyph>
