<?xml version="1.0" encoding="UTF-8"?>
<glyph name="multiply" format="1">
  <advance width="600"/>
  <unicode hex="00D7"/>
  <outline>
    <contour>
      <point x="83" y="126" type="line" smooth="yes"/>
      <point x="300" y="343" type="line" smooth="yes"/>
      <point x="517" y="126" type="line" smooth="yes"/>
      <point x="564" y="173" type="line" smooth="yes"/>
      <point x="347" y="390" type="line" smooth="yes"/>
      <point x="564" y="607" type="line" smooth="yes"/>
      <point x="517" y="654" type="line" smooth="yes"/>
      <point x="300" y="437" type="line" smooth="yes"/>
      <point x="83" y="654" type="line" smooth="yes"/>
      <point x="36" y="607" type="line" smooth="yes"/>
      <point x="253" y="390" type="line" smooth="yes"/>
      <point x="36" y="173" type="line" smooth="yes"/>
    </contour>
  </outline>
</glyph>
