<?xml version="1.0" encoding="UTF-8"?>
<glyph name="section" format="1">
  <advance width="513"/>
  <unicode hex="00A7"/>
  <outline>
    <contour>
      <point x="399" y="390" type="line" smooth="yes"/>
      <point x="365" y="317" type="line" smooth="yes"/>
      <point x="264" y="290" type="line" smooth="yes"/>
      <point x="260" y="290" type="line" smooth="yes"/>
      <point x="149" y="315" type="line" smooth="yes"/>
      <point x="114" y="390" type="line" smooth="yes"/>
      <point x="149" y="463" type="line" smooth="yes"/>
      <point x="249" y="490" type="line" smooth="yes"/>
      <point x="252" y="490" type="line" smooth="yes"/>
      <point x="364" y="465" type="line" smooth="yes"/>
    </contour>
    <contour>
      <point x="471" y="389" type="line" smooth="yes"/>
      <point x="471" y="395" type="line" smooth="yes"/>
      <point x="426" y="503" type="line" smooth="yes"/>
      <point x="281" y="544" type="line" smooth="yes"/>
      <point x="168" y="575" type="line" smooth="yes"/>
      <point x="141" y="640" type="line" smooth="yes"/>
      <point x="174" y="708" type="line" smooth="yes"/>
      <point x="267" y="732" type="line" smooth="yes"/>
      <point x="369" y="699" type="line" smooth="yes"/>
      <point x="396" y="609" type="line" smooth="yes"/>
      <point x="466" y="609" type="line" smooth="yes"/>
      <point x="466" y="613" type="line" smooth="yes"/>
      <point x="421" y="741" type="line" smooth="yes"/>
      <point x="267" y="791" type="line" smooth="yes"/>
      <point x="122" y="750" type="line" smooth="yes"/>
      <point x="70" y="640" type="line" smooth="yes"/>
      <point x="70" y="634" type="line" smooth="yes"/>
      <point x="84" y="568" type="line" smooth="yes"/>
      <point x="132" y="520" type="line" smooth="yes"/>
      <point x="64" y="469" type="line" smooth="yes"/>
      <point x="41" y="391" type="line" smooth="yes"/>
      <point x="41" y="385" type="line" smooth="yes"/>
      <point x="87" y="278" type="line" smooth="yes"/>
      <point x="232" y="236" type="line" smooth="yes"/>
      <point x="345" y="205" type="line" smooth="yes"/>
      <point x="372" y="140" type="line" smooth="yes"/>
      <point x="339" y="72" type="line" smooth="yes"/>
      <point x="245" y="48" type="line" smooth="yes"/>
      <point x="144" y="81" type="line" smooth="yes"/>
      <point x="117" y="171" type="line" smooth="yes"/>
      <point x="47" y="171" type="line" smooth="yes"/>
      <point x="47" y="167" type="line" smooth="yes"/>
      <point x="92" y="39" type="line" smooth="yes"/>
      <point x="245" y="-11" type="line" smooth="yes"/>
      <point x="391" y="30" type="line" smooth="yes"/>
      <point x="443" y="140" type="line" smooth="yes"/>
      <point x="443" y="146" type="line" smooth="yes"/>
      <point x="429" y="212" type="line" smooth="yes"/>
      <point x="380" y="260" type="line" smooth="yes"/>
      <point x="448" y="310" type="line" smooth="yes"/>
    </contour>
  </outline>
</glyph>
