<?xml version="1.0" encoding="UTF-8"?>
<glyph name="exclamdown" format="1">
  <advance width="280"/>
  <unicode hex="00A1"/>
  <outline>
    <contour>
      <point x="40" y="340" type="line" smooth="yes"/>
      <point x="230" y="340" type="line" smooth="yes"/>
      <point x="255" y="530" type="line" smooth="yes"/>
      <point x="65" y="530" type="line" smooth="yes"/>
    </contour>
    <contour>
      <point x="179" y="-200" type="line" smooth="yes"/>
      <point x="194" y="290" type="line" smooth="yes"/>
      <point x="64" y="290" type="line" smooth="yes"/>
      <point x="-50" y="-200" type="line" smooth="yes"/>
    </contour>
  </outline>
</glyph>
