<?xml version="1.0" encoding="UTF-8"?>
<glyph name="otilde" format="1">
  <advance width="560"/>
  <unicode hex="00F5"/>
  <outline>
    <contour>
      <point x="196" y="284" type="line" smooth="yes"/>
      <point x="211" y="341" type="line" smooth="yes"/>
      <point x="239" y="375" type="line" smooth="yes"/>
      <point x="279" y="386" type="line" smooth="yes"/>
      <point x="320" y="374" type="line" smooth="yes"/>
      <point x="340" y="340" type="line" smooth="yes"/>
      <point x="340" y="284" type="line" smooth="yes"/>
      <point x="335" y="246" type="line" smooth="yes"/>
      <point x="320" y="189" type="line" smooth="yes"/>
      <point x="292" y="155" type="line" smooth="yes"/>
      <point x="252" y="144" type="line" smooth="yes"/>
      <point x="211" y="156" type="line" smooth="yes"/>
      <point x="191" y="190" type="line" smooth="yes"/>
      <point x="191" y="246" type="line" smooth="yes"/>
    </contour>
    <contour>
      <point x="523" y="284" type="line" smooth="yes"/>
      <point x="510" y="419" type="line" smooth="yes"/>
      <point x="433" y="510" type="line" smooth="yes"/>
      <point x="290" y="544" type="line" smooth="yes"/>
      <point x="146" y="509" type="line" smooth="yes"/>
      <point x="55" y="416" type="line" smooth="yes"/>
      <point x="13" y="284" type="line" smooth="yes"/>
      <point x="8" y="246" type="line" smooth="yes"/>
      <point x="21" y="111" type="line" smooth="yes"/>
      <point x="99" y="20" type="line" smooth="yes"/>
      <point x="241" y="-14" type="line" smooth="yes"/>
      <point x="385" y="21" type="line" smooth="yes"/>
      <point x="476" y="114" type="line" smooth="yes"/>
      <point x="518" y="246" type="line" smooth="yes"/>
    </contour>
    <contour>
      <point x="428" y="780" type="line" smooth="yes"/>
      <point x="422" y="760" type="line" smooth="yes"/>
      <point x="410" y="749" type="line" smooth="yes"/>
      <point x="394" y="745" type="line" smooth="yes"/>
      <point x="351" y="758" type="line" smooth="yes"/>
      <point x="300" y="783" type="line" smooth="yes"/>
      <point x="240" y="796" type="line" smooth="yes"/>
      <point x="177" y="778" type="line" smooth="yes"/>
      <point x="127" y="721" type="line" smooth="yes"/>
      <point x="97" y="620" type="line" smooth="yes"/>
      <point x="217" y="620" type="line" smooth="yes"/>
      <point x="223" y="640" type="line" smooth="yes"/>
      <point x="236" y="651" type="line" smooth="yes"/>
      <point x="252" y="655" type="line" smooth="yes"/>
      <point x="295" y="642" type="line" smooth="yes"/>
      <point x="345" y="617" type="line" smooth="yes"/>
      <point x="405" y="604" type="line" smooth="yes"/>
      <point x="468" y="622" type="line" smooth="yes"/>
      <point x="518" y="679" type="line" smooth="yes"/>
      <point x="548" y="780" type="line" smooth="yes"/>
    </contour>
  </outline>
</glyph>
