<?xml version="1.0" encoding="UTF-8"?>
<glyph name="T" format="1">
  <advance width="570"/>
  <unicode hex="0054"/>
  <outline>
    <contour>
      <point x="412" y="616" type="line" smooth="yes"/>
      <point x="587" y="616" type="line" smooth="yes"/>
      <point x="608" y="780" type="line" smooth="yes"/>
      <point x="68" y="780" type="line" smooth="yes"/>
      <point x="47" y="616" type="line" smooth="yes"/>
      <point x="222" y="616" type="line" smooth="yes"/>
      <point x="141" y="0" type="line" smooth="yes"/>
      <point x="331" y="0" type="line" smooth="yes"/>
    </contour>
  </outline>
</glyph>
