<?xml version="1.0" encoding="UTF-8"?>
<glyph name="AE" format="1">
  <advance width="885"/>
  <unicode hex="00C6"/>
  <outline>
    <contour>
      <point x="400" y="596" type="line" smooth="yes"/>
      <point x="394" y="308" type="line" smooth="yes"/>
      <point x="272" y="308" type="line" smooth="yes"/>
    </contour>
    <contour>
      <point x="333" y="780" type="line" smooth="yes"/>
      <point x="-41" y="0" type="line" smooth="yes"/>
      <point x="133" y="0" type="line" smooth="yes"/>
      <point x="209" y="168" type="line" smooth="yes"/>
      <point x="391" y="168" type="line" smooth="yes"/>
      <point x="388" y="0" type="line" smooth="yes"/>
      <point x="796" y="0" type="line" smooth="yes"/>
      <point x="814" y="140" type="line" smooth="yes"/>
      <point x="559" y="140" type="line" smooth="yes"/>
      <point x="558" y="328" type="line" smooth="yes"/>
      <point x="789" y="328" type="line" smooth="yes"/>
      <point x="807" y="468" type="line" smooth="yes"/>
      <point x="557" y="468" type="line" smooth="yes"/>
      <point x="556" y="640" type="line" smooth="yes"/>
      <point x="880" y="640" type="line" smooth="yes"/>
      <point x="898" y="780" type="line" smooth="yes"/>
    </contour>
  </outline>
</glyph>
