<?xml version="1.0" encoding="UTF-8"?>
<glyph name="braceright" format="1">
  <advance width="365"/>
  <unicode hex="007D"/>
  <outline>
    <contour>
      <point x="-32" y="-120" type="line" smooth="yes"/>
      <point x="-5" y="-120" type="line" smooth="yes"/>
      <point x="106" y="-103" type="line" smooth="yes"/>
      <point x="185" y="-47" type="line" smooth="yes"/>
      <point x="224" y="58" type="line" smooth="yes"/>
      <point x="244" y="209" type="line" smooth="yes"/>
      <point x="259" y="257" type="line" smooth="yes"/>
      <point x="287" y="283" type="line" smooth="yes"/>
      <point x="330" y="291" type="line" smooth="yes"/>
      <point x="348" y="429" type="line" smooth="yes"/>
      <point x="308" y="436" type="line" smooth="yes"/>
      <point x="286" y="460" type="line" smooth="yes"/>
      <point x="283" y="503" type="line" smooth="yes"/>
      <point x="304" y="662" type="line" smooth="yes"/>
      <point x="290" y="769" type="line" smooth="yes"/>
      <point x="224" y="824" type="line" smooth="yes"/>
      <point x="121" y="840" type="line" smooth="yes"/>
      <point x="94" y="840" type="line" smooth="yes"/>
      <point x="76" y="702" type="line" smooth="yes"/>
      <point x="118" y="695" type="line" smooth="yes"/>
      <point x="139" y="668" type="line" smooth="yes"/>
      <point x="141" y="617" type="line" smooth="yes"/>
      <point x="122" y="476" type="line" smooth="yes"/>
      <point x="122" y="423" type="line" smooth="yes"/>
      <point x="139" y="386" type="line" smooth="yes"/>
      <point x="171" y="360" type="line" smooth="yes"/>
      <point x="132" y="334" type="line" smooth="yes"/>
      <point x="106" y="297" type="line" smooth="yes"/>
      <point x="92" y="244" type="line" smooth="yes"/>
      <point x="72" y="94" type="line" smooth="yes"/>
      <point x="57" y="48" type="line" smooth="yes"/>
      <point x="28" y="25" type="line" smooth="yes"/>
      <point x="-14" y="18" type="line" smooth="yes"/>
    </contour>
  </outline>
</glyph>
