<?xml version="1.0" encoding="UTF-8"?>
<glyph name="uogonek" format="1">
  <advance width="580"/>
  <unicode hex="0173"/>
  <outline>
    <contour>
      <point x="68" y="530" type="line" smooth="yes"/>
      <point x="21" y="172" type="line" smooth="yes"/>
      <point x="27" y="77" type="line" smooth="yes"/>
      <point x="76" y="11" type="line" smooth="yes"/>
      <point x="176" y="-13" type="line" smooth="yes"/>
      <point x="242" y="-2" type="line" smooth="yes"/>
      <point x="299" y="27" type="line" smooth="yes"/>
      <point x="345" y="70" type="line" smooth="yes"/>
      <point x="345" y="-3" type="line" smooth="yes"/>
      <point x="317" y="-37" type="line" smooth="yes"/>
      <point x="298" y="-76" type="line" smooth="yes"/>
      <point x="291" y="-120" type="line" smooth="yes"/>
      <point x="306" y="-174" type="line" smooth="yes"/>
      <point x="350" y="-205" type="line" smooth="yes"/>
      <point x="418" y="-215" type="line" smooth="yes"/>
      <point x="456" y="-211" type="line" smooth="yes"/>
      <point x="491" y="-202" type="line" smooth="yes"/>
      <point x="519" y="-190" type="line" smooth="yes"/>
      <point x="496" y="-94" type="line" smooth="yes"/>
      <point x="485" y="-99" type="line" smooth="yes"/>
      <point x="471" y="-103" type="line" smooth="yes"/>
      <point x="453" y="-105" type="line" smooth="yes"/>
      <point x="432" y="-101" type="line" smooth="yes"/>
      <point x="419" y="-91" type="line" smooth="yes"/>
      <point x="414" y="-75" type="line" smooth="yes"/>
      <point x="425" y="-40" type="line" smooth="yes"/>
      <point x="453" y="-15" type="line" smooth="yes"/>
      <point x="486" y="0" type="line" smooth="yes"/>
      <point x="496" y="149" type="line" smooth="yes"/>
      <point x="546" y="530" type="line" smooth="yes"/>
      <point x="388" y="530" type="line" smooth="yes"/>
      <point x="341" y="172" type="line" smooth="yes"/>
      <point x="318" y="150" type="line" smooth="yes"/>
      <point x="283" y="131" type="line" smooth="yes"/>
      <point x="241" y="123" type="line" smooth="yes"/>
      <point x="203" y="131" type="line" smooth="yes"/>
      <point x="184" y="156" type="line" smooth="yes"/>
      <point x="182" y="195" type="line" smooth="yes"/>
      <point x="226" y="530" type="line" smooth="yes"/>
    </contour>
  </outline>
</glyph>
