<?xml version="1.0" encoding="UTF-8"?>
<glyph name="Aogonek" format="1">
  <advance width="611"/>
  <unicode hex="0104"/>
  <outline>
    <contour>
      <point x="305" y="709" type="line" smooth="yes"/>
      <point x="429" y="265" type="line" smooth="yes"/>
      <point x="181" y="265" type="line" smooth="yes"/>
    </contour>
    <contour>
      <point x="499" y="-103" type="line" smooth="yes"/>
      <point x="511" y="-58" type="line" smooth="yes"/>
      <point x="541" y="-24" type="line" smooth="yes"/>
      <point x="582" y="0" type="line" smooth="yes"/>
      <point x="357" y="788" type="line" smooth="yes"/>
      <point x="254" y="788" type="line" smooth="yes"/>
      <point x="29" y="0" type="line" smooth="yes"/>
      <point x="107" y="0" type="line" smooth="yes"/>
      <point x="163" y="200" type="line" smooth="yes"/>
      <point x="448" y="200" type="line" smooth="yes"/>
      <point x="502" y="7" type="line" smooth="yes"/>
      <point x="470" y="-25" type="line" smooth="yes"/>
      <point x="447" y="-65" type="line" smooth="yes"/>
      <point x="439" y="-113" type="line" smooth="yes"/>
      <point x="453" y="-169" type="line" smooth="yes"/>
      <point x="491" y="-201" type="line" smooth="yes"/>
      <point x="548" y="-211" type="line" smooth="yes"/>
      <point x="581" y="-209" type="line" smooth="yes"/>
      <point x="612" y="-202" type="line" smooth="yes"/>
      <point x="637" y="-191" type="line" smooth="yes"/>
      <point x="618" y="-139" type="line" smooth="yes"/>
      <point x="600" y="-146" type="line" smooth="yes"/>
      <point x="579" y="-151" type="line" smooth="yes"/>
      <point x="555" y="-153" type="line" smooth="yes"/>
      <point x="524" y="-146" type="line" smooth="yes"/>
      <point x="506" y="-129" type="line" smooth="yes"/>
    </contour>
  </outline>
</glyph>
