<?xml version="1.0" encoding="UTF-8"?>
<glyph name="copyright" format="1">
  <advance width="920"/>
  <unicode hex="00A9"/>
  <outline>
    <contour>
      <point x="461" y="206" type="line" smooth="yes"/>
      <point x="379" y="232" type="line" smooth="yes"/>
      <point x="334" y="296" type="line" smooth="yes"/>
      <point x="320" y="378" type="line" smooth="yes"/>
      <point x="320" y="402" type="line" smooth="yes"/>
      <point x="334" y="484" type="line" smooth="yes"/>
      <point x="379" y="548" type="line" smooth="yes"/>
      <point x="461" y="574" type="line" smooth="yes"/>
      <point x="536" y="557" type="line" smooth="yes"/>
      <point x="575" y="514" type="line" smooth="yes"/>
      <point x="586" y="459" type="line" smooth="yes"/>
      <point x="651" y="459" type="line" smooth="yes"/>
      <point x="651" y="476" type="line" smooth="yes"/>
      <point x="633" y="545" type="line" smooth="yes"/>
      <point x="573" y="609" type="line" smooth="yes"/>
      <point x="460" y="636" type="line" smooth="yes"/>
      <point x="339" y="600" type="line" smooth="yes"/>
      <point x="272" y="512" type="line" smooth="yes"/>
      <point x="252" y="402" type="line" smooth="yes"/>
      <point x="252" y="378" type="line" smooth="yes"/>
      <point x="272" y="268" type="line" smooth="yes"/>
      <point x="339" y="180" type="line" smooth="yes"/>
      <point x="460" y="144" type="line" smooth="yes"/>
      <point x="573" y="170" type="line" smooth="yes"/>
      <point x="633" y="231" type="line" smooth="yes"/>
      <point x="651" y="298" type="line" smooth="yes"/>
      <point x="651" y="311" type="line" smooth="yes"/>
      <point x="586" y="311" type="line" smooth="yes"/>
      <point x="575" y="264" type="line" smooth="yes"/>
      <point x="537" y="223" type="line" smooth="yes"/>
    </contour>
    <contour>
      <point x="102" y="390" type="line" smooth="yes"/>
      <point x="151" y="571" type="line" smooth="yes"/>
      <point x="279" y="699" type="line" smooth="yes"/>
      <point x="460" y="748" type="line" smooth="yes"/>
      <point x="641" y="699" type="line" smooth="yes"/>
      <point x="769" y="571" type="line" smooth="yes"/>
      <point x="818" y="390" type="line" smooth="yes"/>
      <point x="769" y="209" type="line" smooth="yes"/>
      <point x="641" y="81" type="line" smooth="yes"/>
      <point x="460" y="32" type="line" smooth="yes"/>
      <point x="279" y="81" type="line" smooth="yes"/>
      <point x="151" y="209" type="line" smooth="yes"/>
    </contour>
    <contour>
      <point x="59" y="390" type="line" smooth="yes"/>
      <point x="114" y="188" type="line" smooth="yes"/>
      <point x="258" y="44" type="line" smooth="yes"/>
      <point x="460" y="-11" type="line" smooth="yes"/>
      <point x="662" y="44" type="line" smooth="yes"/>
      <point x="806" y="188" type="line" smooth="yes"/>
      <point x="861" y="390" type="line" smooth="yes"/>
      <point x="806" y="592" type="line" smooth="yes"/>
      <point x="662" y="736" type="line" smooth="yes"/>
      <point x="460" y="791" type="line" smooth="yes"/>
      <point x="258" y="736" type="line" smooth="yes"/>
      <point x="114" y="592" type="line" smooth="yes"/>
    </contour>
  </outline>
</glyph>
