<?xml version="1.0" encoding="UTF-8"?>
<glyph name="dollar" format="1">
  <advance width="600"/>
  <unicode hex="0024"/>
  <outline>
    <contour>
      <point x="143" y="547" type="line" smooth="yes"/>
      <point x="143" y="552" type="line" smooth="yes"/>
      <point x="164" y="613" type="line" smooth="yes"/>
      <point x="220" y="651" type="line" smooth="yes"/>
      <point x="298" y="665" type="line" smooth="yes"/>
      <point x="302" y="665" type="line" smooth="yes"/>
      <point x="312" y="665" type="line" smooth="yes"/>
      <point x="322" y="664" type="line" smooth="yes"/>
      <point x="332" y="663" type="line" smooth="yes"/>
      <point x="276" y="431" type="line" smooth="yes"/>
      <point x="198" y="456" type="line" smooth="yes"/>
      <point x="156" y="494" type="line" smooth="yes"/>
    </contour>
    <contour>
      <point x="310" y="115" type="line" smooth="yes"/>
      <point x="307" y="115" type="line" smooth="yes"/>
      <point x="291" y="115" type="line" smooth="yes"/>
      <point x="276" y="117" type="line" smooth="yes"/>
      <point x="262" y="119" type="line" smooth="yes"/>
      <point x="321" y="364" type="line" smooth="yes"/>
      <point x="401" y="342" type="line" smooth="yes"/>
      <point x="448" y="303" type="line" smooth="yes"/>
      <point x="464" y="242" type="line" smooth="yes"/>
      <point x="464" y="237" type="line" smooth="yes"/>
      <point x="445" y="171" type="line" smooth="yes"/>
      <point x="391" y="130" type="line" smooth="yes"/>
    </contour>
    <contour>
      <point x="435" y="840" type="line" smooth="yes"/>
      <point x="374" y="840" type="line" smooth="yes"/>
      <point x="346" y="724" type="line" smooth="yes"/>
      <point x="331" y="726" type="line" smooth="yes"/>
      <point x="316" y="727" type="line" smooth="yes"/>
      <point x="300" y="727" type="line" smooth="yes"/>
      <point x="180" y="705" type="line" smooth="yes"/>
      <point x="100" y="643" type="line" smooth="yes"/>
      <point x="71" y="547" type="line" smooth="yes"/>
      <point x="71" y="540" type="line" smooth="yes"/>
      <point x="90" y="463" type="line" smooth="yes"/>
      <point x="151" y="406" type="line" smooth="yes"/>
      <point x="262" y="372" type="line" smooth="yes"/>
      <point x="206" y="138" type="line" smooth="yes"/>
      <point x="167" y="171" type="line" smooth="yes"/>
      <point x="142" y="217" type="line" smooth="yes"/>
      <point x="134" y="274" type="line" smooth="yes"/>
      <point x="63" y="274" type="line" smooth="yes"/>
      <point x="63" y="267" type="line" smooth="yes"/>
      <point x="78" y="185" type="line" smooth="yes"/>
      <point x="120" y="119" type="line" smooth="yes"/>
      <point x="191" y="73" type="line" smooth="yes"/>
      <point x="159" y="-60" type="line" smooth="yes"/>
      <point x="220" y="-60" type="line" smooth="yes"/>
      <point x="248" y="57" type="line" smooth="yes"/>
      <point x="267" y="55" type="line" smooth="yes"/>
      <point x="287" y="53" type="line" smooth="yes"/>
      <point x="308" y="53" type="line" smooth="yes"/>
      <point x="431" y="76" type="line" smooth="yes"/>
      <point x="509" y="141" type="line" smooth="yes"/>
      <point x="537" y="241" type="line" smooth="yes"/>
      <point x="537" y="249" type="line" smooth="yes"/>
      <point x="515" y="335" type="line" smooth="yes"/>
      <point x="448" y="392" type="line" smooth="yes"/>
      <point x="335" y="423" type="line" smooth="yes"/>
      <point x="389" y="647" type="line" smooth="yes"/>
      <point x="429" y="613" type="line" smooth="yes"/>
      <point x="452" y="563" type="line" smooth="yes"/>
      <point x="460" y="496" type="line" smooth="yes"/>
      <point x="530" y="496" type="line" smooth="yes"/>
      <point x="530" y="512" type="line" smooth="yes"/>
      <point x="516" y="601" type="line" smooth="yes"/>
      <point x="475" y="669" type="line" smooth="yes"/>
      <point x="404" y="711" type="line" smooth="yes"/>
    </contour>
  </outline>
</glyph>
