<?xml version="1.0" encoding="UTF-8"?>
<glyph name="E" format="1">
  <advance width="549"/>
  <unicode hex="0045"/>
  <outline>
    <contour>
      <point x="74" y="780" type="line" smooth="yes"/>
      <point x="74" y="0" type="line" smooth="yes"/>
      <point x="509" y="0" type="line" smooth="yes"/>
      <point x="509" y="65" type="line" smooth="yes"/>
      <point x="146" y="65" type="line" smooth="yes"/>
      <point x="146" y="366" type="line" smooth="yes"/>
      <point x="459" y="366" type="line" smooth="yes"/>
      <point x="459" y="430" type="line" smooth="yes"/>
      <point x="146" y="430" type="line" smooth="yes"/>
      <point x="146" y="715" type="line" smooth="yes"/>
      <point x="509" y="715" type="line" smooth="yes"/>
      <point x="509" y="780" type="line" smooth="yes"/>
    </contour>
  </outline>
</glyph>
