<?xml version="1.0" encoding="UTF-8"?>
<glyph name="h" format="1">
  <advance width="528"/>
  <unicode hex="0068"/>
  <outline>
    <contour>
      <point x="136" y="800" type="line" smooth="yes"/>
      <point x="66" y="800" type="line" smooth="yes"/>
      <point x="66" y="0" type="line" smooth="yes"/>
      <point x="136" y="0" type="line" smooth="yes"/>
      <point x="136" y="396" type="line" smooth="yes"/>
      <point x="165" y="433" type="line" smooth="yes"/>
      <point x="212" y="465" type="line" smooth="yes"/>
      <point x="282" y="478" type="line" smooth="yes"/>
      <point x="343" y="465" type="line" smooth="yes"/>
      <point x="383" y="427" type="line" smooth="yes"/>
      <point x="397" y="361" type="line" smooth="yes"/>
      <point x="397" y="0" type="line" smooth="yes"/>
      <point x="467" y="0" type="line" smooth="yes"/>
      <point x="467" y="371" type="line" smooth="yes"/>
      <point x="449" y="459" type="line" smooth="yes"/>
      <point x="394" y="519" type="line" smooth="yes"/>
      <point x="306" y="541" type="line" smooth="yes"/>
      <point x="232" y="531" type="line" smooth="yes"/>
      <point x="176" y="504" type="line" smooth="yes"/>
      <point x="136" y="466" type="line" smooth="yes"/>
    </contour>
  </outline>
</glyph>
