<?xml version="1.0" encoding="UTF-8"?>
<glyph name="uni215A" format="1">
  <advance width="800"/>
  <unicode hex="215A"/>
  <outline>
    <contour>
      <point x="652" y="193" type="line" smooth="yes"/>
      <point x="655" y="193" type="line" smooth="yes"/>
      <point x="688" y="185" type="line" smooth="yes"/>
      <point x="711" y="163" type="line" smooth="yes"/>
      <point x="719" y="125" type="line" smooth="yes"/>
      <point x="719" y="116" type="line" smooth="yes"/>
      <point x="710" y="78" type="line" smooth="yes"/>
      <point x="687" y="54" type="line" smooth="yes"/>
      <point x="652" y="46" type="line" smooth="yes"/>
      <point x="649" y="46" type="line" smooth="yes"/>
      <point x="616" y="56" type="line" smooth="yes"/>
      <point x="592" y="84" type="line" smooth="yes"/>
      <point x="583" y="130" type="line" smooth="yes"/>
      <point x="583" y="150" type="line" smooth="yes"/>
      <point x="600" y="173" type="line" smooth="yes"/>
      <point x="624" y="188" type="line" smooth="yes"/>
    </contour>
    <contour>
      <point x="144" y="0" type="line" smooth="yes"/>
      <point x="720" y="780" type="line" smooth="yes"/>
      <point x="656" y="780" type="line" smooth="yes"/>
      <point x="80" y="0" type="line" smooth="yes"/>
    </contour>
    <contour>
      <point x="22" y="515" type="line" smooth="yes"/>
      <point x="22" y="508" type="line" smooth="yes"/>
      <point x="36" y="441" type="line" smooth="yes"/>
      <point x="79" y="398" type="line" smooth="yes"/>
      <point x="150" y="383" type="line" smooth="yes"/>
      <point x="218" y="398" type="line" smooth="yes"/>
      <point x="262" y="441" type="line" smooth="yes"/>
      <point x="277" y="508" type="line" smooth="yes"/>
      <point x="277" y="516" type="line" smooth="yes"/>
      <point x="262" y="583" type="line" smooth="yes"/>
      <point x="219" y="625" type="line" smooth="yes"/>
      <point x="153" y="640" type="line" smooth="yes"/>
      <point x="127" y="638" type="line" smooth="yes"/>
      <point x="103" y="632" type="line" smooth="yes"/>
      <point x="82" y="622" type="line" smooth="yes"/>
      <point x="87" y="727" type="line" smooth="yes"/>
      <point x="272" y="727" type="line" smooth="yes"/>
      <point x="272" y="780" type="line" smooth="yes"/>
      <point x="34" y="780" type="line" smooth="yes"/>
      <point x="25" y="564" type="line" smooth="yes"/>
      <point x="76" y="547" type="line" smooth="yes"/>
      <point x="93" y="570" type="line" smooth="yes"/>
      <point x="118" y="583" type="line" smooth="yes"/>
      <point x="146" y="588" type="line" smooth="yes"/>
      <point x="149" y="588" type="line" smooth="yes"/>
      <point x="183" y="581" type="line" smooth="yes"/>
      <point x="208" y="557" type="line" smooth="yes"/>
      <point x="218" y="516" type="line" smooth="yes"/>
      <point x="218" y="508" type="line" smooth="yes"/>
      <point x="208" y="467" type="line" smooth="yes"/>
      <point x="184" y="443" type="line" smooth="yes"/>
      <point x="152" y="436" type="line" smooth="yes"/>
      <point x="147" y="436" type="line" smooth="yes"/>
      <point x="113" y="444" type="line" smooth="yes"/>
      <point x="90" y="470" type="line" smooth="yes"/>
      <point x="82" y="515" type="line" smooth="yes"/>
    </contour>
    <contour>
      <point x="760" y="396" type="line" smooth="yes"/>
      <point x="690" y="389" type="line" smooth="yes"/>
      <point x="628" y="365" type="line" smooth="yes"/>
      <point x="578" y="319" type="line" smooth="yes"/>
      <point x="546" y="262" type="line" smooth="yes"/>
      <point x="528" y="202" type="line" smooth="yes"/>
      <point x="523" y="140" type="line" smooth="yes"/>
      <point x="523" y="134" type="line" smooth="yes"/>
      <point x="539" y="59" type="line" smooth="yes"/>
      <point x="583" y="10" type="line" smooth="yes"/>
      <point x="651" y="-7" type="line" smooth="yes"/>
      <point x="720" y="8" type="line" smooth="yes"/>
      <point x="764" y="50" type="line" smooth="yes"/>
      <point x="779" y="117" type="line" smooth="yes"/>
      <point x="779" y="122" type="line" smooth="yes"/>
      <point x="764" y="189" type="line" smooth="yes"/>
      <point x="725" y="231" type="line" smooth="yes"/>
      <point x="666" y="245" type="line" smooth="yes"/>
      <point x="638" y="242" type="line" smooth="yes"/>
      <point x="613" y="233" type="line" smooth="yes"/>
      <point x="593" y="220" type="line" smooth="yes"/>
      <point x="600" y="243" type="line" smooth="yes"/>
      <point x="611" y="265" type="line" smooth="yes"/>
      <point x="625" y="285" type="line" smooth="yes"/>
      <point x="662" y="318" type="line" smooth="yes"/>
      <point x="707" y="337" type="line" smooth="yes"/>
      <point x="760" y="343" type="line" smooth="yes"/>
    </contour>
  </outline>
</glyph>
