<?xml version="1.0" encoding="UTF-8"?>
<glyph name="eth" format="1">
  <advance width="533"/>
  <unicode hex="00F0"/>
  <outline>
    <contour>
      <point x="229" y="28" type="line" smooth="yes"/>
      <point x="104" y="92" type="line" smooth="yes"/>
      <point x="81" y="262" type="line" smooth="yes"/>
      <point x="83" y="278" type="line" smooth="yes"/>
      <point x="147" y="442" type="line" smooth="yes"/>
      <point x="283" y="502" type="line" smooth="yes"/>
      <point x="408" y="438" type="line" smooth="yes"/>
      <point x="431" y="268" type="line" smooth="yes"/>
      <point x="429" y="252" type="line" smooth="yes"/>
      <point x="365" y="88" type="line" smooth="yes"/>
    </contour>
    <contour>
      <point x="107" y="772" type="line" smooth="yes"/>
      <point x="194" y="754" type="line" smooth="yes"/>
      <point x="275" y="718" type="line" smooth="yes"/>
      <point x="132" y="640" type="line" smooth="yes"/>
      <point x="126" y="597" type="line" smooth="yes"/>
      <point x="308" y="696" type="line" smooth="yes"/>
      <point x="339" y="670" type="line" smooth="yes"/>
      <point x="368" y="638" type="line" smooth="yes"/>
      <point x="412" y="558" type="line" smooth="yes"/>
      <point x="436" y="465" type="line" smooth="yes"/>
      <point x="378" y="520" type="line" smooth="yes"/>
      <point x="283" y="540" type="line" smooth="yes"/>
      <point x="115" y="466" type="line" smooth="yes"/>
      <point x="41" y="275" type="line" smooth="yes"/>
      <point x="39" y="259" type="line" smooth="yes"/>
      <point x="69" y="69" type="line" smooth="yes"/>
      <point x="229" y="-10" type="line" smooth="yes"/>
      <point x="397" y="64" type="line" smooth="yes"/>
      <point x="471" y="255" type="line" smooth="yes"/>
      <point x="473" y="271" type="line" smooth="yes"/>
      <point x="475" y="484" type="line" smooth="yes"/>
      <point x="404" y="664" type="line" smooth="yes"/>
      <point x="378" y="694" type="line" smooth="yes"/>
      <point x="350" y="719" type="line" smooth="yes"/>
      <point x="438" y="767" type="line" smooth="yes"/>
      <point x="444" y="810" type="line" smooth="yes"/>
      <point x="319" y="742" type="line" smooth="yes"/>
      <point x="220" y="789" type="line" smooth="yes"/>
      <point x="112" y="810" type="line" smooth="yes"/>
    </contour>
  </outline>
</glyph>
