<?xml version="1.0" encoding="UTF-8"?>
<glyph name="hbar" format="1">
  <advance width="508"/>
  <unicode hex="0127"/>
  <outline>
    <contour>
      <point x="166" y="800" type="line" smooth="yes"/>
      <point x="126" y="800" type="line" smooth="yes"/>
      <point x="111" y="684" type="line" smooth="yes"/>
      <point x="11" y="684" type="line" smooth="yes"/>
      <point x="6" y="646" type="line" smooth="yes"/>
      <point x="106" y="646" type="line" smooth="yes"/>
      <point x="21" y="0" type="line" smooth="yes"/>
      <point x="61" y="0" type="line" smooth="yes"/>
      <point x="114" y="410" type="line" smooth="yes"/>
      <point x="177" y="471" type="line" smooth="yes"/>
      <point x="285" y="502" type="line" smooth="yes"/>
      <point x="380" y="472" type="line" smooth="yes"/>
      <point x="404" y="370" type="line" smooth="yes"/>
      <point x="356" y="0" type="line" smooth="yes"/>
      <point x="396" y="0" type="line" smooth="yes"/>
      <point x="445" y="375" type="line" smooth="yes"/>
      <point x="415" y="496" type="line" smooth="yes"/>
      <point x="290" y="540" type="line" smooth="yes"/>
      <point x="189" y="516" type="line" smooth="yes"/>
      <point x="121" y="460" type="line" smooth="yes"/>
      <point x="145" y="646" type="line" smooth="yes"/>
      <point x="286" y="646" type="line" smooth="yes"/>
      <point x="291" y="684" type="line" smooth="yes"/>
      <point x="150" y="684" type="line" smooth="yes"/>
    </contour>
  </outline>
</glyph>
