<?xml version="1.0" encoding="UTF-8"?>
<glyph name="minus.inf" format="1">
  <advance width="300"/>
  <unicode hex="E57C"/>
  <outline>
    <contour>
      <point x="-29" y="-22" type="line" smooth="yes"/>
      <point x="223" y="-22" type="line" smooth="yes"/>
      <point x="228" y="11" type="line" smooth="yes"/>
      <point x="-24" y="11" type="line" smooth="yes"/>
    </contour>
  </outline>
</glyph>
