<?xml version="1.0" encoding="UTF-8"?>
<glyph name="Scircumflex" format="1">
  <advance width="585"/>
  <unicode hex="015C"/>
  <outline>
    <contour>
      <point x="288" y="386" type="line" smooth="yes"/>
      <point x="439" y="326" type="line" smooth="yes"/>
      <point x="476" y="206" type="line" smooth="yes"/>
      <point x="474" y="190" type="line" smooth="yes"/>
      <point x="403" y="68" type="line" smooth="yes"/>
      <point x="255" y="28" type="line" smooth="yes"/>
      <point x="245" y="28" type="line" smooth="yes"/>
      <point x="104" y="79" type="line" smooth="yes"/>
      <point x="74" y="250" type="line" smooth="yes"/>
      <point x="34" y="250" type="line" smooth="yes"/>
      <point x="31" y="231" type="line" smooth="yes"/>
      <point x="72" y="54" type="line" smooth="yes"/>
      <point x="250" y="-10" type="line" smooth="yes"/>
      <point x="431" y="41" type="line" smooth="yes"/>
      <point x="516" y="193" type="line" smooth="yes"/>
      <point x="518" y="209" type="line" smooth="yes"/>
      <point x="482" y="344" type="line" smooth="yes"/>
      <point x="312" y="420" type="line" smooth="yes"/>
      <point x="160" y="482" type="line" smooth="yes"/>
      <point x="129" y="592" type="line" smooth="yes"/>
      <point x="131" y="608" type="line" smooth="yes"/>
      <point x="195" y="716" type="line" smooth="yes"/>
      <point x="330" y="752" type="line" smooth="yes"/>
      <point x="340" y="752" type="line" smooth="yes"/>
      <point x="482" y="698" type="line" smooth="yes"/>
      <point x="509" y="520" type="line" smooth="yes"/>
      <point x="549" y="520" type="line" smooth="yes"/>
      <point x="552" y="539" type="line" smooth="yes"/>
      <point x="517" y="722" type="line" smooth="yes"/>
      <point x="335" y="790" type="line" smooth="yes"/>
      <point x="170" y="746" type="line" smooth="yes"/>
      <point x="89" y="605" type="line" smooth="yes"/>
      <point x="87" y="589" type="line" smooth="yes"/>
      <point x="121" y="465" type="line" smooth="yes"/>
    </contour>
    <contour>
      <point x="288" y="840" type="line" smooth="yes"/>
      <point x="368" y="917" type="line" smooth="yes"/>
      <point x="428" y="840" type="line" smooth="yes"/>
      <point x="471" y="840" type="line" smooth="yes"/>
      <point x="386" y="950" type="line" smooth="yes"/>
      <point x="356" y="950" type="line" smooth="yes"/>
      <point x="241" y="840" type="line" smooth="yes"/>
    </contour>
  </outline>
</glyph>
