<?xml version="1.0" encoding="UTF-8"?>
<glyph name="caronSlovak" format="1">
  <advance width="500"/>
  <unicode hex="E413"/>
  <outline>
    <contour>
      <point x="356" y="800" type="line" smooth="yes"/>
      <point x="328" y="590" type="line" smooth="yes"/>
      <point x="408" y="590" type="line" smooth="yes"/>
      <point x="461" y="800" type="line" smooth="yes"/>
    </contour>
  </outline>
</glyph>
