<?xml version="1.0" encoding="UTF-8"?>
<glyph name="five.inf" format="1">
  <advance width="300"/>
  <unicode hex="E576"/>
  <outline>
    <contour>
      <point x="-22" y="125" type="line" smooth="yes"/>
      <point x="-23" y="116" type="line" smooth="yes"/>
      <point x="4" y="23" type="line" smooth="yes"/>
      <point x="108" y="-9" type="line" smooth="yes"/>
      <point x="221" y="32" type="line" smooth="yes"/>
      <point x="253" y="121" type="line" smooth="yes"/>
      <point x="254" y="134" type="line" smooth="yes"/>
      <point x="237" y="226" type="line" smooth="yes"/>
      <point x="160" y="260" type="line" smooth="yes"/>
      <point x="131" y="257" type="line" smooth="yes"/>
      <point x="114" y="250" type="line" smooth="yes"/>
      <point x="118" y="276" type="line" smooth="yes"/>
      <point x="268" y="276" type="line" smooth="yes"/>
      <point x="283" y="390" type="line" smooth="yes"/>
      <point x="24" y="390" type="line" smooth="yes"/>
      <point x="-11" y="182" type="line" smooth="yes"/>
      <point x="98" y="142" type="line" smooth="yes"/>
      <point x="105" y="145" type="line" smooth="yes"/>
      <point x="111" y="146" type="line" smooth="yes"/>
      <point x="112" y="146" type="line" smooth="yes"/>
      <point x="123" y="143" type="line" smooth="yes"/>
      <point x="125" y="133" type="line" smooth="yes"/>
      <point x="122" y="106" type="line" smooth="yes"/>
      <point x="114" y="99" type="line" smooth="yes"/>
      <point x="108" y="106" type="line" smooth="yes"/>
      <point x="110" y="125" type="line" smooth="yes"/>
    </contour>
  </outline>
</glyph>
