<?xml version="1.0" encoding="UTF-8"?>
<glyph name="ordmasculine" format="1">
  <advance width="448"/>
  <unicode hex="00BA"/>
  <outline>
    <contour>
      <point x="260" y="658" type="line" smooth="yes"/>
      <point x="289" y="644" type="line" smooth="yes"/>
      <point x="292" y="600" type="line" smooth="yes"/>
      <point x="288" y="571" type="line" smooth="yes"/>
      <point x="273" y="526" type="line" smooth="yes"/>
      <point x="244" y="513" type="line" smooth="yes"/>
      <point x="215" y="527" type="line" smooth="yes"/>
      <point x="212" y="571" type="line" smooth="yes"/>
      <point x="216" y="600" type="line" smooth="yes"/>
      <point x="231" y="646" type="line" smooth="yes"/>
    </contour>
    <contour>
      <point x="234" y="376" type="line" smooth="yes"/>
      <point x="383" y="430" type="line" smooth="yes"/>
      <point x="447" y="571" type="line" smooth="yes"/>
      <point x="451" y="600" type="line" smooth="yes"/>
      <point x="414" y="741" type="line" smooth="yes"/>
      <point x="270" y="795" type="line" smooth="yes"/>
      <point x="122" y="741" type="line" smooth="yes"/>
      <point x="57" y="600" type="line" smooth="yes"/>
      <point x="53" y="571" type="line" smooth="yes"/>
      <point x="90" y="430" type="line" smooth="yes"/>
    </contour>
    <contour>
      <point x="11" y="172" type="line" smooth="yes"/>
      <point x="385" y="172" type="line" smooth="yes"/>
      <point x="403" y="309" type="line" smooth="yes"/>
      <point x="29" y="309" type="line" smooth="yes"/>
    </contour>
  </outline>
</glyph>
