<?xml version="1.0" encoding="UTF-8"?>
<glyph name="sterling" format="1">
  <advance width="593"/>
  <unicode hex="00A3"/>
  <outline>
    <contour>
      <point x="352" y="632" type="line" smooth="yes"/>
      <point x="393" y="585" type="line" smooth="yes"/>
      <point x="390" y="500" type="line" smooth="yes"/>
      <point x="576" y="500" type="line" smooth="yes"/>
      <point x="579" y="519" type="line" smooth="yes"/>
      <point x="555" y="718" type="line" smooth="yes"/>
      <point x="365" y="794" type="line" smooth="yes"/>
      <point x="152" y="692" type="line" smooth="yes"/>
      <point x="108" y="520" type="line" smooth="yes"/>
      <point x="109" y="476" type="line" smooth="yes"/>
      <point x="113" y="440" type="line" smooth="yes"/>
      <point x="48" y="440" type="line" smooth="yes"/>
      <point x="27" y="280" type="line" smooth="yes"/>
      <point x="146" y="280" type="line" smooth="yes"/>
      <point x="155" y="223" type="line" smooth="yes"/>
      <point x="161" y="162" type="line" smooth="yes"/>
      <point x="12" y="162" type="line" smooth="yes"/>
      <point x="-9" y="0" type="line" smooth="yes"/>
      <point x="511" y="0" type="line" smooth="yes"/>
      <point x="532" y="162" type="line" smooth="yes"/>
      <point x="323" y="162" type="line" smooth="yes"/>
      <point x="324" y="222" type="line" smooth="yes"/>
      <point x="321" y="280" type="line" smooth="yes"/>
      <point x="448" y="280" type="line" smooth="yes"/>
      <point x="469" y="440" type="line" smooth="yes"/>
      <point x="301" y="440" type="line" smooth="yes"/>
      <point x="296" y="485" type="line" smooth="yes"/>
      <point x="294" y="533" type="line" smooth="yes"/>
      <point x="305" y="604" type="line" smooth="yes"/>
    </contour>
  </outline>
</glyph>
