<?xml version="1.0" encoding="UTF-8"?>
<glyph name="Umacron" format="1">
  <advance width="670"/>
  <unicode hex="016A"/>
  <outline>
    <contour>
      <point x="290" y="-14" type="line" smooth="yes"/>
      <point x="526" y="56" type="line" smooth="yes"/>
      <point x="608" y="248" type="line" smooth="yes"/>
      <point x="678" y="780" type="line" smooth="yes"/>
      <point x="488" y="780" type="line" smooth="yes"/>
      <point x="419" y="253" type="line" smooth="yes"/>
      <point x="388" y="178" type="line" smooth="yes"/>
      <point x="301" y="150" type="line" smooth="yes"/>
      <point x="226" y="178" type="line" smooth="yes"/>
      <point x="219" y="253" type="line" smooth="yes"/>
      <point x="288" y="780" type="line" smooth="yes"/>
      <point x="98" y="780" type="line" smooth="yes"/>
      <point x="28" y="248" type="line" smooth="yes"/>
      <point x="66" y="56" type="line" smooth="yes"/>
    </contour>
    <contour>
      <point x="236" y="840" type="line" smooth="yes"/>
      <point x="556" y="840" type="line" smooth="yes"/>
      <point x="571" y="950" type="line" smooth="yes"/>
      <point x="251" y="950" type="line" smooth="yes"/>
    </contour>
  </outline>
</glyph>
