<?xml version="1.0" encoding="UTF-8"?>
<glyph name="fivesixteenths" format="1">
  <advance width="1100"/>
  <unicode hex="F217"/>
  <outline>
    <contour>
      <point x="951" y="173" type="line" smooth="yes"/>
      <point x="954" y="173" type="line" smooth="yes"/>
      <point x="985" y="162" type="line" smooth="yes"/>
      <point x="998" y="125" type="line" smooth="yes"/>
      <point x="998" y="115" type="line" smooth="yes"/>
      <point x="984" y="79" type="line" smooth="yes"/>
      <point x="952" y="66" type="line" smooth="yes"/>
      <point x="949" y="66" type="line" smooth="yes"/>
      <point x="916" y="82" type="line" smooth="yes"/>
      <point x="903" y="130" type="line" smooth="yes"/>
      <point x="903" y="145" type="line" smooth="yes"/>
      <point x="924" y="166" type="line" smooth="yes"/>
    </contour>
    <contour>
      <point x="786" y="0" type="line" smooth="yes"/>
      <point x="786" y="73" type="line" smooth="yes"/>
      <point x="702" y="73" type="line" smooth="yes"/>
      <point x="702" y="390" type="line" smooth="yes"/>
      <point x="639" y="390" type="line" smooth="yes"/>
      <point x="517" y="308" type="line" smooth="yes"/>
      <point x="559" y="247" type="line" smooth="yes"/>
      <point x="618" y="287" type="line" smooth="yes"/>
      <point x="618" y="73" type="line" smooth="yes"/>
      <point x="533" y="73" type="line" smooth="yes"/>
      <point x="533" y="0" type="line" smooth="yes"/>
    </contour>
    <contour>
      <point x="18" y="515" type="line" smooth="yes"/>
      <point x="18" y="508" type="line" smooth="yes"/>
      <point x="51" y="416" type="line" smooth="yes"/>
      <point x="150" y="383" type="line" smooth="yes"/>
      <point x="248" y="417" type="line" smooth="yes"/>
      <point x="281" y="509" type="line" smooth="yes"/>
      <point x="281" y="518" type="line" smooth="yes"/>
      <point x="248" y="610" type="line" smooth="yes"/>
      <point x="154" y="644" type="line" smooth="yes"/>
      <point x="125" y="641" type="line" smooth="yes"/>
      <point x="98" y="633" type="line" smooth="yes"/>
      <point x="101" y="706" type="line" smooth="yes"/>
      <point x="276" y="706" type="line" smooth="yes"/>
      <point x="276" y="780" type="line" smooth="yes"/>
      <point x="31" y="780" type="line" smooth="yes"/>
      <point x="21" y="566" type="line" smooth="yes"/>
      <point x="93" y="542" type="line" smooth="yes"/>
      <point x="116" y="563" type="line" smooth="yes"/>
      <point x="145" y="570" type="line" smooth="yes"/>
      <point x="148" y="570" type="line" smooth="yes"/>
      <point x="184" y="558" type="line" smooth="yes"/>
      <point x="198" y="516" type="line" smooth="yes"/>
      <point x="198" y="511" type="line" smooth="yes"/>
      <point x="184" y="469" type="line" smooth="yes"/>
      <point x="152" y="456" type="line" smooth="yes"/>
      <point x="147" y="456" type="line" smooth="yes"/>
      <point x="115" y="469" type="line" smooth="yes"/>
      <point x="102" y="515" type="line" smooth="yes"/>
    </contour>
    <contour>
      <point x="1061" y="396" type="line" smooth="yes"/>
      <point x="954" y="381" type="line" smooth="yes"/>
      <point x="874" y="323" type="line" smooth="yes"/>
      <point x="831" y="236" type="line" smooth="yes"/>
      <point x="819" y="144" type="line" smooth="yes"/>
      <point x="819" y="136" type="line" smooth="yes"/>
      <point x="853" y="33" type="line" smooth="yes"/>
      <point x="950" y="-7" type="line" smooth="yes"/>
      <point x="1048" y="27" type="line" smooth="yes"/>
      <point x="1081" y="118" type="line" smooth="yes"/>
      <point x="1081" y="123" type="line" smooth="yes"/>
      <point x="1051" y="213" type="line" smooth="yes"/>
      <point x="972" y="246" type="line" smooth="yes"/>
      <point x="940" y="241" type="line" smooth="yes"/>
      <point x="914" y="229" type="line" smooth="yes"/>
      <point x="924" y="255" type="line" smooth="yes"/>
      <point x="938" y="277" type="line" smooth="yes"/>
      <point x="988" y="312" type="line" smooth="yes"/>
      <point x="1061" y="322" type="line" smooth="yes"/>
    </contour>
    <contour>
      <point x="164" y="0" type="line" smooth="yes"/>
      <point x="740" y="780" type="line" smooth="yes"/>
      <point x="636" y="780" type="line" smooth="yes"/>
      <point x="60" y="0" type="line" smooth="yes"/>
    </contour>
  </outline>
</glyph>
