<?xml version="1.0" encoding="UTF-8"?>
<glyph name="hbar" format="1">
  <advance width="545"/>
  <unicode hex="0127"/>
  <outline>
    <contour>
      <point x="162" y="800" type="line" smooth="yes"/>
      <point x="62" y="800" type="line" smooth="yes"/>
      <point x="62" y="703" type="line" smooth="yes"/>
      <point x="-22" y="703" type="line" smooth="yes"/>
      <point x="-22" y="627" type="line" smooth="yes"/>
      <point x="62" y="627" type="line" smooth="yes"/>
      <point x="62" y="0" type="line" smooth="yes"/>
      <point x="162" y="0" type="line" smooth="yes"/>
      <point x="162" y="383" type="line" smooth="yes"/>
      <point x="206" y="429" type="line" smooth="yes"/>
      <point x="290" y="454" type="line" smooth="yes"/>
      <point x="364" y="427" type="line" smooth="yes"/>
      <point x="390" y="351" type="line" smooth="yes"/>
      <point x="390" y="0" type="line" smooth="yes"/>
      <point x="489" y="0" type="line" smooth="yes"/>
      <point x="489" y="367" type="line" smooth="yes"/>
      <point x="450" y="491" type="line" smooth="yes"/>
      <point x="327" y="542" type="line" smooth="yes"/>
      <point x="227" y="522" type="line" smooth="yes"/>
      <point x="162" y="471" type="line" smooth="yes"/>
      <point x="162" y="627" type="line" smooth="yes"/>
      <point x="288" y="627" type="line" smooth="yes"/>
      <point x="288" y="703" type="line" smooth="yes"/>
      <point x="162" y="703" type="line" smooth="yes"/>
    </contour>
  </outline>
</glyph>
