<?xml version="1.0" encoding="UTF-8"?>
<glyph name="Iacute" format="1">
  <advance width="248"/>
  <unicode hex="00CD"/>
  <outline>
    <contour>
      <point x="131" y="950" type="line" smooth="yes"/>
      <point x="73" y="840" type="line" smooth="yes"/>
      <point x="175" y="840" type="line" smooth="yes"/>
      <point x="238" y="950" type="line" smooth="yes"/>
    </contour>
    <contour>
      <point x="176" y="780" type="line" smooth="yes"/>
      <point x="72" y="780" type="line" smooth="yes"/>
      <point x="72" y="0" type="line" smooth="yes"/>
      <point x="176" y="0" type="line" smooth="yes"/>
    </contour>
  </outline>
</glyph>
