<?xml version="1.0" encoding="UTF-8"?>
<glyph name="percent" format="1">
  <advance width="943"/>
  <unicode hex="0025"/>
  <outline>
    <contour>
      <point x="355" y="0" type="line" smooth="yes"/>
      <point x="656" y="725" type="line" smooth="yes"/>
      <point x="656" y="782" type="line" smooth="yes"/>
      <point x="577" y="762" type="line" smooth="yes"/>
      <point x="461" y="750" type="line" smooth="yes"/>
      <point x="371" y="755" type="line" smooth="yes"/>
      <point x="289" y="776" type="line" smooth="yes"/>
      <point x="251" y="788" type="line" smooth="yes"/>
      <point x="210" y="792" type="line" smooth="yes"/>
      <point x="85" y="747" type="line" smooth="yes"/>
      <point x="34" y="614" type="line" smooth="yes"/>
      <point x="34" y="603" type="line" smooth="yes"/>
      <point x="85" y="471" type="line" smooth="yes"/>
      <point x="210" y="426" type="line" smooth="yes"/>
      <point x="335" y="471" type="line" smooth="yes"/>
      <point x="385" y="603" type="line" smooth="yes"/>
      <point x="385" y="614" type="line" smooth="yes"/>
      <point x="383" y="644" type="line" smooth="yes"/>
      <point x="378" y="671" type="line" smooth="yes"/>
      <point x="411" y="667" type="line" smooth="yes"/>
      <point x="446" y="666" type="line" smooth="yes"/>
      <point x="512" y="672" type="line" smooth="yes"/>
      <point x="545" y="678" type="line" smooth="yes"/>
      <point x="263" y="0" type="line" smooth="yes"/>
    </contour>
    <contour>
      <point x="637" y="163" type="line" smooth="yes"/>
      <point x="637" y="179" type="line" smooth="yes"/>
      <point x="664" y="249" type="line" smooth="yes"/>
      <point x="730" y="274" type="line" smooth="yes"/>
      <point x="736" y="274" type="line" smooth="yes"/>
      <point x="802" y="249" type="line" smooth="yes"/>
      <point x="829" y="179" type="line" smooth="yes"/>
      <point x="829" y="163" type="line" smooth="yes"/>
      <point x="802" y="93" type="line" smooth="yes"/>
      <point x="736" y="68" type="line" smooth="yes"/>
      <point x="730" y="68" type="line" smooth="yes"/>
      <point x="664" y="93" type="line" smooth="yes"/>
    </contour>
    <contour>
      <point x="306" y="617" type="line" smooth="yes"/>
      <point x="306" y="601" type="line" smooth="yes"/>
      <point x="279" y="531" type="line" smooth="yes"/>
      <point x="213" y="506" type="line" smooth="yes"/>
      <point x="207" y="506" type="line" smooth="yes"/>
      <point x="141" y="531" type="line" smooth="yes"/>
      <point x="114" y="601" type="line" smooth="yes"/>
      <point x="114" y="617" type="line" smooth="yes"/>
      <point x="141" y="687" type="line" smooth="yes"/>
      <point x="207" y="712" type="line" smooth="yes"/>
      <point x="213" y="712" type="line" smooth="yes"/>
      <point x="279" y="687" type="line" smooth="yes"/>
    </contour>
    <contour>
      <point x="558" y="177" type="line" smooth="yes"/>
      <point x="558" y="166" type="line" smooth="yes"/>
      <point x="608" y="33" type="line" smooth="yes"/>
      <point x="733" y="-12" type="line" smooth="yes"/>
      <point x="858" y="33" type="line" smooth="yes"/>
      <point x="908" y="166" type="line" smooth="yes"/>
      <point x="908" y="177" type="line" smooth="yes"/>
      <point x="858" y="309" type="line" smooth="yes"/>
      <point x="733" y="354" type="line" smooth="yes"/>
      <point x="608" y="309" type="line" smooth="yes"/>
    </contour>
  </outline>
</glyph>
