<?xml version="1.0" encoding="UTF-8"?>
<glyph name="questiondown.cap" format="1">
  <advance width="470"/>
  <unicode hex="E444"/>
  <outline>
    <contour>
      <point x="180" y="666" type="line" smooth="yes"/>
      <point x="294" y="666" type="line" smooth="yes"/>
      <point x="294" y="780" type="line" smooth="yes"/>
      <point x="180" y="780" type="line" smooth="yes"/>
    </contour>
    <contour>
      <point x="231" y="79" type="line" smooth="yes"/>
      <point x="150" y="113" type="line" smooth="yes"/>
      <point x="128" y="200" type="line" smooth="yes"/>
      <point x="204" y="362" type="line" smooth="yes"/>
      <point x="272" y="577" type="line" smooth="yes"/>
      <point x="203" y="577" type="line" smooth="yes"/>
      <point x="110" y="387" type="line" smooth="yes"/>
      <point x="25" y="194" type="line" smooth="yes"/>
      <point x="71" y="48" type="line" smooth="yes"/>
      <point x="231" y="-12" type="line" smooth="yes"/>
      <point x="400" y="63" type="line" smooth="yes"/>
      <point x="445" y="258" type="line" smooth="yes"/>
      <point x="445" y="271" type="line" smooth="yes"/>
      <point x="343" y="271" type="line" smooth="yes"/>
      <point x="320" y="129" type="line" smooth="yes"/>
    </contour>
  </outline>
</glyph>
