<?xml version="1.0" encoding="UTF-8"?>
<glyph name="sterling" format="1">
  <advance width="600"/>
  <unicode hex="00A3"/>
  <outline>
    <contour>
      <point x="326" y="701" type="line" smooth="yes"/>
      <point x="420" y="647" type="line" smooth="yes"/>
      <point x="449" y="500" type="line" smooth="yes"/>
      <point x="551" y="500" type="line" smooth="yes"/>
      <point x="551" y="514" type="line" smooth="yes"/>
      <point x="501" y="716" type="line" smooth="yes"/>
      <point x="326" y="792" type="line" smooth="yes"/>
      <point x="160" y="730" type="line" smooth="yes"/>
      <point x="108" y="579" type="line" smooth="yes"/>
      <point x="114" y="498" type="line" smooth="yes"/>
      <point x="128" y="423" type="line" smooth="yes"/>
      <point x="51" y="423" type="line" smooth="yes"/>
      <point x="51" y="332" type="line" smooth="yes"/>
      <point x="154" y="332" type="line" smooth="yes"/>
      <point x="189" y="217" type="line" smooth="yes"/>
      <point x="212" y="92" type="line" smooth="yes"/>
      <point x="51" y="92" type="line" smooth="yes"/>
      <point x="51" y="0" type="line" smooth="yes"/>
      <point x="549" y="0" type="line" smooth="yes"/>
      <point x="549" y="92" type="line" smooth="yes"/>
      <point x="302" y="92" type="line" smooth="yes"/>
      <point x="286" y="218" type="line" smooth="yes"/>
      <point x="258" y="332" type="line" smooth="yes"/>
      <point x="426" y="332" type="line" smooth="yes"/>
      <point x="426" y="423" type="line" smooth="yes"/>
      <point x="234" y="423" type="line" smooth="yes"/>
      <point x="218" y="499" type="line" smooth="yes"/>
      <point x="211" y="570" type="line" smooth="yes"/>
      <point x="239" y="665" type="line" smooth="yes"/>
    </contour>
  </outline>
</glyph>
