<?xml version="1.0" encoding="UTF-8"?>
<glyph name="Ucircumflex" format="1">
  <advance width="647"/>
  <unicode hex="00DB"/>
  <outline>
    <contour>
      <point x="258" y="840" type="line" smooth="yes"/>
      <point x="324" y="897" type="line" smooth="yes"/>
      <point x="390" y="840" type="line" smooth="yes"/>
      <point x="486" y="840" type="line" smooth="yes"/>
      <point x="373" y="950" type="line" smooth="yes"/>
      <point x="275" y="950" type="line" smooth="yes"/>
      <point x="162" y="840" type="line" smooth="yes"/>
    </contour>
    <contour>
      <point x="324" y="-12" type="line" smooth="yes"/>
      <point x="523" y="48" type="line" smooth="yes"/>
      <point x="585" y="243" type="line" smooth="yes"/>
      <point x="585" y="780" type="line" smooth="yes"/>
      <point x="481" y="780" type="line" smooth="yes"/>
      <point x="481" y="248" type="line" smooth="yes"/>
      <point x="443" y="118" type="line" smooth="yes"/>
      <point x="324" y="80" type="line" smooth="yes"/>
      <point x="204" y="118" type="line" smooth="yes"/>
      <point x="166" y="248" type="line" smooth="yes"/>
      <point x="166" y="780" type="line" smooth="yes"/>
      <point x="62" y="780" type="line" smooth="yes"/>
      <point x="62" y="243" type="line" smooth="yes"/>
      <point x="124" y="48" type="line" smooth="yes"/>
    </contour>
  </outline>
</glyph>
