<?xml version="1.0" encoding="UTF-8"?>
<glyph name="atilde" format="1">
  <advance width="485"/>
  <unicode hex="00E3"/>
  <outline>
    <contour>
      <point x="409" y="732" type="line" smooth="yes"/>
      <point x="401" y="705" type="line" smooth="yes"/>
      <point x="388" y="689" type="line" smooth="yes"/>
      <point x="372" y="682" type="line" smooth="yes"/>
      <point x="355" y="680" type="line" smooth="yes"/>
      <point x="321" y="689" type="line" smooth="yes"/>
      <point x="289" y="709" type="line" smooth="yes"/>
      <point x="256" y="729" type="line" smooth="yes"/>
      <point x="220" y="738" type="line" smooth="yes"/>
      <point x="197" y="735" type="line" smooth="yes"/>
      <point x="175" y="724" type="line" smooth="yes"/>
      <point x="158" y="702" type="line" smooth="yes"/>
      <point x="148" y="668" type="line" smooth="yes"/>
      <point x="166" y="668" type="line" smooth="yes"/>
      <point x="174" y="695" type="line" smooth="yes"/>
      <point x="187" y="711" type="line" smooth="yes"/>
      <point x="203" y="718" type="line" smooth="yes"/>
      <point x="220" y="720" type="line" smooth="yes"/>
      <point x="254" y="711" type="line" smooth="yes"/>
      <point x="286" y="691" type="line" smooth="yes"/>
      <point x="319" y="671" type="line" smooth="yes"/>
      <point x="355" y="662" type="line" smooth="yes"/>
      <point x="378" y="665" type="line" smooth="yes"/>
      <point x="400" y="676" type="line" smooth="yes"/>
      <point x="417" y="698" type="line" smooth="yes"/>
      <point x="427" y="732" type="line" smooth="yes"/>
    </contour>
    <contour>
      <point x="158" y="14" type="line" smooth="yes"/>
      <point x="101" y="23" type="line" smooth="yes"/>
      <point x="62" y="47" type="line" smooth="yes"/>
      <point x="41" y="83" type="line" smooth="yes"/>
      <point x="38" y="128" type="line" smooth="yes"/>
      <point x="40" y="144" type="line" smooth="yes"/>
      <point x="58" y="201" type="line" smooth="yes"/>
      <point x="93" y="236" type="line" smooth="yes"/>
      <point x="139" y="256" type="line" smooth="yes"/>
      <point x="193" y="267" type="line" smooth="yes"/>
      <point x="384" y="296" type="line" smooth="yes"/>
      <point x="360" y="111" type="line" smooth="yes"/>
      <point x="336" y="82" type="line" smooth="yes"/>
      <point x="297" y="51" type="line" smooth="yes"/>
      <point x="239" y="25" type="line" smooth="yes"/>
    </contour>
    <contour>
      <point x="18" y="128" type="line" smooth="yes"/>
      <point x="23" y="69" type="line" smooth="yes"/>
      <point x="52" y="27" type="line" smooth="yes"/>
      <point x="99" y="2" type="line" smooth="yes"/>
      <point x="158" y="-6" type="line" smooth="yes"/>
      <point x="233" y="3" type="line" smooth="yes"/>
      <point x="290" y="25" type="line" smooth="yes"/>
      <point x="331" y="55" type="line" smooth="yes"/>
      <point x="360" y="86" type="line" smooth="yes"/>
      <point x="355" y="0" type="line" smooth="yes"/>
      <point x="371" y="0" type="line" smooth="yes"/>
      <point x="381" y="118" type="line" smooth="yes"/>
      <point x="413" y="364" type="line" smooth="yes"/>
      <point x="414" y="431" type="line" smooth="yes"/>
      <point x="394" y="485" type="line" smooth="yes"/>
      <point x="346" y="522" type="line" smooth="yes"/>
      <point x="263" y="536" type="line" smooth="yes"/>
      <point x="175" y="522" type="line" smooth="yes"/>
      <point x="119" y="484" type="line" smooth="yes"/>
      <point x="88" y="429" type="line" smooth="yes"/>
      <point x="74" y="366" type="line" smooth="yes"/>
      <point x="72" y="350" type="line" smooth="yes"/>
      <point x="92" y="350" type="line" smooth="yes"/>
      <point x="106" y="416" type="line" smooth="yes"/>
      <point x="133" y="469" type="line" smooth="yes"/>
      <point x="183" y="503" type="line" smooth="yes"/>
      <point x="263" y="516" type="line" smooth="yes"/>
      <point x="338" y="503" type="line" smooth="yes"/>
      <point x="380" y="468" type="line" smooth="yes"/>
      <point x="395" y="417" type="line" smooth="yes"/>
      <point x="392" y="354" type="line" smooth="yes"/>
      <point x="387" y="316" type="line" smooth="yes"/>
      <point x="203" y="288" type="line" smooth="yes"/>
      <point x="138" y="275" type="line" smooth="yes"/>
      <point x="83" y="252" type="line" smooth="yes"/>
      <point x="42" y="211" type="line" smooth="yes"/>
      <point x="20" y="144" type="line" smooth="yes"/>
    </contour>
  </outline>
</glyph>
