<?xml version="1.0" encoding="UTF-8"?>
<glyph name="B" format="1">
  <advance width="549"/>
  <unicode hex="0042"/>
  <outline>
    <contour>
      <point x="310" y="760" type="line" smooth="yes"/>
      <point x="374" y="754" type="line" smooth="yes"/>
      <point x="433" y="730" type="line" smooth="yes"/>
      <point x="473" y="679" type="line" smooth="yes"/>
      <point x="481" y="592" type="line" smooth="yes"/>
      <point x="478" y="568" type="line" smooth="yes"/>
      <point x="451" y="484" type="line" smooth="yes"/>
      <point x="404" y="435" type="line" smooth="yes"/>
      <point x="343" y="413" type="line" smooth="yes"/>
      <point x="277" y="408" type="line" smooth="yes"/>
      <point x="105" y="408" type="line" smooth="yes"/>
      <point x="151" y="760" type="line" smooth="yes"/>
    </contour>
    <contour>
      <point x="277" y="388" type="line" smooth="yes"/>
      <point x="342" y="382" type="line" smooth="yes"/>
      <point x="402" y="358" type="line" smooth="yes"/>
      <point x="444" y="305" type="line" smooth="yes"/>
      <point x="452" y="212" type="line" smooth="yes"/>
      <point x="449" y="188" type="line" smooth="yes"/>
      <point x="420" y="96" type="line" smooth="yes"/>
      <point x="368" y="46" type="line" smooth="yes"/>
      <point x="302" y="24" type="line" smooth="yes"/>
      <point x="230" y="20" type="line" smooth="yes"/>
      <point x="54" y="20" type="line" smooth="yes"/>
      <point x="102" y="388" type="line" smooth="yes"/>
    </contour>
    <contour>
      <point x="133" y="780" type="line" smooth="yes"/>
      <point x="31" y="0" type="line" smooth="yes"/>
      <point x="230" y="0" type="line" smooth="yes"/>
      <point x="313" y="6" type="line" smooth="yes"/>
      <point x="386" y="33" type="line" smooth="yes"/>
      <point x="440" y="90" type="line" smooth="yes"/>
      <point x="470" y="188" type="line" smooth="yes"/>
      <point x="473" y="212" type="line" smooth="yes"/>
      <point x="471" y="293" type="line" smooth="yes"/>
      <point x="444" y="349" type="line" smooth="yes"/>
      <point x="400" y="382" type="line" smooth="yes"/>
      <point x="344" y="398" type="line" smooth="yes"/>
      <point x="397" y="411" type="line" smooth="yes"/>
      <point x="443" y="441" type="line" smooth="yes"/>
      <point x="479" y="491" type="line" smooth="yes"/>
      <point x="499" y="568" type="line" smooth="yes"/>
      <point x="502" y="592" type="line" smooth="yes"/>
      <point x="495" y="685" type="line" smooth="yes"/>
      <point x="453" y="743" type="line" smooth="yes"/>
      <point x="387" y="772" type="line" smooth="yes"/>
      <point x="310" y="780" type="line" smooth="yes"/>
    </contour>
  </outline>
</glyph>
