<?xml version="1.0" encoding="UTF-8"?>
<glyph name="braceright" format="1">
  <advance width="300"/>
  <unicode hex="007D"/>
  <outline>
    <contour>
      <point x="-15" y="-120" type="line" smooth="yes"/>
      <point x="-11" y="-120" type="line" smooth="yes"/>
      <point x="36" y="-116" type="line" smooth="yes"/>
      <point x="77" y="-98" type="line" smooth="yes"/>
      <point x="108" y="-60" type="line" smooth="yes"/>
      <point x="126" y="5" type="line" smooth="yes"/>
      <point x="159" y="256" type="line" smooth="yes"/>
      <point x="172" y="304" type="line" smooth="yes"/>
      <point x="194" y="333" type="line" smooth="yes"/>
      <point x="225" y="347" type="line" smooth="yes"/>
      <point x="262" y="350" type="line" smooth="yes"/>
      <point x="265" y="370" type="line" smooth="yes"/>
      <point x="229" y="373" type="line" smooth="yes"/>
      <point x="202" y="386" type="line" smooth="yes"/>
      <point x="186" y="414" type="line" smooth="yes"/>
      <point x="186" y="462" type="line" smooth="yes"/>
      <point x="219" y="713" type="line" smooth="yes"/>
      <point x="218" y="777" type="line" smooth="yes"/>
      <point x="197" y="816" type="line" smooth="yes"/>
      <point x="161" y="835" type="line" smooth="yes"/>
      <point x="115" y="840" type="line" smooth="yes"/>
      <point x="111" y="840" type="line" smooth="yes"/>
      <point x="108" y="820" type="line" smooth="yes"/>
      <point x="150" y="816" type="line" smooth="yes"/>
      <point x="182" y="800" type="line" smooth="yes"/>
      <point x="199" y="767" type="line" smooth="yes"/>
      <point x="199" y="710" type="line" smooth="yes"/>
      <point x="167" y="463" type="line" smooth="yes"/>
      <point x="166" y="421" type="line" smooth="yes"/>
      <point x="174" y="391" type="line" smooth="yes"/>
      <point x="191" y="372" type="line" smooth="yes"/>
      <point x="213" y="360" type="line" smooth="yes"/>
      <point x="187" y="349" type="line" smooth="yes"/>
      <point x="166" y="330" type="line" smooth="yes"/>
      <point x="150" y="300" type="line" smooth="yes"/>
      <point x="140" y="257" type="line" smooth="yes"/>
      <point x="107" y="10" type="line" smooth="yes"/>
      <point x="92" y="-48" type="line" smooth="yes"/>
      <point x="66" y="-81" type="line" smooth="yes"/>
      <point x="31" y="-96" type="line" smooth="yes"/>
      <point x="-12" y="-100" type="line" smooth="yes"/>
    </contour>
  </outline>
</glyph>
