<?xml version="1.0" encoding="UTF-8"?>
<glyph name="endash" format="1">
  <advance width="500"/>
  <unicode hex="2013"/>
  <outline>
    <contour>
      <point x="44" y="330" type="line" smooth="yes"/>
      <point x="444" y="330" type="line" smooth="yes"/>
      <point x="447" y="350" type="line" smooth="yes"/>
      <point x="47" y="350" type="line" smooth="yes"/>
    </contour>
  </outline>
</glyph>
