<?xml version="1.0" encoding="UTF-8"?>
<glyph name="l" format="1">
  <advance width="180"/>
  <unicode hex="006C"/>
  <outline>
    <contour>
      <point x="31" y="0" type="line" smooth="yes"/>
      <point x="51" y="0" type="line" smooth="yes"/>
      <point x="156" y="800" type="line" smooth="yes"/>
      <point x="136" y="800" type="line" smooth="yes"/>
    </contour>
  </outline>
</glyph>
