<?xml version="1.0" encoding="UTF-8"?>
<glyph name="ccedilla" format="1">
  <advance width="518"/>
  <unicode hex="00E7"/>
  <outline>
    <contour>
      <point x="119" y="-183" type="line" smooth="yes"/>
      <point x="142" y="-196" type="line" smooth="yes"/>
      <point x="173" y="-206" type="line" smooth="yes"/>
      <point x="206" y="-210" type="line" smooth="yes"/>
      <point x="257" y="-202" type="line" smooth="yes"/>
      <point x="293" y="-177" type="line" smooth="yes"/>
      <point x="307" y="-130" type="line" smooth="yes"/>
      <point x="294" y="-90" type="line" smooth="yes"/>
      <point x="261" y="-70" type="line" smooth="yes"/>
      <point x="222" y="-64" type="line" smooth="yes"/>
      <point x="217" y="-64" type="line" smooth="yes"/>
      <point x="245" y="-10" type="line" smooth="yes"/>
      <point x="353" y="22" type="line" smooth="yes"/>
      <point x="413" y="89" type="line" smooth="yes"/>
      <point x="437" y="166" type="line" smooth="yes"/>
      <point x="439" y="180" type="line" smooth="yes"/>
      <point x="399" y="180" type="line" smooth="yes"/>
      <point x="377" y="106" type="line" smooth="yes"/>
      <point x="325" y="50" type="line" smooth="yes"/>
      <point x="234" y="28" type="line" smooth="yes"/>
      <point x="137" y="57" type="line" smooth="yes"/>
      <point x="86" y="139" type="line" smooth="yes"/>
      <point x="81" y="262" type="line" smooth="yes"/>
      <point x="83" y="278" type="line" smooth="yes"/>
      <point x="116" y="397" type="line" smooth="yes"/>
      <point x="181" y="475" type="line" smooth="yes"/>
      <point x="278" y="502" type="line" smooth="yes"/>
      <point x="368" y="480" type="line" smooth="yes"/>
      <point x="414" y="422" type="line" smooth="yes"/>
      <point x="421" y="340" type="line" smooth="yes"/>
      <point x="460" y="340" type="line" smooth="yes"/>
      <point x="462" y="355" type="line" smooth="yes"/>
      <point x="455" y="435" type="line" smooth="yes"/>
      <point x="399" y="508" type="line" smooth="yes"/>
      <point x="278" y="540" type="line" smooth="yes"/>
      <point x="156" y="506" type="line" smooth="yes"/>
      <point x="79" y="413" type="line" smooth="yes"/>
      <point x="41" y="275" type="line" smooth="yes"/>
      <point x="39" y="259" type="line" smooth="yes"/>
      <point x="45" y="130" type="line" smooth="yes"/>
      <point x="100" y="34" type="line" smooth="yes"/>
      <point x="209" y="-9" type="line" smooth="yes"/>
      <point x="172" y="-83" type="line" smooth="yes"/>
      <point x="186" y="-99" type="line" smooth="yes"/>
      <point x="190" y="-98" type="line" smooth="yes"/>
      <point x="200" y="-98" type="line" smooth="yes"/>
      <point x="214" y="-97" type="line" smooth="yes"/>
      <point x="243" y="-100" type="line" smooth="yes"/>
      <point x="264" y="-111" type="line" smooth="yes"/>
      <point x="273" y="-134" type="line" smooth="yes"/>
      <point x="265" y="-158" type="line" smooth="yes"/>
      <point x="242" y="-173" type="line" smooth="yes"/>
      <point x="206" y="-177" type="line" smooth="yes"/>
      <point x="177" y="-174" type="line" smooth="yes"/>
      <point x="152" y="-166" type="line" smooth="yes"/>
      <point x="134" y="-155" type="line" smooth="yes"/>
    </contour>
  </outline>
</glyph>
