<?xml version="1.0" encoding="UTF-8"?>
<glyph name="gcircumflex" format="1">
  <advance width="525"/>
  <unicode hex="011D"/>
  <outline>
    <contour>
      <point x="386" y="154" type="line" smooth="yes"/>
      <point x="346" y="111" type="line" smooth="yes"/>
      <point x="294" y="80" type="line" smooth="yes"/>
      <point x="227" y="68" type="line" smooth="yes"/>
      <point x="135" y="94" type="line" smooth="yes"/>
      <point x="88" y="168" type="line" smooth="yes"/>
      <point x="84" y="282" type="line" smooth="yes"/>
      <point x="86" y="298" type="line" smooth="yes"/>
      <point x="118" y="409" type="line" smooth="yes"/>
      <point x="182" y="478" type="line" smooth="yes"/>
      <point x="278" y="502" type="line" smooth="yes"/>
      <point x="345" y="486" type="line" smooth="yes"/>
      <point x="391" y="449" type="line" smooth="yes"/>
      <point x="419" y="404" type="line" smooth="yes"/>
    </contour>
    <contour>
      <point x="365" y="-5" type="line" smooth="yes"/>
      <point x="341" y="-95" type="line" smooth="yes"/>
      <point x="288" y="-152" type="line" smooth="yes"/>
      <point x="192" y="-172" type="line" smooth="yes"/>
      <point x="106" y="-153" type="line" smooth="yes"/>
      <point x="59" y="-97" type="line" smooth="yes"/>
      <point x="53" y="0" type="line" smooth="yes"/>
      <point x="16" y="0" type="line" smooth="yes"/>
      <point x="14" y="-15" type="line" smooth="yes"/>
      <point x="21" y="-114" type="line" smooth="yes"/>
      <point x="78" y="-184" type="line" smooth="yes"/>
      <point x="192" y="-210" type="line" smooth="yes"/>
      <point x="308" y="-183" type="line" smooth="yes"/>
      <point x="375" y="-111" type="line" smooth="yes"/>
      <point x="404" y="-10" type="line" smooth="yes"/>
      <point x="456" y="380" type="line" smooth="yes"/>
      <point x="480" y="530" type="line" smooth="yes"/>
      <point x="450" y="530" type="line" smooth="yes"/>
      <point x="431" y="449" type="line" smooth="yes"/>
      <point x="402" y="489" type="line" smooth="yes"/>
      <point x="351" y="525" type="line" smooth="yes"/>
      <point x="278" y="540" type="line" smooth="yes"/>
      <point x="157" y="508" type="line" smooth="yes"/>
      <point x="80" y="423" type="line" smooth="yes"/>
      <point x="44" y="295" type="line" smooth="yes"/>
      <point x="42" y="279" type="line" smooth="yes"/>
      <point x="48" y="155" type="line" smooth="yes"/>
      <point x="106" y="65" type="line" smooth="yes"/>
      <point x="227" y="30" type="line" smooth="yes"/>
      <point x="289" y="39" type="line" smooth="yes"/>
      <point x="340" y="65" type="line" smooth="yes"/>
      <point x="378" y="100" type="line" smooth="yes"/>
    </contour>
    <contour>
      <point x="194" y="620" type="line" smooth="yes"/>
      <point x="310" y="744" type="line" smooth="yes"/>
      <point x="394" y="620" type="line" smooth="yes"/>
      <point x="437" y="620" type="line" smooth="yes"/>
      <point x="328" y="780" type="line" smooth="yes"/>
      <point x="298" y="780" type="line" smooth="yes"/>
      <point x="147" y="620" type="line" smooth="yes"/>
    </contour>
  </outline>
</glyph>
