<?xml version="1.0" encoding="UTF-8"?>
<glyph name="ncommaaccent" format="1">
  <advance width="508"/>
  <unicode hex="0146"/>
  <outline>
    <contour>
      <point x="396" y="0" type="line" smooth="yes"/>
      <point x="445" y="375" type="line" smooth="yes"/>
      <point x="436" y="463" type="line" smooth="yes"/>
      <point x="383" y="520" type="line" smooth="yes"/>
      <point x="290" y="540" type="line" smooth="yes"/>
      <point x="219" y="529" type="line" smooth="yes"/>
      <point x="159" y="497" type="line" smooth="yes"/>
      <point x="114" y="452" type="line" smooth="yes"/>
      <point x="115" y="530" type="line" smooth="yes"/>
      <point x="85" y="530" type="line" smooth="yes"/>
      <point x="71" y="380" type="line" smooth="yes"/>
      <point x="21" y="0" type="line" smooth="yes"/>
      <point x="61" y="0" type="line" smooth="yes"/>
      <point x="114" y="410" type="line" smooth="yes"/>
      <point x="151" y="451" type="line" smooth="yes"/>
      <point x="208" y="487" type="line" smooth="yes"/>
      <point x="285" y="502" type="line" smooth="yes"/>
      <point x="355" y="489" type="line" smooth="yes"/>
      <point x="397" y="446" type="line" smooth="yes"/>
      <point x="404" y="370" type="line" smooth="yes"/>
      <point x="356" y="0" type="line" smooth="yes"/>
    </contour>
    <contour>
      <point x="231" y="-60" type="line" smooth="yes"/>
      <point x="171" y="-60" type="line" smooth="yes"/>
      <point x="163" y="-120" type="line" smooth="yes"/>
      <point x="193" y="-120" type="line" smooth="yes"/>
      <point x="178" y="-154" type="line" smooth="yes"/>
      <point x="155" y="-174" type="line" smooth="yes"/>
      <point x="125" y="-180" type="line" smooth="yes"/>
      <point x="121" y="-210" type="line" smooth="yes"/>
      <point x="170" y="-197" type="line" smooth="yes"/>
      <point x="206" y="-162" type="line" smooth="yes"/>
      <point x="224" y="-108" type="line" smooth="yes"/>
    </contour>
  </outline>
</glyph>
