<?xml version="1.0" encoding="UTF-8"?>
<glyph name="u" format="1">
  <advance width="510"/>
  <unicode hex="0075"/>
  <outline>
    <contour>
      <point x="85" y="530" type="line" smooth="yes"/>
      <point x="36" y="155" type="line" smooth="yes"/>
      <point x="45" y="67" type="line" smooth="yes"/>
      <point x="98" y="10" type="line" smooth="yes"/>
      <point x="191" y="-10" type="line" smooth="yes"/>
      <point x="262" y="1" type="line" smooth="yes"/>
      <point x="322" y="33" type="line" smooth="yes"/>
      <point x="367" y="78" type="line" smooth="yes"/>
      <point x="366" y="0" type="line" smooth="yes"/>
      <point x="396" y="0" type="line" smooth="yes"/>
      <point x="410" y="150" type="line" smooth="yes"/>
      <point x="460" y="530" type="line" smooth="yes"/>
      <point x="420" y="530" type="line" smooth="yes"/>
      <point x="367" y="120" type="line" smooth="yes"/>
      <point x="330" y="79" type="line" smooth="yes"/>
      <point x="273" y="43" type="line" smooth="yes"/>
      <point x="196" y="28" type="line" smooth="yes"/>
      <point x="126" y="41" type="line" smooth="yes"/>
      <point x="84" y="84" type="line" smooth="yes"/>
      <point x="77" y="160" type="line" smooth="yes"/>
      <point x="125" y="530" type="line" smooth="yes"/>
    </contour>
  </outline>
</glyph>
