<?xml version="1.0" encoding="UTF-8"?>
<glyph name="uring" format="1">
  <advance width="510"/>
  <unicode hex="016F"/>
  <outline>
    <contour>
      <point x="237" y="690" type="line" smooth="yes"/>
      <point x="247" y="728" type="line" smooth="yes"/>
      <point x="270" y="750" type="line" smooth="yes"/>
      <point x="302" y="758" type="line" smooth="yes"/>
      <point x="329" y="751" type="line" smooth="yes"/>
      <point x="346" y="734" type="line" smooth="yes"/>
      <point x="353" y="710" type="line" smooth="yes"/>
      <point x="343" y="672" type="line" smooth="yes"/>
      <point x="320" y="650" type="line" smooth="yes"/>
      <point x="288" y="642" type="line" smooth="yes"/>
      <point x="261" y="649" type="line" smooth="yes"/>
      <point x="244" y="666" type="line" smooth="yes"/>
    </contour>
    <contour>
      <point x="386" y="710" type="line" smooth="yes"/>
      <point x="375" y="751" type="line" smooth="yes"/>
      <point x="346" y="779" type="line" smooth="yes"/>
      <point x="302" y="790" type="line" smooth="yes"/>
      <point x="251" y="776" type="line" smooth="yes"/>
      <point x="217" y="740" type="line" smooth="yes"/>
      <point x="204" y="690" type="line" smooth="yes"/>
      <point x="215" y="649" type="line" smooth="yes"/>
      <point x="244" y="621" type="line" smooth="yes"/>
      <point x="288" y="610" type="line" smooth="yes"/>
      <point x="339" y="624" type="line" smooth="yes"/>
      <point x="373" y="660" type="line" smooth="yes"/>
    </contour>
    <contour>
      <point x="85" y="530" type="line" smooth="yes"/>
      <point x="36" y="155" type="line" smooth="yes"/>
      <point x="45" y="67" type="line" smooth="yes"/>
      <point x="98" y="10" type="line" smooth="yes"/>
      <point x="191" y="-10" type="line" smooth="yes"/>
      <point x="262" y="1" type="line" smooth="yes"/>
      <point x="322" y="33" type="line" smooth="yes"/>
      <point x="367" y="78" type="line" smooth="yes"/>
      <point x="366" y="0" type="line" smooth="yes"/>
      <point x="396" y="0" type="line" smooth="yes"/>
      <point x="410" y="150" type="line" smooth="yes"/>
      <point x="460" y="530" type="line" smooth="yes"/>
      <point x="420" y="530" type="line" smooth="yes"/>
      <point x="367" y="120" type="line" smooth="yes"/>
      <point x="330" y="79" type="line" smooth="yes"/>
      <point x="273" y="43" type="line" smooth="yes"/>
      <point x="196" y="28" type="line" smooth="yes"/>
      <point x="126" y="41" type="line" smooth="yes"/>
      <point x="84" y="84" type="line" smooth="yes"/>
      <point x="77" y="160" type="line" smooth="yes"/>
      <point x="125" y="530" type="line" smooth="yes"/>
    </contour>
  </outline>
</glyph>
