<?xml version="1.0" encoding="UTF-8"?>
<glyph name="lcommaaccent" format="1">
  <advance width="234"/>
  <unicode hex="013C"/>
  <outline>
    <contour>
      <point x="113" y="-51" type="line" smooth="yes"/>
      <point x="10" y="-51" type="line" smooth="yes"/>
      <point x="0" y="-129" type="line" smooth="yes"/>
      <point x="53" y="-129" type="line" smooth="yes"/>
      <point x="44" y="-149" type="line" smooth="yes"/>
      <point x="27" y="-162" type="line" smooth="yes"/>
      <point x="4" y="-170" type="line" smooth="yes"/>
      <point x="-23" y="-172" type="line" smooth="yes"/>
      <point x="-29" y="-219" type="line" smooth="yes"/>
      <point x="24" y="-212" type="line" smooth="yes"/>
      <point x="64" y="-191" type="line" smooth="yes"/>
      <point x="92" y="-155" type="line" smooth="yes"/>
      <point x="106" y="-105" type="line" smooth="yes"/>
    </contour>
    <contour>
      <point x="18" y="0" type="line" smooth="yes"/>
      <point x="118" y="0" type="line" smooth="yes"/>
      <point x="223" y="800" type="line" smooth="yes"/>
      <point x="123" y="800" type="line" smooth="yes"/>
    </contour>
  </outline>
</glyph>
