<?xml version="1.0" encoding="UTF-8"?>
<glyph name="nine" format="1">
  <advance width="596"/>
  <unicode hex="0039"/>
  <outline>
    <contour>
      <point x="294" y="381" type="line" smooth="yes"/>
      <point x="237" y="391" type="line" smooth="yes"/>
      <point x="194" y="422" type="line" smooth="yes"/>
      <point x="170" y="471" type="line" smooth="yes"/>
      <point x="168" y="538" type="line" smooth="yes"/>
      <point x="169" y="546" type="line" smooth="yes"/>
      <point x="187" y="611" type="line" smooth="yes"/>
      <point x="221" y="660" type="line" smooth="yes"/>
      <point x="269" y="690" type="line" smooth="yes"/>
      <point x="330" y="700" type="line" smooth="yes"/>
      <point x="336" y="700" type="line" smooth="yes"/>
      <point x="389" y="691" type="line" smooth="yes"/>
      <point x="431" y="664" type="line" smooth="yes"/>
      <point x="460" y="619" type="line" smooth="yes"/>
      <point x="470" y="553" type="line" smooth="yes"/>
      <point x="469" y="529" type="line" smooth="yes"/>
      <point x="467" y="509" type="line" smooth="yes"/>
      <point x="463" y="491" type="line" smooth="yes"/>
      <point x="459" y="473" type="line" smooth="yes"/>
      <point x="428" y="433" type="line" smooth="yes"/>
      <point x="390" y="404" type="line" smooth="yes"/>
      <point x="347" y="387" type="line" smooth="yes"/>
      <point x="300" y="381" type="line" smooth="yes"/>
    </contour>
    <contour>
      <point x="29" y="-12" type="line" smooth="yes"/>
      <point x="130" y="-5" type="line" smooth="yes"/>
      <point x="230" y="20" type="line" smooth="yes"/>
      <point x="326" y="66" type="line" smooth="yes"/>
      <point x="412" y="137" type="line" smooth="yes"/>
      <point x="476" y="219" type="line" smooth="yes"/>
      <point x="520" y="303" type="line" smooth="yes"/>
      <point x="547" y="390" type="line" smooth="yes"/>
      <point x="564" y="481" type="line" smooth="yes"/>
      <point x="567" y="503" type="line" smooth="yes"/>
      <point x="564" y="620" type="line" smooth="yes"/>
      <point x="521" y="712" type="line" smooth="yes"/>
      <point x="444" y="771" type="line" smooth="yes"/>
      <point x="335" y="792" type="line" smooth="yes"/>
      <point x="233" y="777" type="line" smooth="yes"/>
      <point x="153" y="731" type="line" smooth="yes"/>
      <point x="96" y="655" type="line" smooth="yes"/>
      <point x="66" y="550" type="line" smooth="yes"/>
      <point x="63" y="528" type="line" smooth="yes"/>
      <point x="69" y="423" type="line" smooth="yes"/>
      <point x="114" y="349" type="line" smooth="yes"/>
      <point x="185" y="304" type="line" smooth="yes"/>
      <point x="273" y="289" type="line" smooth="yes"/>
      <point x="323" y="294" type="line" smooth="yes"/>
      <point x="367" y="310" type="line" smooth="yes"/>
      <point x="405" y="332" type="line" smooth="yes"/>
      <point x="436" y="361" type="line" smooth="yes"/>
      <point x="420" y="317" type="line" smooth="yes"/>
      <point x="399" y="275" type="line" smooth="yes"/>
      <point x="373" y="234" type="line" smooth="yes"/>
      <point x="343" y="198" type="line" smooth="yes"/>
      <point x="273" y="142" type="line" smooth="yes"/>
      <point x="197" y="106" type="line" smooth="yes"/>
      <point x="118" y="87" type="line" smooth="yes"/>
      <point x="42" y="81" type="line" smooth="yes"/>
    </contour>
  </outline>
</glyph>
