<?xml version="1.0" encoding="UTF-8"?>
<glyph name="Obreve" format="1">
  <advance width="653"/>
  <unicode hex="014E"/>
  <outline>
    <contour>
      <point x="286" y="80" type="line" smooth="yes"/>
      <point x="211" y="97" type="line" smooth="yes"/>
      <point x="166" y="149" type="line" smooth="yes"/>
      <point x="148" y="239" type="line" smooth="yes"/>
      <point x="155" y="367" type="line" smooth="yes"/>
      <point x="161" y="413" type="line" smooth="yes"/>
      <point x="187" y="541" type="line" smooth="yes"/>
      <point x="228" y="631" type="line" smooth="yes"/>
      <point x="287" y="683" type="line" smooth="yes"/>
      <point x="366" y="700" type="line" smooth="yes"/>
      <point x="374" y="700" type="line" smooth="yes"/>
      <point x="449" y="683" type="line" smooth="yes"/>
      <point x="494" y="631" type="line" smooth="yes"/>
      <point x="512" y="541" type="line" smooth="yes"/>
      <point x="505" y="413" type="line" smooth="yes"/>
      <point x="499" y="367" type="line" smooth="yes"/>
      <point x="473" y="239" type="line" smooth="yes"/>
      <point x="432" y="149" type="line" smooth="yes"/>
      <point x="373" y="97" type="line" smooth="yes"/>
      <point x="294" y="80" type="line" smooth="yes"/>
    </contour>
    <contour>
      <point x="370" y="792" type="line" smooth="yes"/>
      <point x="248" y="771" type="line" smooth="yes"/>
      <point x="157" y="703" type="line" smooth="yes"/>
      <point x="93" y="586" type="line" smooth="yes"/>
      <point x="55" y="413" type="line" smooth="yes"/>
      <point x="49" y="367" type="line" smooth="yes"/>
      <point x="44" y="194" type="line" smooth="yes"/>
      <point x="81" y="77" type="line" smooth="yes"/>
      <point x="163" y="9" type="line" smooth="yes"/>
      <point x="290" y="-12" type="line" smooth="yes"/>
      <point x="412" y="9" type="line" smooth="yes"/>
      <point x="503" y="77" type="line" smooth="yes"/>
      <point x="567" y="194" type="line" smooth="yes"/>
      <point x="605" y="367" type="line" smooth="yes"/>
      <point x="611" y="413" type="line" smooth="yes"/>
      <point x="616" y="586" type="line" smooth="yes"/>
      <point x="579" y="703" type="line" smooth="yes"/>
      <point x="497" y="771" type="line" smooth="yes"/>
    </contour>
    <contour>
      <point x="392" y="827" type="line" smooth="yes"/>
      <point x="465" y="837" type="line" smooth="yes"/>
      <point x="517" y="863" type="line" smooth="yes"/>
      <point x="549" y="902" type="line" smooth="yes"/>
      <point x="564" y="950" type="line" smooth="yes"/>
      <point x="487" y="950" type="line" smooth="yes"/>
      <point x="479" y="923" type="line" smooth="yes"/>
      <point x="462" y="905" type="line" smooth="yes"/>
      <point x="434" y="894" type="line" smooth="yes"/>
      <point x="394" y="890" type="line" smooth="yes"/>
      <point x="357" y="894" type="line" smooth="yes"/>
      <point x="333" y="906" type="line" smooth="yes"/>
      <point x="320" y="925" type="line" smooth="yes"/>
      <point x="319" y="950" type="line" smooth="yes"/>
      <point x="246" y="950" type="line" smooth="yes"/>
      <point x="248" y="902" type="line" smooth="yes"/>
      <point x="270" y="863" type="line" smooth="yes"/>
      <point x="317" y="837" type="line" smooth="yes"/>
    </contour>
  </outline>
</glyph>
