<?xml version="1.0" encoding="UTF-8"?>
<glyph name="onesuperior" format="1">
  <advance width="300"/>
  <unicode hex="00B9"/>
  <outline>
    <contour>
      <point x="283" y="390" type="line" smooth="yes"/>
      <point x="292" y="460" type="line" smooth="yes"/>
      <point x="206" y="460" type="line" smooth="yes"/>
      <point x="248" y="780" type="line" smooth="yes"/>
      <point x="189" y="780" type="line" smooth="yes"/>
      <point x="56" y="698" type="line" smooth="yes"/>
      <point x="88" y="640" type="line" smooth="yes"/>
      <point x="155" y="681" type="line" smooth="yes"/>
      <point x="126" y="460" type="line" smooth="yes"/>
      <point x="41" y="460" type="line" smooth="yes"/>
      <point x="32" y="390" type="line" smooth="yes"/>
    </contour>
  </outline>
</glyph>
