<?xml version="1.0" encoding="UTF-8"?>
<glyph name="registered" format="1">
  <advance width="330"/>
  <unicode hex="00AE"/>
  <outline>
    <contour>
      <point x="191" y="696" type="line" smooth="yes"/>
      <point x="191" y="693" type="line" smooth="yes"/>
      <point x="189" y="683" type="line" smooth="yes"/>
      <point x="185" y="677" type="line" smooth="yes"/>
      <point x="177" y="673" type="line" smooth="yes"/>
      <point x="167" y="672" type="line" smooth="yes"/>
      <point x="139" y="672" type="line" smooth="yes"/>
      <point x="139" y="717" type="line" smooth="yes"/>
      <point x="167" y="717" type="line" smooth="yes"/>
      <point x="177" y="716" type="line" smooth="yes"/>
      <point x="185" y="712" type="line" smooth="yes"/>
      <point x="189" y="706" type="line" smooth="yes"/>
    </contour>
    <contour>
      <point x="234" y="691" type="line" smooth="yes"/>
      <point x="234" y="698" type="line" smooth="yes"/>
      <point x="229" y="722" type="line" smooth="yes"/>
      <point x="217" y="739" type="line" smooth="yes"/>
      <point x="198" y="748" type="line" smooth="yes"/>
      <point x="176" y="751" type="line" smooth="yes"/>
      <point x="96" y="751" type="line" smooth="yes"/>
      <point x="96" y="579" type="line" smooth="yes"/>
      <point x="139" y="579" type="line" smooth="yes"/>
      <point x="139" y="638" type="line" smooth="yes"/>
      <point x="165" y="638" type="line" smooth="yes"/>
      <point x="190" y="579" type="line" smooth="yes"/>
      <point x="234" y="579" type="line" smooth="yes"/>
      <point x="204" y="643" type="line" smooth="yes"/>
      <point x="216" y="650" type="line" smooth="yes"/>
      <point x="226" y="660" type="line" smooth="yes"/>
      <point x="232" y="674" type="line" smooth="yes"/>
    </contour>
    <contour>
      <point x="42" y="665" type="line" smooth="yes"/>
      <point x="52" y="713" type="line" smooth="yes"/>
      <point x="78" y="752" type="line" smooth="yes"/>
      <point x="117" y="778" type="line" smooth="yes"/>
      <point x="165" y="788" type="line" smooth="yes"/>
      <point x="213" y="778" type="line" smooth="yes"/>
      <point x="252" y="752" type="line" smooth="yes"/>
      <point x="278" y="713" type="line" smooth="yes"/>
      <point x="288" y="665" type="line" smooth="yes"/>
      <point x="278" y="617" type="line" smooth="yes"/>
      <point x="252" y="578" type="line" smooth="yes"/>
      <point x="213" y="552" type="line" smooth="yes"/>
      <point x="165" y="542" type="line" smooth="yes"/>
      <point x="117" y="552" type="line" smooth="yes"/>
      <point x="78" y="578" type="line" smooth="yes"/>
      <point x="52" y="617" type="line" smooth="yes"/>
    </contour>
    <contour>
      <point x="18" y="665" type="line" smooth="yes"/>
      <point x="30" y="608" type="line" smooth="yes"/>
      <point x="61" y="561" type="line" smooth="yes"/>
      <point x="108" y="530" type="line" smooth="yes"/>
      <point x="165" y="518" type="line" smooth="yes"/>
      <point x="222" y="530" type="line" smooth="yes"/>
      <point x="269" y="561" type="line" smooth="yes"/>
      <point x="300" y="608" type="line" smooth="yes"/>
      <point x="312" y="665" type="line" smooth="yes"/>
      <point x="300" y="722" type="line" smooth="yes"/>
      <point x="269" y="769" type="line" smooth="yes"/>
      <point x="222" y="800" type="line" smooth="yes"/>
      <point x="165" y="812" type="line" smooth="yes"/>
      <point x="108" y="800" type="line" smooth="yes"/>
      <point x="61" y="769" type="line" smooth="yes"/>
      <point x="30" y="722" type="line" smooth="yes"/>
    </contour>
  </outline>
</glyph>
