<?xml version="1.0" encoding="UTF-8"?>
<glyph name="eight" format="1">
  <advance width="598"/>
  <unicode hex="0038"/>
  <outline>
    <contour>
      <point x="343" y="727" type="line" smooth="yes"/>
      <point x="462" y="687" type="line" smooth="yes"/>
      <point x="498" y="577" type="line" smooth="yes"/>
      <point x="497" y="569" type="line" smooth="yes"/>
      <point x="438" y="462" type="line" smooth="yes"/>
      <point x="316" y="430" type="line" smooth="yes"/>
      <point x="296" y="430" type="line" smooth="yes"/>
      <point x="187" y="467" type="line" smooth="yes"/>
      <point x="154" y="573" type="line" smooth="yes"/>
      <point x="155" y="581" type="line" smooth="yes"/>
      <point x="212" y="690" type="line" smooth="yes"/>
      <point x="336" y="727" type="line" smooth="yes"/>
    </contour>
    <contour>
      <point x="311" y="366" type="line" smooth="yes"/>
      <point x="423" y="328" type="line" smooth="yes"/>
      <point x="454" y="214" type="line" smooth="yes"/>
      <point x="453" y="206" type="line" smooth="yes"/>
      <point x="394" y="91" type="line" smooth="yes"/>
      <point x="268" y="53" type="line" smooth="yes"/>
      <point x="262" y="53" type="line" smooth="yes"/>
      <point x="142" y="91" type="line" smooth="yes"/>
      <point x="103" y="207" type="line" smooth="yes"/>
      <point x="104" y="215" type="line" smooth="yes"/>
      <point x="164" y="328" type="line" smooth="yes"/>
      <point x="289" y="366" type="line" smooth="yes"/>
    </contour>
    <contour>
      <point x="262" y="-11" type="line" smooth="yes"/>
      <point x="442" y="49" type="line" smooth="yes"/>
      <point x="526" y="202" type="line" smooth="yes"/>
      <point x="527" y="210" type="line" smooth="yes"/>
      <point x="506" y="332" type="line" smooth="yes"/>
      <point x="418" y="397" type="line" smooth="yes"/>
      <point x="519" y="457" type="line" smooth="yes"/>
      <point x="570" y="571" type="line" smooth="yes"/>
      <point x="571" y="579" type="line" smooth="yes"/>
      <point x="521" y="731" type="line" smooth="yes"/>
      <point x="340" y="791" type="line" smooth="yes"/>
      <point x="158" y="734" type="line" smooth="yes"/>
      <point x="83" y="585" type="line" smooth="yes"/>
      <point x="82" y="577" type="line" smooth="yes"/>
      <point x="107" y="460" type="line" smooth="yes"/>
      <point x="188" y="399" type="line" smooth="yes"/>
      <point x="87" y="339" type="line" smooth="yes"/>
      <point x="31" y="212" type="line" smooth="yes"/>
      <point x="30" y="204" type="line" smooth="yes"/>
      <point x="83" y="49" type="line" smooth="yes"/>
    </contour>
  </outline>
</glyph>
