<?xml version="1.0" encoding="UTF-8"?>
<glyph name="ellipsis" format="1">
  <advance width="1000"/>
  <unicode hex="2026"/>
  <outline>
    <contour>
      <point x="828" y="90" type="line" smooth="yes"/>
      <point x="738" y="90" type="line" smooth="yes"/>
      <point x="726" y="0" type="line" smooth="yes"/>
      <point x="816" y="0" type="line" smooth="yes"/>
    </contour>
    <contour>
      <point x="508" y="90" type="line" smooth="yes"/>
      <point x="418" y="90" type="line" smooth="yes"/>
      <point x="406" y="0" type="line" smooth="yes"/>
      <point x="496" y="0" type="line" smooth="yes"/>
    </contour>
    <contour>
      <point x="188" y="90" type="line" smooth="yes"/>
      <point x="98" y="90" type="line" smooth="yes"/>
      <point x="86" y="0" type="line" smooth="yes"/>
      <point x="176" y="0" type="line" smooth="yes"/>
    </contour>
  </outline>
</glyph>
