<?xml version="1.0" encoding="UTF-8"?>
<glyph name="Tcaron" format="1">
  <advance width="515"/>
  <unicode hex="0164"/>
  <outline>
    <contour>
      <point x="338" y="715" type="line" smooth="yes"/>
      <point x="537" y="715" type="line" smooth="yes"/>
      <point x="545" y="780" type="line" smooth="yes"/>
      <point x="76" y="780" type="line" smooth="yes"/>
      <point x="68" y="715" type="line" smooth="yes"/>
      <point x="266" y="715" type="line" smooth="yes"/>
      <point x="172" y="0" type="line" smooth="yes"/>
      <point x="244" y="0" type="line" smooth="yes"/>
    </contour>
    <contour>
      <point x="195" y="950" type="line" smooth="yes"/>
      <point x="286" y="840" type="line" smooth="yes"/>
      <point x="350" y="840" type="line" smooth="yes"/>
      <point x="471" y="950" type="line" smooth="yes"/>
      <point x="397" y="950" type="line" smooth="yes"/>
      <point x="319" y="881" type="line" smooth="yes"/>
      <point x="262" y="950" type="line" smooth="yes"/>
    </contour>
  </outline>
</glyph>
