<?xml version="1.0" encoding="UTF-8"?>
<glyph name="uni2083" format="1">
  <advance width="299"/>
  <unicode hex="2083"/>
  <outline>
    <contour>
      <point x="46" y="125" type="line" smooth="yes"/>
      <point x="-11" y="125" type="line" smooth="yes"/>
      <point x="-12" y="117" type="line" smooth="yes"/>
      <point x="8" y="26" type="line" smooth="yes"/>
      <point x="106" y="-7" type="line" smooth="yes"/>
      <point x="199" y="24" type="line" smooth="yes"/>
      <point x="240" y="101" type="line" smooth="yes"/>
      <point x="241" y="109" type="line" smooth="yes"/>
      <point x="233" y="167" type="line" smooth="yes"/>
      <point x="194" y="199" type="line" smooth="yes"/>
      <point x="240" y="226" type="line" smooth="yes"/>
      <point x="263" y="282" type="line" smooth="yes"/>
      <point x="264" y="290" type="line" smooth="yes"/>
      <point x="240" y="365" type="line" smooth="yes"/>
      <point x="146" y="396" type="line" smooth="yes"/>
      <point x="52" y="365" type="line" smooth="yes"/>
      <point x="13" y="282" type="line" smooth="yes"/>
      <point x="10" y="260" type="line" smooth="yes"/>
      <point x="66" y="260" type="line" smooth="yes"/>
      <point x="92" y="327" type="line" smooth="yes"/>
      <point x="143" y="346" type="line" smooth="yes"/>
      <point x="149" y="346" type="line" smooth="yes"/>
      <point x="194" y="332" type="line" smooth="yes"/>
      <point x="207" y="286" type="line" smooth="yes"/>
      <point x="206" y="278" type="line" smooth="yes"/>
      <point x="184" y="237" type="line" smooth="yes"/>
      <point x="134" y="224" type="line" smooth="yes"/>
      <point x="80" y="224" type="line" smooth="yes"/>
      <point x="74" y="174" type="line" smooth="yes"/>
      <point x="129" y="174" type="line" smooth="yes"/>
      <point x="174" y="158" type="line" smooth="yes"/>
      <point x="185" y="110" type="line" smooth="yes"/>
      <point x="184" y="102" type="line" smooth="yes"/>
      <point x="158" y="56" type="line" smooth="yes"/>
      <point x="110" y="43" type="line" smooth="yes"/>
      <point x="103" y="43" type="line" smooth="yes"/>
      <point x="55" y="61" type="line" smooth="yes"/>
    </contour>
  </outline>
</glyph>
