<?xml version="1.0" encoding="UTF-8"?>
<glyph name="anglebracketleft" format="1">
  <advance width="365"/>
  <unicode hex="3008"/>
  <outline>
    <contour>
      <point x="408" y="840" type="line" smooth="yes"/>
      <point x="245" y="840" type="line" smooth="yes"/>
      <point x="20" y="360" type="line" smooth="yes"/>
      <point x="119" y="-120" type="line" smooth="yes"/>
      <point x="282" y="-120" type="line" smooth="yes"/>
      <point x="183" y="360" type="line" smooth="yes"/>
    </contour>
  </outline>
</glyph>
