<?xml version="1.0" encoding="UTF-8"?>
<glyph name="braceleft.cap" format="1">
  <advance width="365"/>
  <unicode hex="E495"/>
  <outline>
    <contour>
      <point x="385" y="780" type="line" smooth="yes"/>
      <point x="358" y="780" type="line" smooth="yes"/>
      <point x="203" y="741" type="line" smooth="yes"/>
      <point x="129" y="602" type="line" smooth="yes"/>
      <point x="121" y="541" type="line" smooth="yes"/>
      <point x="94" y="477" type="line" smooth="yes"/>
      <point x="35" y="459" type="line" smooth="yes"/>
      <point x="17" y="321" type="line" smooth="yes"/>
      <point x="70" y="304" type="line" smooth="yes"/>
      <point x="82" y="247" type="line" smooth="yes"/>
      <point x="73" y="178" type="line" smooth="yes"/>
      <point x="115" y="38" type="line" smooth="yes"/>
      <point x="256" y="0" type="line" smooth="yes"/>
      <point x="283" y="0" type="line" smooth="yes"/>
      <point x="301" y="138" type="line" smooth="yes"/>
      <point x="246" y="156" type="line" smooth="yes"/>
      <point x="236" y="223" type="line" smooth="yes"/>
      <point x="243" y="274" type="line" smooth="yes"/>
      <point x="237" y="347" type="line" smooth="yes"/>
      <point x="194" y="390" type="line" smooth="yes"/>
      <point x="248" y="433" type="line" smooth="yes"/>
      <point x="273" y="506" type="line" smooth="yes"/>
      <point x="281" y="566" type="line" smooth="yes"/>
      <point x="309" y="626" type="line" smooth="yes"/>
      <point x="367" y="642" type="line" smooth="yes"/>
    </contour>
  </outline>
</glyph>
