<?xml version="1.0" encoding="UTF-8"?>
<glyph name="Edieresis" format="1">
  <advance width="573"/>
  <unicode hex="00CB"/>
  <outline>
    <contour>
      <point x="109" y="780" type="line" smooth="yes"/>
      <point x="7" y="0" type="line" smooth="yes"/>
      <point x="484" y="0" type="line" smooth="yes"/>
      <point x="502" y="140" type="line" smooth="yes"/>
      <point x="187" y="140" type="line" smooth="yes"/>
      <point x="212" y="328" type="line" smooth="yes"/>
      <point x="477" y="328" type="line" smooth="yes"/>
      <point x="495" y="468" type="line" smooth="yes"/>
      <point x="230" y="468" type="line" smooth="yes"/>
      <point x="253" y="640" type="line" smooth="yes"/>
      <point x="568" y="640" type="line" smooth="yes"/>
      <point x="586" y="780" type="line" smooth="yes"/>
    </contour>
    <contour>
      <point x="525" y="945" type="line" smooth="yes"/>
      <point x="392" y="945" type="line" smooth="yes"/>
      <point x="379" y="845" type="line" smooth="yes"/>
      <point x="512" y="845" type="line" smooth="yes"/>
    </contour>
    <contour>
      <point x="350" y="945" type="line" smooth="yes"/>
      <point x="217" y="945" type="line" smooth="yes"/>
      <point x="204" y="845" type="line" smooth="yes"/>
      <point x="337" y="845" type="line" smooth="yes"/>
    </contour>
  </outline>
</glyph>
