<?xml version="1.0" encoding="UTF-8"?>
<glyph name="ohungarumlaut" format="1">
  <advance width="556"/>
  <unicode hex="0151"/>
  <outline>
    <contour>
      <point x="242" y="-13" type="line" smooth="yes"/>
      <point x="431" y="58" type="line" smooth="yes"/>
      <point x="509" y="246" type="line" smooth="yes"/>
      <point x="514" y="284" type="line" smooth="yes"/>
      <point x="473" y="470" type="line" smooth="yes"/>
      <point x="285" y="543" type="line" smooth="yes"/>
      <point x="96" y="472" type="line" smooth="yes"/>
      <point x="18" y="284" type="line" smooth="yes"/>
      <point x="13" y="246" type="line" smooth="yes"/>
      <point x="54" y="60" type="line" smooth="yes"/>
    </contour>
    <contour>
      <point x="247" y="123" type="line" smooth="yes"/>
      <point x="181" y="155" type="line" smooth="yes"/>
      <point x="171" y="246" type="line" smooth="yes"/>
      <point x="176" y="284" type="line" smooth="yes"/>
      <point x="210" y="378" type="line" smooth="yes"/>
      <point x="280" y="407" type="line" smooth="yes"/>
      <point x="347" y="376" type="line" smooth="yes"/>
      <point x="356" y="284" type="line" smooth="yes"/>
      <point x="351" y="246" type="line" smooth="yes"/>
      <point x="317" y="152" type="line" smooth="yes"/>
    </contour>
    <contour>
      <point x="440" y="780" type="line" smooth="yes"/>
      <point x="325" y="596" type="line" smooth="yes"/>
      <point x="448" y="596" type="line" smooth="yes"/>
      <point x="579" y="780" type="line" smooth="yes"/>
    </contour>
    <contour>
      <point x="256" y="780" type="line" smooth="yes"/>
      <point x="165" y="596" type="line" smooth="yes"/>
      <point x="288" y="596" type="line" smooth="yes"/>
      <point x="396" y="780" type="line" smooth="yes"/>
    </contour>
  </outline>
</glyph>
