<?xml version="1.0" encoding="UTF-8"?>
<glyph name="ordfeminine" format="1">
  <advance width="427"/>
  <unicode hex="00AA"/>
  <outline>
    <contour>
      <point x="218" y="487" type="line" smooth="yes"/>
      <point x="189" y="497" type="line" smooth="yes"/>
      <point x="183" y="519" type="line" smooth="yes"/>
      <point x="184" y="525" type="line" smooth="yes"/>
      <point x="197" y="548" type="line" smooth="yes"/>
      <point x="227" y="561" type="line" smooth="yes"/>
      <point x="284" y="570" type="line" smooth="yes"/>
      <point x="276" y="509" type="line" smooth="yes"/>
      <point x="250" y="494" type="line" smooth="yes"/>
    </contour>
    <contour>
      <point x="375" y="181" type="line" smooth="yes"/>
      <point x="391" y="300" type="line" smooth="yes"/>
      <point x="29" y="300" type="line" smooth="yes"/>
      <point x="13" y="181" type="line" smooth="yes"/>
    </contour>
    <contour>
      <point x="280" y="387" type="line" smooth="yes"/>
      <point x="405" y="387" type="line" smooth="yes"/>
      <point x="412" y="499" type="line" smooth="yes"/>
      <point x="431" y="641" type="line" smooth="yes"/>
      <point x="405" y="750" type="line" smooth="yes"/>
      <point x="262" y="793" type="line" smooth="yes"/>
      <point x="127" y="754" type="line" smooth="yes"/>
      <point x="80" y="661" type="line" smooth="yes"/>
      <point x="79" y="652" type="line" smooth="yes"/>
      <point x="209" y="652" type="line" smooth="yes"/>
      <point x="221" y="679" type="line" smooth="yes"/>
      <point x="255" y="690" type="line" smooth="yes"/>
      <point x="287" y="680" type="line" smooth="yes"/>
      <point x="294" y="648" type="line" smooth="yes"/>
      <point x="208" y="635" type="line" smooth="yes"/>
      <point x="97" y="600" type="line" smooth="yes"/>
      <point x="45" y="510" type="line" smooth="yes"/>
      <point x="43" y="499" type="line" smooth="yes"/>
      <point x="60" y="414" type="line" smooth="yes"/>
      <point x="158" y="377" type="line" smooth="yes"/>
      <point x="231" y="392" type="line" smooth="yes"/>
      <point x="280" y="429" type="line" smooth="yes"/>
    </contour>
  </outline>
</glyph>
