<?xml version="1.0" encoding="UTF-8"?>
<glyph name="parenleft.inf" format="1">
  <advance width="205"/>
  <unicode hex="E57E"/>
  <outline>
    <contour>
      <point x="-35" y="-10" type="line" smooth="yes"/>
      <point x="-27" y="-121" type="line" smooth="yes"/>
      <point x="6" y="-200" type="line" smooth="yes"/>
      <point x="122" y="-200" type="line" smooth="yes"/>
      <point x="92" y="-119" type="line" smooth="yes"/>
      <point x="84" y="-10" type="line" smooth="yes"/>
      <point x="85" y="-1" type="line" smooth="yes"/>
      <point x="121" y="108" type="line" smooth="yes"/>
      <point x="178" y="190" type="line" smooth="yes"/>
      <point x="52" y="190" type="line" smooth="yes"/>
      <point x="-3" y="112" type="line" smooth="yes"/>
      <point x="-34" y="-1" type="line" smooth="yes"/>
    </contour>
  </outline>
</glyph>
