<?xml version="1.0" encoding="UTF-8"?>
<glyph name="Scaron" format="1">
  <advance width="627"/>
  <unicode hex="0160"/>
  <outline>
    <contour>
      <point x="279" y="327" type="line" smooth="yes"/>
      <point x="390" y="284" type="line" smooth="yes"/>
      <point x="412" y="219" type="line" smooth="yes"/>
      <point x="410" y="204" type="line" smooth="yes"/>
      <point x="377" y="146" type="line" smooth="yes"/>
      <point x="298" y="127" type="line" smooth="yes"/>
      <point x="288" y="127" type="line" smooth="yes"/>
      <point x="201" y="159" type="line" smooth="yes"/>
      <point x="181" y="266" type="line" smooth="yes"/>
      <point x="19" y="266" type="line" smooth="yes"/>
      <point x="16" y="243" type="line" smooth="yes"/>
      <point x="70" y="52" type="line" smooth="yes"/>
      <point x="289" y="-13" type="line" smooth="yes"/>
      <point x="486" y="42" type="line" smooth="yes"/>
      <point x="575" y="205" type="line" smooth="yes"/>
      <point x="578" y="228" type="line" smooth="yes"/>
      <point x="534" y="378" type="line" smooth="yes"/>
      <point x="357" y="458" type="line" smooth="yes"/>
      <point x="248" y="500" type="line" smooth="yes"/>
      <point x="228" y="561" type="line" smooth="yes"/>
      <point x="230" y="576" type="line" smooth="yes"/>
      <point x="264" y="633" type="line" smooth="yes"/>
      <point x="334" y="653" type="line" smooth="yes"/>
      <point x="344" y="653" type="line" smooth="yes"/>
      <point x="434" y="616" type="line" smooth="yes"/>
      <point x="446" y="504" type="line" smooth="yes"/>
      <point x="608" y="504" type="line" smooth="yes"/>
      <point x="611" y="527" type="line" smooth="yes"/>
      <point x="564" y="725" type="line" smooth="yes"/>
      <point x="343" y="793" type="line" smooth="yes"/>
      <point x="151" y="738" type="line" smooth="yes"/>
      <point x="65" y="575" type="line" smooth="yes"/>
      <point x="62" y="552" type="line" smooth="yes"/>
      <point x="102" y="409" type="line" smooth="yes"/>
    </contour>
    <contour>
      <point x="187" y="950" type="line" smooth="yes"/>
      <point x="296" y="840" type="line" smooth="yes"/>
      <point x="456" y="840" type="line" smooth="yes"/>
      <point x="595" y="950" type="line" smooth="yes"/>
      <point x="450" y="950" type="line" smooth="yes"/>
      <point x="383" y="900" type="line" smooth="yes"/>
      <point x="326" y="950" type="line" smooth="yes"/>
    </contour>
  </outline>
</glyph>
