<?xml version="1.0" encoding="UTF-8"?>
<glyph name="Thorn" format="1">
  <advance width="605"/>
  <unicode hex="00DE"/>
  <outline>
    <contour>
      <point x="169" y="0" type="line" smooth="yes"/>
      <point x="188" y="140" type="line" smooth="yes"/>
      <point x="292" y="140" type="line" smooth="yes"/>
      <point x="475" y="181" type="line" smooth="yes"/>
      <point x="584" y="375" type="line" smooth="yes"/>
      <point x="587" y="398" type="line" smooth="yes"/>
      <point x="532" y="591" type="line" smooth="yes"/>
      <point x="354" y="640" type="line" smooth="yes"/>
      <point x="253" y="640" type="line" smooth="yes"/>
      <point x="271" y="780" type="line" smooth="yes"/>
      <point x="109" y="780" type="line" smooth="yes"/>
      <point x="7" y="0" type="line" smooth="yes"/>
    </contour>
    <contour>
      <point x="205" y="280" type="line" smooth="yes"/>
      <point x="235" y="500" type="line" smooth="yes"/>
      <point x="335" y="500" type="line" smooth="yes"/>
      <point x="400" y="480" type="line" smooth="yes"/>
      <point x="423" y="394" type="line" smooth="yes"/>
      <point x="421" y="379" type="line" smooth="yes"/>
      <point x="376" y="298" type="line" smooth="yes"/>
      <point x="307" y="280" type="line" smooth="yes"/>
    </contour>
  </outline>
</glyph>
