<?xml version="1.0" encoding="UTF-8"?>
<glyph name="uni208E" format="1">
  <advance width="203"/>
  <unicode hex="208E"/>
  <outline>
    <contour>
      <point x="166" y="200" type="line" smooth="yes"/>
      <point x="158" y="311" type="line" smooth="yes"/>
      <point x="125" y="390" type="line" smooth="yes"/>
      <point x="9" y="390" type="line" smooth="yes"/>
      <point x="39" y="309" type="line" smooth="yes"/>
      <point x="47" y="200" type="line" smooth="yes"/>
      <point x="46" y="191" type="line" smooth="yes"/>
      <point x="10" y="82" type="line" smooth="yes"/>
      <point x="-47" y="0" type="line" smooth="yes"/>
      <point x="79" y="0" type="line" smooth="yes"/>
      <point x="134" y="78" type="line" smooth="yes"/>
      <point x="165" y="191" type="line" smooth="yes"/>
    </contour>
  </outline>
</glyph>
