<?xml version="1.0" encoding="UTF-8"?>
<glyph name="Zacute" format="1">
  <advance width="599"/>
  <unicode hex="0179"/>
  <outline>
    <contour>
      <point x="4" y="108" type="line" smooth="yes"/>
      <point x="-10" y="0" type="line" smooth="yes"/>
      <point x="509" y="0" type="line" smooth="yes"/>
      <point x="527" y="140" type="line" smooth="yes"/>
      <point x="346" y="140" type="line" smooth="yes"/>
      <point x="204" y="137" type="line" smooth="yes"/>
      <point x="587" y="672" type="line" smooth="yes"/>
      <point x="601" y="780" type="line" smooth="yes"/>
      <point x="102" y="780" type="line" smooth="yes"/>
      <point x="84" y="640" type="line" smooth="yes"/>
      <point x="244" y="640" type="line" smooth="yes"/>
      <point x="387" y="643" type="line" smooth="yes"/>
    </contour>
    <contour>
      <point x="351" y="950" type="line" smooth="yes"/>
      <point x="281" y="840" type="line" smooth="yes"/>
      <point x="437" y="840" type="line" smooth="yes"/>
      <point x="516" y="950" type="line" smooth="yes"/>
    </contour>
  </outline>
</glyph>
