<?xml version="1.0" encoding="UTF-8"?>
<glyph name="elevensixteenths" format="1">
  <advance width="1400"/>
  <unicode hex="F220"/>
  <outline>
    <contour>
      <point x="1250" y="160" type="line" smooth="yes"/>
      <point x="1253" y="160" type="line" smooth="yes"/>
      <point x="1274" y="153" type="line" smooth="yes"/>
      <point x="1283" y="126" type="line" smooth="yes"/>
      <point x="1283" y="115" type="line" smooth="yes"/>
      <point x="1273" y="88" type="line" smooth="yes"/>
      <point x="1251" y="79" type="line" smooth="yes"/>
      <point x="1248" y="79" type="line" smooth="yes"/>
      <point x="1225" y="91" type="line" smooth="yes"/>
      <point x="1216" y="130" type="line" smooth="yes"/>
      <point x="1216" y="142" type="line" smooth="yes"/>
      <point x="1232" y="156" type="line" smooth="yes"/>
    </contour>
    <contour>
      <point x="287" y="390" type="line" smooth="yes"/>
      <point x="287" y="476" type="line" smooth="yes"/>
      <point x="209" y="476" type="line" smooth="yes"/>
      <point x="209" y="779" type="line" smooth="yes"/>
      <point x="133" y="779" type="line" smooth="yes"/>
      <point x="11" y="697" type="line" smooth="yes"/>
      <point x="61" y="626" type="line" smooth="yes"/>
      <point x="109" y="658" type="line" smooth="yes"/>
      <point x="109" y="476" type="line" smooth="yes"/>
      <point x="30" y="476" type="line" smooth="yes"/>
      <point x="30" y="390" type="line" smooth="yes"/>
    </contour>
    <contour>
      <point x="587" y="390" type="line" smooth="yes"/>
      <point x="587" y="476" type="line" smooth="yes"/>
      <point x="509" y="476" type="line" smooth="yes"/>
      <point x="509" y="779" type="line" smooth="yes"/>
      <point x="433" y="779" type="line" smooth="yes"/>
      <point x="311" y="697" type="line" smooth="yes"/>
      <point x="361" y="626" type="line" smooth="yes"/>
      <point x="409" y="658" type="line" smooth="yes"/>
      <point x="409" y="476" type="line" smooth="yes"/>
      <point x="330" y="476" type="line" smooth="yes"/>
      <point x="330" y="390" type="line" smooth="yes"/>
    </contour>
    <contour>
      <point x="1087" y="0" type="line" smooth="yes"/>
      <point x="1087" y="86" type="line" smooth="yes"/>
      <point x="1009" y="86" type="line" smooth="yes"/>
      <point x="1009" y="389" type="line" smooth="yes"/>
      <point x="933" y="389" type="line" smooth="yes"/>
      <point x="811" y="307" type="line" smooth="yes"/>
      <point x="861" y="236" type="line" smooth="yes"/>
      <point x="909" y="268" type="line" smooth="yes"/>
      <point x="909" y="86" type="line" smooth="yes"/>
      <point x="830" y="86" type="line" smooth="yes"/>
      <point x="830" y="0" type="line" smooth="yes"/>
    </contour>
    <contour>
      <point x="1362" y="397" type="line" smooth="yes"/>
      <point x="1250" y="383" type="line" smooth="yes"/>
      <point x="1171" y="326" type="line" smooth="yes"/>
      <point x="1128" y="239" type="line" smooth="yes"/>
      <point x="1116" y="146" type="line" smooth="yes"/>
      <point x="1116" y="138" type="line" smooth="yes"/>
      <point x="1149" y="34" type="line" smooth="yes"/>
      <point x="1249" y="-8" type="line" smooth="yes"/>
      <point x="1351" y="27" type="line" smooth="yes"/>
      <point x="1383" y="118" type="line" smooth="yes"/>
      <point x="1383" y="123" type="line" smooth="yes"/>
      <point x="1354" y="213" type="line" smooth="yes"/>
      <point x="1277" y="246" type="line" smooth="yes"/>
      <point x="1250" y="243" type="line" smooth="yes"/>
      <point x="1228" y="234" type="line" smooth="yes"/>
      <point x="1236" y="254" type="line" smooth="yes"/>
      <point x="1247" y="271" type="line" smooth="yes"/>
      <point x="1291" y="300" type="line" smooth="yes"/>
      <point x="1362" y="309" type="line" smooth="yes"/>
    </contour>
    <contour>
      <point x="464" y="0" type="line" smooth="yes"/>
      <point x="1040" y="780" type="line" smooth="yes"/>
      <point x="936" y="780" type="line" smooth="yes"/>
      <point x="360" y="0" type="line" smooth="yes"/>
    </contour>
  </outline>
</glyph>
