<?xml version="1.0" encoding="UTF-8"?>
<glyph name="figuredash" format="1">
  <advance width="600"/>
  <unicode hex="2012"/>
  <outline>
    <contour>
      <point x="40" y="293" type="line" smooth="yes"/>
      <point x="560" y="293" type="line" smooth="yes"/>
      <point x="560" y="407" type="line" smooth="yes"/>
      <point x="40" y="407" type="line" smooth="yes"/>
    </contour>
  </outline>
</glyph>
