<?xml version="1.0" encoding="UTF-8"?>
<glyph name="ograve" format="1">
  <advance width="553"/>
  <unicode hex="00F2"/>
  <outline>
    <contour>
      <point x="108" y="780" type="line" smooth="yes"/>
      <point x="211" y="601" type="line" smooth="yes"/>
      <point x="341" y="601" type="line" smooth="yes"/>
      <point x="250" y="780" type="line" smooth="yes"/>
    </contour>
    <contour>
      <point x="276" y="101" type="line" smooth="yes"/>
      <point x="193" y="141" type="line" smooth="yes"/>
      <point x="166" y="249" type="line" smooth="yes"/>
      <point x="166" y="281" type="line" smooth="yes"/>
      <point x="193" y="390" type="line" smooth="yes"/>
      <point x="276" y="430" type="line" smooth="yes"/>
      <point x="360" y="390" type="line" smooth="yes"/>
      <point x="386" y="281" type="line" smooth="yes"/>
      <point x="386" y="249" type="line" smooth="yes"/>
      <point x="360" y="141" type="line" smooth="yes"/>
    </contour>
    <contour>
      <point x="276" y="-13" type="line" smooth="yes"/>
      <point x="458" y="61" type="line" smooth="yes"/>
      <point x="516" y="249" type="line" smooth="yes"/>
      <point x="516" y="281" type="line" smooth="yes"/>
      <point x="458" y="469" type="line" smooth="yes"/>
      <point x="276" y="543" type="line" smooth="yes"/>
      <point x="94" y="469" type="line" smooth="yes"/>
      <point x="36" y="281" type="line" smooth="yes"/>
      <point x="36" y="249" type="line" smooth="yes"/>
      <point x="94" y="61" type="line" smooth="yes"/>
    </contour>
  </outline>
</glyph>
