<?xml version="1.0" encoding="UTF-8"?>
<glyph name="seven" format="1">
  <advance width="600"/>
  <unicode hex="0037"/>
  <outline>
    <contour>
      <point x="43" y="500" type="line" smooth="yes"/>
      <point x="160" y="500" type="line" smooth="yes"/>
      <point x="160" y="663" type="line" smooth="yes"/>
      <point x="312" y="663" type="line" smooth="yes"/>
      <point x="412" y="665" type="line" smooth="yes"/>
      <point x="136" y="0" type="line" smooth="yes"/>
      <point x="277" y="0" type="line" smooth="yes"/>
      <point x="561" y="698" type="line" smooth="yes"/>
      <point x="561" y="780" type="line" smooth="yes"/>
      <point x="43" y="780" type="line" smooth="yes"/>
    </contour>
  </outline>
</glyph>
