<?xml version="1.0" encoding="UTF-8"?>
<glyph name="asciitilde" format="1">
  <advance width="600"/>
  <unicode hex="007E"/>
  <outline>
    <contour>
      <point x="180" y="451" type="line" smooth="yes"/>
      <point x="117" y="440" type="line" smooth="yes"/>
      <point x="69" y="411" type="line" smooth="yes"/>
      <point x="36" y="375" type="line" smooth="yes"/>
      <point x="74" y="335" type="line" smooth="yes"/>
      <point x="100" y="362" type="line" smooth="yes"/>
      <point x="134" y="383" type="line" smooth="yes"/>
      <point x="180" y="391" type="line" smooth="yes"/>
      <point x="259" y="373" type="line" smooth="yes"/>
      <point x="331" y="338" type="line" smooth="yes"/>
      <point x="422" y="320" type="line" smooth="yes"/>
      <point x="485" y="331" type="line" smooth="yes"/>
      <point x="533" y="360" type="line" smooth="yes"/>
      <point x="566" y="396" type="line" smooth="yes"/>
      <point x="528" y="436" type="line" smooth="yes"/>
      <point x="502" y="409" type="line" smooth="yes"/>
      <point x="468" y="388" type="line" smooth="yes"/>
      <point x="422" y="380" type="line" smooth="yes"/>
      <point x="343" y="398" type="line" smooth="yes"/>
      <point x="271" y="433" type="line" smooth="yes"/>
    </contour>
  </outline>
</glyph>
