<?xml version="1.0" encoding="UTF-8"?>
<glyph name="exclamdown" format="1">
  <advance width="217"/>
  <unicode hex="00A1"/>
  <outline>
    <contour>
      <point x="72" y="440" type="line" smooth="yes"/>
      <point x="162" y="440" type="line" smooth="yes"/>
      <point x="174" y="530" type="line" smooth="yes"/>
      <point x="84" y="530" type="line" smooth="yes"/>
    </contour>
    <contour>
      <point x="75" y="-200" type="line" smooth="yes"/>
      <point x="127" y="341" type="line" smooth="yes"/>
      <point x="81" y="341" type="line" smooth="yes"/>
      <point x="-10" y="-200" type="line" smooth="yes"/>
    </contour>
  </outline>
</glyph>
