<?xml version="1.0" encoding="UTF-8"?>
<glyph name="Idieresis" format="1">
  <advance width="229"/>
  <unicode hex="00CF"/>
  <outline>
    <contour>
      <point x="204" y="780" type="line" smooth="yes"/>
      <point x="132" y="780" type="line" smooth="yes"/>
      <point x="30" y="0" type="line" smooth="yes"/>
      <point x="102" y="0" type="line" smooth="yes"/>
    </contour>
    <contour>
      <point x="305" y="930" type="line" smooth="yes"/>
      <point x="226" y="930" type="line" smooth="yes"/>
      <point x="217" y="860" type="line" smooth="yes"/>
      <point x="296" y="860" type="line" smooth="yes"/>
    </contour>
    <contour>
      <point x="149" y="930" type="line" smooth="yes"/>
      <point x="70" y="930" type="line" smooth="yes"/>
      <point x="61" y="860" type="line" smooth="yes"/>
      <point x="140" y="860" type="line" smooth="yes"/>
    </contour>
  </outline>
</glyph>
