<?xml version="1.0" encoding="UTF-8"?>
<glyph name="odieresis" format="1">
  <advance width="540"/>
  <unicode hex="00F6"/>
  <outline>
    <contour>
      <point x="232" y="-11" type="line" smooth="yes"/>
      <point x="358" y="23" type="line" smooth="yes"/>
      <point x="439" y="117" type="line" smooth="yes"/>
      <point x="479" y="253" type="line" smooth="yes"/>
      <point x="482" y="275" type="line" smooth="yes"/>
      <point x="475" y="410" type="line" smooth="yes"/>
      <point x="410" y="505" type="line" smooth="yes"/>
      <point x="283" y="541" type="line" smooth="yes"/>
      <point x="157" y="507" type="line" smooth="yes"/>
      <point x="77" y="413" type="line" smooth="yes"/>
      <point x="37" y="277" type="line" smooth="yes"/>
      <point x="34" y="255" type="line" smooth="yes"/>
      <point x="41" y="120" type="line" smooth="yes"/>
      <point x="106" y="25" type="line" smooth="yes"/>
    </contour>
    <contour>
      <point x="232" y="52" type="line" smooth="yes"/>
      <point x="149" y="77" type="line" smooth="yes"/>
      <point x="107" y="148" type="line" smooth="yes"/>
      <point x="105" y="257" type="line" smooth="yes"/>
      <point x="108" y="279" type="line" smooth="yes"/>
      <point x="139" y="386" type="line" smooth="yes"/>
      <point x="197" y="454" type="line" smooth="yes"/>
      <point x="283" y="478" type="line" smooth="yes"/>
      <point x="367" y="453" type="line" smooth="yes"/>
      <point x="409" y="382" type="line" smooth="yes"/>
      <point x="411" y="273" type="line" smooth="yes"/>
      <point x="408" y="251" type="line" smooth="yes"/>
      <point x="377" y="144" type="line" smooth="yes"/>
      <point x="318" y="76" type="line" smooth="yes"/>
    </contour>
    <contour>
      <point x="449" y="745" type="line" smooth="yes"/>
      <point x="359" y="745" type="line" smooth="yes"/>
      <point x="347" y="655" type="line" smooth="yes"/>
      <point x="437" y="655" type="line" smooth="yes"/>
    </contour>
    <contour>
      <point x="282" y="745" type="line" smooth="yes"/>
      <point x="192" y="745" type="line" smooth="yes"/>
      <point x="180" y="655" type="line" smooth="yes"/>
      <point x="270" y="655" type="line" smooth="yes"/>
    </contour>
  </outline>
</glyph>
