<?xml version="1.0" encoding="UTF-8"?>
<glyph name="uni2158" format="1">
  <advance width="800"/>
  <unicode hex="2158"/>
  <outline>
    <contour>
      <point x="489" y="125" type="line" smooth="yes"/>
      <point x="488" y="117" type="line" smooth="yes"/>
      <point x="493" y="50" type="line" smooth="yes"/>
      <point x="531" y="8" type="line" smooth="yes"/>
      <point x="606" y="-7" type="line" smooth="yes"/>
      <point x="674" y="8" type="line" smooth="yes"/>
      <point x="721" y="52" type="line" smooth="yes"/>
      <point x="743" y="117" type="line" smooth="yes"/>
      <point x="744" y="125" type="line" smooth="yes"/>
      <point x="737" y="196" type="line" smooth="yes"/>
      <point x="698" y="237" type="line" smooth="yes"/>
      <point x="633" y="250" type="line" smooth="yes"/>
      <point x="603" y="246" type="line" smooth="yes"/>
      <point x="577" y="236" type="line" smooth="yes"/>
      <point x="559" y="223" type="line" smooth="yes"/>
      <point x="580" y="340" type="line" smooth="yes"/>
      <point x="768" y="340" type="line" smooth="yes"/>
      <point x="774" y="390" type="line" smooth="yes"/>
      <point x="537" y="390" type="line" smooth="yes"/>
      <point x="498" y="173" type="line" smooth="yes"/>
      <point x="545" y="158" type="line" smooth="yes"/>
      <point x="565" y="181" type="line" smooth="yes"/>
      <point x="592" y="195" type="line" smooth="yes"/>
      <point x="625" y="200" type="line" smooth="yes"/>
      <point x="631" y="200" type="line" smooth="yes"/>
      <point x="664" y="192" type="line" smooth="yes"/>
      <point x="685" y="167" type="line" smooth="yes"/>
      <point x="688" y="125" type="line" smooth="yes"/>
      <point x="687" y="117" type="line" smooth="yes"/>
      <point x="672" y="75" type="line" smooth="yes"/>
      <point x="644" y="51" type="line" smooth="yes"/>
      <point x="609" y="43" type="line" smooth="yes"/>
      <point x="603" y="43" type="line" smooth="yes"/>
      <point x="567" y="51" type="line" smooth="yes"/>
      <point x="547" y="77" type="line" smooth="yes"/>
      <point x="546" y="125" type="line" smooth="yes"/>
    </contour>
    <contour>
      <point x="99" y="0" type="line" smooth="yes"/>
      <point x="777" y="780" type="line" smooth="yes"/>
      <point x="707" y="780" type="line" smooth="yes"/>
      <point x="29" y="0" type="line" smooth="yes"/>
    </contour>
    <contour>
      <point x="217" y="687" type="line" smooth="yes"/>
      <point x="211" y="645" type="line" smooth="yes"/>
      <point x="196" y="534" type="line" smooth="yes"/>
      <point x="135" y="534" type="line" smooth="yes"/>
      <point x="99" y="533" type="line" smooth="yes"/>
    </contour>
    <contour>
      <point x="233" y="390" type="line" smooth="yes"/>
      <point x="245" y="485" type="line" smooth="yes"/>
      <point x="299" y="485" type="line" smooth="yes"/>
      <point x="306" y="534" type="line" smooth="yes"/>
      <point x="252" y="534" type="line" smooth="yes"/>
      <point x="284" y="780" type="line" smooth="yes"/>
      <point x="228" y="780" type="line" smooth="yes"/>
      <point x="33" y="525" type="line" smooth="yes"/>
      <point x="28" y="485" type="line" smooth="yes"/>
      <point x="190" y="485" type="line" smooth="yes"/>
      <point x="177" y="390" type="line" smooth="yes"/>
    </contour>
  </outline>
</glyph>
