<?xml version="1.0" encoding="UTF-8"?>
<glyph name="Dcaron" format="1">
  <advance width="640"/>
  <unicode hex="010E"/>
  <outline>
    <contour>
      <point x="134" y="92" type="line" smooth="yes"/>
      <point x="212" y="688" type="line" smooth="yes"/>
      <point x="318" y="688" type="line" smooth="yes"/>
      <point x="433" y="660" type="line" smooth="yes"/>
      <point x="492" y="570" type="line" smooth="yes"/>
      <point x="495" y="413" type="line" smooth="yes"/>
      <point x="489" y="367" type="line" smooth="yes"/>
      <point x="445" y="209" type="line" smooth="yes"/>
      <point x="363" y="120" type="line" smooth="yes"/>
      <point x="240" y="92" type="line" smooth="yes"/>
    </contour>
    <contour>
      <point x="601" y="413" type="line" smooth="yes"/>
      <point x="589" y="625" type="line" smooth="yes"/>
      <point x="493" y="743" type="line" smooth="yes"/>
      <point x="330" y="780" type="line" smooth="yes"/>
      <point x="120" y="780" type="line" smooth="yes"/>
      <point x="18" y="0" type="line" smooth="yes"/>
      <point x="240" y="0" type="line" smooth="yes"/>
      <point x="414" y="35" type="line" smooth="yes"/>
      <point x="532" y="152" type="line" smooth="yes"/>
      <point x="595" y="367" type="line" smooth="yes"/>
    </contour>
    <contour>
      <point x="214" y="950" type="line" smooth="yes"/>
      <point x="312" y="840" type="line" smooth="yes"/>
      <point x="410" y="840" type="line" smooth="yes"/>
      <point x="538" y="950" type="line" smooth="yes"/>
      <point x="440" y="950" type="line" smooth="yes"/>
      <point x="365" y="891" type="line" smooth="yes"/>
      <point x="308" y="950" type="line" smooth="yes"/>
    </contour>
  </outline>
</glyph>
