<?xml version="1.0" encoding="UTF-8"?>
<glyph name="G" format="1">
  <advance width="649"/>
  <unicode hex="0047"/>
  <outline>
    <contour>
      <point x="302" y="-12" type="line" smooth="yes"/>
      <point x="410" y="1" type="line" smooth="yes"/>
      <point x="490" y="34" type="line" smooth="yes"/>
      <point x="554" y="79" type="line" smooth="yes"/>
      <point x="596" y="398" type="line" smooth="yes"/>
      <point x="369" y="398" type="line" smooth="yes"/>
      <point x="357" y="306" type="line" smooth="yes"/>
      <point x="480" y="306" type="line" smooth="yes"/>
      <point x="456" y="125" type="line" smooth="yes"/>
      <point x="415" y="102" type="line" smooth="yes"/>
      <point x="365" y="86" type="line" smooth="yes"/>
      <point x="306" y="80" type="line" smooth="yes"/>
      <point x="298" y="80" type="line" smooth="yes"/>
      <point x="201" y="110" type="line" smooth="yes"/>
      <point x="153" y="205" type="line" smooth="yes"/>
      <point x="155" y="367" type="line" smooth="yes"/>
      <point x="161" y="413" type="line" smooth="yes"/>
      <point x="202" y="575" type="line" smooth="yes"/>
      <point x="274" y="670" type="line" smooth="yes"/>
      <point x="378" y="700" type="line" smooth="yes"/>
      <point x="386" y="700" type="line" smooth="yes"/>
      <point x="469" y="677" type="line" smooth="yes"/>
      <point x="505" y="608" type="line" smooth="yes"/>
      <point x="503" y="491" type="line" smooth="yes"/>
      <point x="608" y="491" type="line" smooth="yes"/>
      <point x="612" y="518" type="line" smooth="yes"/>
      <point x="605" y="671" type="line" smooth="yes"/>
      <point x="528" y="762" type="line" smooth="yes"/>
      <point x="382" y="792" type="line" smooth="yes"/>
      <point x="222" y="754" type="line" smooth="yes"/>
      <point x="114" y="631" type="line" smooth="yes"/>
      <point x="55" y="413" type="line" smooth="yes"/>
      <point x="49" y="367" type="line" smooth="yes"/>
      <point x="54" y="149" type="line" smooth="yes"/>
      <point x="139" y="26" type="line" smooth="yes"/>
    </contour>
  </outline>
</glyph>
