<?xml version="1.0" encoding="UTF-8"?>
<glyph name="minus.inf" format="1">
  <advance width="300"/>
  <unicode hex="E57C"/>
  <outline>
    <contour>
      <point x="-33" y="-42" type="line" smooth="yes"/>
      <point x="225" y="-42" type="line" smooth="yes"/>
      <point x="235" y="32" type="line" smooth="yes"/>
      <point x="-23" y="32" type="line" smooth="yes"/>
    </contour>
  </outline>
</glyph>
