<?xml version="1.0" encoding="UTF-8"?>
<glyph name="questiondown" format="1">
  <advance width="470"/>
  <unicode hex="00BF"/>
  <outline>
    <contour>
      <point x="314" y="530" type="line" smooth="yes"/>
      <point x="200" y="530" type="line" smooth="yes"/>
      <point x="185" y="416" type="line" smooth="yes"/>
      <point x="299" y="416" type="line" smooth="yes"/>
    </contour>
    <contour>
      <point x="165" y="-121" type="line" smooth="yes"/>
      <point x="113" y="-111" type="line" smooth="yes"/>
      <point x="83" y="-82" type="line" smooth="yes"/>
      <point x="74" y="-39" type="line" smooth="yes"/>
      <point x="120" y="76" type="line" smooth="yes"/>
      <point x="210" y="183" type="line" smooth="yes"/>
      <point x="266" y="327" type="line" smooth="yes"/>
      <point x="196" y="327" type="line" smooth="yes"/>
      <point x="123" y="195" type="line" smooth="yes"/>
      <point x="21" y="92" type="line" smooth="yes"/>
      <point x="-30" y="-57" type="line" smooth="yes"/>
      <point x="-11" y="-136" type="line" smooth="yes"/>
      <point x="52" y="-191" type="line" smooth="yes"/>
      <point x="165" y="-212" type="line" smooth="yes"/>
      <point x="291" y="-180" type="line" smooth="yes"/>
      <point x="365" y="-88" type="line" smooth="yes"/>
      <point x="402" y="53" type="line" smooth="yes"/>
      <point x="403" y="60" type="line" smooth="yes"/>
      <point x="300" y="60" type="line" smooth="yes"/>
      <point x="279" y="-38" type="line" smooth="yes"/>
      <point x="236" y="-100" type="line" smooth="yes"/>
    </contour>
  </outline>
</glyph>
