<?xml version="1.0" encoding="UTF-8"?>
<glyph name="slash.cap" format="1">
  <advance width="343"/>
  <unicode hex="E461"/>
  <outline>
    <contour>
      <point x="76" y="0" type="line" smooth="yes"/>
      <point x="370" y="780" type="line" smooth="yes"/>
      <point x="270" y="780" type="line" smooth="yes"/>
      <point x="-24" y="0" type="line" smooth="yes"/>
    </contour>
  </outline>
</glyph>
