<?xml version="1.0" encoding="UTF-8"?>
<glyph name="A" format="1">
  <advance width="600"/>
  <unicode hex="0041"/>
  <outline>
    <contour>
      <point x="300" y="750" type="line" smooth="yes"/>
      <point x="448" y="249" type="line" smooth="yes"/>
      <point x="151" y="249" type="line" smooth="yes"/>
    </contour>
    <contour>
      <point x="270" y="790" type="line" smooth="yes"/>
      <point x="34" y="0" type="line" smooth="yes"/>
      <point x="78" y="0" type="line" smooth="yes"/>
      <point x="140" y="211" type="line" smooth="yes"/>
      <point x="459" y="211" type="line" smooth="yes"/>
      <point x="522" y="0" type="line" smooth="yes"/>
      <point x="566" y="0" type="line" smooth="yes"/>
      <point x="330" y="790" type="line" smooth="yes"/>
    </contour>
  </outline>
</glyph>
