<?xml version="1.0" encoding="UTF-8"?>
<glyph name="equal.inf" format="1">
  <advance width="300"/>
  <unicode hex="E57D"/>
  <outline>
    <contour>
      <point x="24" y="-73" type="line" smooth="yes"/>
      <point x="276" y="-73" type="line" smooth="yes"/>
      <point x="276" y="-40" type="line" smooth="yes"/>
      <point x="24" y="-40" type="line" smooth="yes"/>
    </contour>
    <contour>
      <point x="24" y="29" type="line" smooth="yes"/>
      <point x="276" y="29" type="line" smooth="yes"/>
      <point x="276" y="62" type="line" smooth="yes"/>
      <point x="24" y="62" type="line" smooth="yes"/>
    </contour>
  </outline>
</glyph>
