<?xml version="1.0" encoding="UTF-8"?>
<glyph name="questiondown.cap" format="1">
  <advance width="440"/>
  <unicode hex="E444"/>
  <outline>
    <contour>
      <point x="190" y="720" type="line" smooth="yes"/>
      <point x="250" y="720" type="line" smooth="yes"/>
      <point x="250" y="780" type="line" smooth="yes"/>
      <point x="190" y="780" type="line" smooth="yes"/>
    </contour>
    <contour>
      <point x="217" y="28" type="line" smooth="yes"/>
      <point x="130" y="49" type="line" smooth="yes"/>
      <point x="86" y="110" type="line" smooth="yes"/>
      <point x="74" y="205" type="line" smooth="yes"/>
      <point x="116" y="333" type="line" smooth="yes"/>
      <point x="193" y="445" type="line" smooth="yes"/>
      <point x="232" y="605" type="line" smooth="yes"/>
      <point x="208" y="605" type="line" smooth="yes"/>
      <point x="160" y="453" type="line" smooth="yes"/>
      <point x="77" y="348" type="line" smooth="yes"/>
      <point x="32" y="200" type="line" smooth="yes"/>
      <point x="52" y="86" type="line" smooth="yes"/>
      <point x="113" y="15" type="line" smooth="yes"/>
      <point x="217" y="-10" type="line" smooth="yes"/>
      <point x="338" y="29" type="line" smooth="yes"/>
      <point x="397" y="130" type="line" smooth="yes"/>
      <point x="412" y="270" type="line" smooth="yes"/>
      <point x="412" y="280" type="line" smooth="yes"/>
      <point x="372" y="280" type="line" smooth="yes"/>
      <point x="359" y="148" type="line" smooth="yes"/>
      <point x="312" y="60" type="line" smooth="yes"/>
    </contour>
  </outline>
</glyph>
