<?xml version="1.0" encoding="UTF-8"?>
<glyph name="scommaaccent" format="1">
  <advance width="520"/>
  <unicode hex="0219"/>
  <outline>
    <contour>
      <point x="290" y="-60" type="line" smooth="yes"/>
      <point x="230" y="-60" type="line" smooth="yes"/>
      <point x="230" y="-120" type="line" smooth="yes"/>
      <point x="260" y="-120" type="line" smooth="yes"/>
      <point x="250" y="-154" type="line" smooth="yes"/>
      <point x="229" y="-174" type="line" smooth="yes"/>
      <point x="200" y="-180" type="line" smooth="yes"/>
      <point x="200" y="-210" type="line" smooth="yes"/>
      <point x="248" y="-197" type="line" smooth="yes"/>
      <point x="279" y="-162" type="line" smooth="yes"/>
      <point x="290" y="-108" type="line" smooth="yes"/>
    </contour>
    <contour>
      <point x="260" y="28" type="line" smooth="yes"/>
      <point x="165" y="48" type="line" smooth="yes"/>
      <point x="118" y="96" type="line" smooth="yes"/>
      <point x="105" y="160" type="line" smooth="yes"/>
      <point x="65" y="160" type="line" smooth="yes"/>
      <point x="65" y="156" type="line" smooth="yes"/>
      <point x="82" y="81" type="line" smooth="yes"/>
      <point x="143" y="17" type="line" smooth="yes"/>
      <point x="260" y="-10" type="line" smooth="yes"/>
      <point x="366" y="9" type="line" smooth="yes"/>
      <point x="432" y="62" type="line" smooth="yes"/>
      <point x="455" y="138" type="line" smooth="yes"/>
      <point x="455" y="142" type="line" smooth="yes"/>
      <point x="438" y="218" type="line" smooth="yes"/>
      <point x="381" y="265" type="line" smooth="yes"/>
      <point x="275" y="286" type="line" smooth="yes"/>
      <point x="174" y="305" type="line" smooth="yes"/>
      <point x="125" y="341" type="line" smooth="yes"/>
      <point x="113" y="395" type="line" smooth="yes"/>
      <point x="131" y="453" type="line" smooth="yes"/>
      <point x="181" y="490" type="line" smooth="yes"/>
      <point x="260" y="502" type="line" smooth="yes"/>
      <point x="350" y="485" type="line" smooth="yes"/>
      <point x="397" y="435" type="line" smooth="yes"/>
      <point x="410" y="360" type="line" smooth="yes"/>
      <point x="450" y="360" type="line" smooth="yes"/>
      <point x="450" y="364" type="line" smooth="yes"/>
      <point x="432" y="454" type="line" smooth="yes"/>
      <point x="372" y="517" type="line" smooth="yes"/>
      <point x="260" y="540" type="line" smooth="yes"/>
      <point x="156" y="521" type="line" smooth="yes"/>
      <point x="92" y="470" type="line" smooth="yes"/>
      <point x="71" y="397" type="line" smooth="yes"/>
      <point x="71" y="392" type="line" smooth="yes"/>
      <point x="85" y="327" type="line" smooth="yes"/>
      <point x="138" y="279" type="line" smooth="yes"/>
      <point x="245" y="253" type="line" smooth="yes"/>
      <point x="341" y="238" type="line" smooth="yes"/>
      <point x="395" y="205" type="line" smooth="yes"/>
      <point x="413" y="140" type="line" smooth="yes"/>
      <point x="395" y="80" type="line" smooth="yes"/>
      <point x="343" y="42" type="line" smooth="yes"/>
    </contour>
  </outline>
</glyph>
