<?xml version="1.0" encoding="UTF-8"?>
<glyph name="two" format="1">
  <advance width="600"/>
  <unicode hex="0032"/>
  <outline>
    <contour>
      <point x="205" y="40" type="line" smooth="yes"/>
      <point x="128" y="39" type="line" smooth="yes"/>
      <point x="448" y="375" type="line" smooth="yes"/>
      <point x="505" y="444" type="line" smooth="yes"/>
      <point x="533" y="506" type="line" smooth="yes"/>
      <point x="540" y="575" type="line" smooth="yes"/>
      <point x="540" y="585" type="line" smooth="yes"/>
      <point x="510" y="696" type="line" smooth="yes"/>
      <point x="428" y="766" type="line" smooth="yes"/>
      <point x="300" y="790" type="line" smooth="yes"/>
      <point x="164" y="761" type="line" smooth="yes"/>
      <point x="85" y="677" type="line" smooth="yes"/>
      <point x="60" y="545" type="line" smooth="yes"/>
      <point x="60" y="520" type="line" smooth="yes"/>
      <point x="100" y="520" type="line" smooth="yes"/>
      <point x="122" y="653" type="line" smooth="yes"/>
      <point x="187" y="728" type="line" smooth="yes"/>
      <point x="297" y="752" type="line" smooth="yes"/>
      <point x="303" y="752" type="line" smooth="yes"/>
      <point x="406" y="731" type="line" smooth="yes"/>
      <point x="473" y="671" type="line" smooth="yes"/>
      <point x="498" y="580" type="line" smooth="yes"/>
      <point x="498" y="570" type="line" smooth="yes"/>
      <point x="490" y="513" type="line" smooth="yes"/>
      <point x="463" y="457" type="line" smooth="yes"/>
      <point x="410" y="393" type="line" smooth="yes"/>
      <point x="60" y="25" type="line" smooth="yes"/>
      <point x="60" y="0" type="line" smooth="yes"/>
      <point x="540" y="0" type="line" smooth="yes"/>
      <point x="540" y="40" type="line" smooth="yes"/>
    </contour>
  </outline>
</glyph>
