<?xml version="1.0" encoding="UTF-8"?>
<glyph name="uni2157" format="1">
  <advance width="800"/>
  <unicode hex="2157"/>
  <outline>
    <contour>
      <point x="61" y="515" type="line" smooth="yes"/>
      <point x="25" y="515" type="line" smooth="yes"/>
      <point x="25" y="509" type="line" smooth="yes"/>
      <point x="39" y="442" type="line" smooth="yes"/>
      <point x="80" y="399" type="line" smooth="yes"/>
      <point x="150" y="384" type="line" smooth="yes"/>
      <point x="215" y="398" type="line" smooth="yes"/>
      <point x="258" y="435" type="line" smooth="yes"/>
      <point x="274" y="490" type="line" smooth="yes"/>
      <point x="274" y="498" type="line" smooth="yes"/>
      <point x="266" y="540" type="line" smooth="yes"/>
      <point x="244" y="570" type="line" smooth="yes"/>
      <point x="211" y="588" type="line" smooth="yes"/>
      <point x="243" y="606" type="line" smooth="yes"/>
      <point x="264" y="635" type="line" smooth="yes"/>
      <point x="272" y="675" type="line" smooth="yes"/>
      <point x="272" y="682" type="line" smooth="yes"/>
      <point x="258" y="736" type="line" smooth="yes"/>
      <point x="217" y="772" type="line" smooth="yes"/>
      <point x="150" y="785" type="line" smooth="yes"/>
      <point x="81" y="770" type="line" smooth="yes"/>
      <point x="41" y="729" type="line" smooth="yes"/>
      <point x="28" y="662" type="line" smooth="yes"/>
      <point x="28" y="650" type="line" smooth="yes"/>
      <point x="63" y="650" type="line" smooth="yes"/>
      <point x="72" y="709" type="line" smooth="yes"/>
      <point x="100" y="743" type="line" smooth="yes"/>
      <point x="147" y="753" type="line" smooth="yes"/>
      <point x="152" y="753" type="line" smooth="yes"/>
      <point x="196" y="744" type="line" smooth="yes"/>
      <point x="225" y="718" type="line" smooth="yes"/>
      <point x="236" y="678" type="line" smooth="yes"/>
      <point x="236" y="674" type="line" smooth="yes"/>
      <point x="225" y="635" type="line" smooth="yes"/>
      <point x="196" y="612" type="line" smooth="yes"/>
      <point x="155" y="605" type="line" smooth="yes"/>
      <point x="100" y="605" type="line" smooth="yes"/>
      <point x="100" y="573" type="line" smooth="yes"/>
      <point x="157" y="573" type="line" smooth="yes"/>
      <point x="199" y="565" type="line" smooth="yes"/>
      <point x="228" y="540" type="line" smooth="yes"/>
      <point x="239" y="498" type="line" smooth="yes"/>
      <point x="239" y="491" type="line" smooth="yes"/>
      <point x="226" y="449" type="line" smooth="yes"/>
      <point x="195" y="424" type="line" smooth="yes"/>
      <point x="152" y="416" type="line" smooth="yes"/>
      <point x="147" y="416" type="line" smooth="yes"/>
      <point x="101" y="427" type="line" smooth="yes"/>
      <point x="71" y="459" type="line" smooth="yes"/>
    </contour>
    <contour>
      <point x="134" y="0" type="line" smooth="yes"/>
      <point x="710" y="780" type="line" smooth="yes"/>
      <point x="666" y="780" type="line" smooth="yes"/>
      <point x="90" y="0" type="line" smooth="yes"/>
    </contour>
    <contour>
      <point x="525" y="125" type="line" smooth="yes"/>
      <point x="525" y="119" type="line" smooth="yes"/>
      <point x="539" y="52" type="line" smooth="yes"/>
      <point x="580" y="9" type="line" smooth="yes"/>
      <point x="650" y="-6" type="line" smooth="yes"/>
      <point x="714" y="8" type="line" smooth="yes"/>
      <point x="758" y="50" type="line" smooth="yes"/>
      <point x="774" y="118" type="line" smooth="yes"/>
      <point x="774" y="124" type="line" smooth="yes"/>
      <point x="758" y="191" type="line" smooth="yes"/>
      <point x="714" y="233" type="line" smooth="yes"/>
      <point x="651" y="247" type="line" smooth="yes"/>
      <point x="618" y="243" type="line" smooth="yes"/>
      <point x="590" y="234" type="line" smooth="yes"/>
      <point x="566" y="218" type="line" smooth="yes"/>
      <point x="572" y="357" type="line" smooth="yes"/>
      <point x="769" y="357" type="line" smooth="yes"/>
      <point x="769" y="390" type="line" smooth="yes"/>
      <point x="538" y="390" type="line" smooth="yes"/>
      <point x="528" y="171" type="line" smooth="yes"/>
      <point x="558" y="162" type="line" smooth="yes"/>
      <point x="580" y="191" type="line" smooth="yes"/>
      <point x="611" y="209" type="line" smooth="yes"/>
      <point x="647" y="215" type="line" smooth="yes"/>
      <point x="651" y="215" type="line" smooth="yes"/>
      <point x="694" y="206" type="line" smooth="yes"/>
      <point x="726" y="176" type="line" smooth="yes"/>
      <point x="739" y="125" type="line" smooth="yes"/>
      <point x="739" y="116" type="line" smooth="yes"/>
      <point x="726" y="65" type="line" smooth="yes"/>
      <point x="695" y="35" type="line" smooth="yes"/>
      <point x="652" y="26" type="line" smooth="yes"/>
      <point x="647" y="26" type="line" smooth="yes"/>
      <point x="601" y="37" type="line" smooth="yes"/>
      <point x="571" y="69" type="line" smooth="yes"/>
      <point x="561" y="125" type="line" smooth="yes"/>
    </contour>
  </outline>
</glyph>
