<?xml version="1.0" encoding="UTF-8"?>
<glyph name="braceright" format="1">
  <advance width="317"/>
  <unicode hex="007D"/>
  <outline>
    <contour>
      <point x="42" y="-120" type="line" smooth="yes"/>
      <point x="60" y="-120" type="line" smooth="yes"/>
      <point x="114" y="-114" type="line" smooth="yes"/>
      <point x="160" y="-91" type="line" smooth="yes"/>
      <point x="193" y="-49" type="line" smooth="yes"/>
      <point x="206" y="19" type="line" smooth="yes"/>
      <point x="206" y="239" type="line" smooth="yes"/>
      <point x="211" y="284" type="line" smooth="yes"/>
      <point x="228" y="310" type="line" smooth="yes"/>
      <point x="255" y="324" type="line" smooth="yes"/>
      <point x="292" y="327" type="line" smooth="yes"/>
      <point x="292" y="393" type="line" smooth="yes"/>
      <point x="255" y="396" type="line" smooth="yes"/>
      <point x="228" y="410" type="line" smooth="yes"/>
      <point x="211" y="436" type="line" smooth="yes"/>
      <point x="206" y="481" type="line" smooth="yes"/>
      <point x="206" y="701" type="line" smooth="yes"/>
      <point x="193" y="769" type="line" smooth="yes"/>
      <point x="160" y="811" type="line" smooth="yes"/>
      <point x="114" y="834" type="line" smooth="yes"/>
      <point x="60" y="840" type="line" smooth="yes"/>
      <point x="42" y="840" type="line" smooth="yes"/>
      <point x="42" y="774" type="line" smooth="yes"/>
      <point x="82" y="769" type="line" smooth="yes"/>
      <point x="111" y="753" type="line" smooth="yes"/>
      <point x="130" y="722" type="line" smooth="yes"/>
      <point x="136" y="671" type="line" smooth="yes"/>
      <point x="136" y="463" type="line" smooth="yes"/>
      <point x="140" y="426" type="line" smooth="yes"/>
      <point x="151" y="397" type="line" smooth="yes"/>
      <point x="168" y="375" type="line" smooth="yes"/>
      <point x="190" y="360" type="line" smooth="yes"/>
      <point x="168" y="344" type="line" smooth="yes"/>
      <point x="151" y="322" type="line" smooth="yes"/>
      <point x="140" y="293" type="line" smooth="yes"/>
      <point x="136" y="257" type="line" smooth="yes"/>
      <point x="136" y="49" type="line" smooth="yes"/>
      <point x="130" y="-2" type="line" smooth="yes"/>
      <point x="111" y="-33" type="line" smooth="yes"/>
      <point x="82" y="-49" type="line" smooth="yes"/>
      <point x="42" y="-54" type="line" smooth="yes"/>
    </contour>
  </outline>
</glyph>
