<?xml version="1.0" encoding="UTF-8"?>
<glyph name="interrobangdown" format="1">
  <advance width="455"/>
  <unicode hex="E935"/>
  <outline>
    <contour>
      <point x="183" y="440" type="line" smooth="yes"/>
      <point x="273" y="440" type="line" smooth="yes"/>
      <point x="273" y="530" type="line" smooth="yes"/>
      <point x="183" y="530" type="line" smooth="yes"/>
    </contour>
    <contour>
      <point x="101" y="-22" type="line" smooth="yes"/>
      <point x="111" y="38" type="line" smooth="yes"/>
      <point x="136" y="90" type="line" smooth="yes"/>
      <point x="169" y="139" type="line" smooth="yes"/>
      <point x="203" y="190" type="line" smooth="yes"/>
      <point x="192" y="-143" type="line" smooth="yes"/>
      <point x="150" y="-129" type="line" smooth="yes"/>
      <point x="122" y="-104" type="line" smooth="yes"/>
      <point x="106" y="-67" type="line" smooth="yes"/>
    </contour>
    <contour>
      <point x="205" y="341" type="line" smooth="yes"/>
      <point x="174" y="237" type="line" smooth="yes"/>
      <point x="114" y="164" type="line" smooth="yes"/>
      <point x="55" y="88" type="line" smooth="yes"/>
      <point x="28" y="-29" type="line" smooth="yes"/>
      <point x="40" y="-103" type="line" smooth="yes"/>
      <point x="77" y="-161" type="line" smooth="yes"/>
      <point x="138" y="-198" type="line" smooth="yes"/>
      <point x="224" y="-211" type="line" smooth="yes"/>
      <point x="325" y="-191" type="line" smooth="yes"/>
      <point x="388" y="-137" type="line" smooth="yes"/>
      <point x="420" y="-54" type="line" smooth="yes"/>
      <point x="429" y="48" type="line" smooth="yes"/>
      <point x="429" y="60" type="line" smooth="yes"/>
      <point x="357" y="60" type="line" smooth="yes"/>
      <point x="353" y="-15" type="line" smooth="yes"/>
      <point x="338" y="-75" type="line" smooth="yes"/>
      <point x="309" y="-117" type="line" smooth="yes"/>
      <point x="264" y="-141" type="line" smooth="yes"/>
      <point x="247" y="341" type="line" smooth="yes"/>
    </contour>
  </outline>
</glyph>
