<?xml version="1.0" encoding="UTF-8"?>
<glyph name="mediumblackcircle" format="1">
  <advance width="670"/>
  <unicode hex="26AB"/>
  <outline>
    <contour>
      <point x="59" y="265" type="line" smooth="yes"/>
      <point x="81" y="158" type="line" smooth="yes"/>
      <point x="140" y="70" type="line" smooth="yes"/>
      <point x="228" y="11" type="line" smooth="yes"/>
      <point x="335" y="-11" type="line" smooth="yes"/>
      <point x="442" y="11" type="line" smooth="yes"/>
      <point x="530" y="70" type="line" smooth="yes"/>
      <point x="589" y="158" type="line" smooth="yes"/>
      <point x="611" y="265" type="line" smooth="yes"/>
      <point x="589" y="372" type="line" smooth="yes"/>
      <point x="530" y="460" type="line" smooth="yes"/>
      <point x="442" y="519" type="line" smooth="yes"/>
      <point x="335" y="541" type="line" smooth="yes"/>
      <point x="228" y="519" type="line" smooth="yes"/>
      <point x="140" y="460" type="line" smooth="yes"/>
      <point x="81" y="372" type="line" smooth="yes"/>
    </contour>
  </outline>
</glyph>
