<?xml version="1.0" encoding="UTF-8"?>
<glyph name="one.inf" format="1">
  <advance width="300"/>
  <unicode hex="E572"/>
  <outline>
    <contour>
      <point x="277" y="-200" type="line" smooth="yes"/>
      <point x="277" y="-148" type="line" smooth="yes"/>
      <point x="185" y="-148" type="line" smooth="yes"/>
      <point x="185" y="191" type="line" smooth="yes"/>
      <point x="142" y="191" type="line" smooth="yes"/>
      <point x="20" y="108" type="line" smooth="yes"/>
      <point x="49" y="64" type="line" smooth="yes"/>
      <point x="125" y="115" type="line" smooth="yes"/>
      <point x="125" y="-148" type="line" smooth="yes"/>
      <point x="32" y="-148" type="line" smooth="yes"/>
      <point x="32" y="-200" type="line" smooth="yes"/>
    </contour>
  </outline>
</glyph>
