<?xml version="1.0" encoding="UTF-8"?>
<glyph name="uni208E" format="1">
  <advance width="171"/>
  <unicode hex="208E"/>
  <outline>
    <contour>
      <point x="145" y="200" type="line" smooth="yes"/>
      <point x="140" y="258" type="line" smooth="yes"/>
      <point x="128" y="309" type="line" smooth="yes"/>
      <point x="109" y="353" type="line" smooth="yes"/>
      <point x="85" y="390" type="line" smooth="yes"/>
      <point x="24" y="390" type="line" smooth="yes"/>
      <point x="46" y="352" type="line" smooth="yes"/>
      <point x="66" y="307" type="line" smooth="yes"/>
      <point x="81" y="256" type="line" smooth="yes"/>
      <point x="86" y="200" type="line" smooth="yes"/>
      <point x="86" y="190" type="line" smooth="yes"/>
      <point x="81" y="134" type="line" smooth="yes"/>
      <point x="66" y="83" type="line" smooth="yes"/>
      <point x="46" y="38" type="line" smooth="yes"/>
      <point x="24" y="0" type="line" smooth="yes"/>
      <point x="85" y="0" type="line" smooth="yes"/>
      <point x="109" y="36" type="line" smooth="yes"/>
      <point x="128" y="80" type="line" smooth="yes"/>
      <point x="140" y="131" type="line" smooth="yes"/>
      <point x="145" y="190" type="line" smooth="yes"/>
    </contour>
  </outline>
</glyph>
