<?xml version="1.0" encoding="UTF-8"?>
<glyph name="ccedilla" format="1">
  <advance width="527"/>
  <unicode hex="00E7"/>
  <outline>
    <contour>
      <point x="165" y="-190" type="line" smooth="yes"/>
      <point x="207" y="-207" type="line" smooth="yes"/>
      <point x="272" y="-215" type="line" smooth="yes"/>
      <point x="362" y="-192" type="line" smooth="yes"/>
      <point x="392" y="-127" type="line" smooth="yes"/>
      <point x="363" y="-64" type="line" smooth="yes"/>
      <point x="292" y="-40" type="line" smooth="yes"/>
      <point x="302" y="-11" type="line" smooth="yes"/>
      <point x="449" y="47" type="line" smooth="yes"/>
      <point x="498" y="174" type="line" smooth="yes"/>
      <point x="498" y="196" type="line" smooth="yes"/>
      <point x="349" y="196" type="line" smooth="yes"/>
      <point x="330" y="144" type="line" smooth="yes"/>
      <point x="273" y="123" type="line" smooth="yes"/>
      <point x="208" y="156" type="line" smooth="yes"/>
      <point x="188" y="247" type="line" smooth="yes"/>
      <point x="188" y="283" type="line" smooth="yes"/>
      <point x="208" y="374" type="line" smooth="yes"/>
      <point x="273" y="407" type="line" smooth="yes"/>
      <point x="330" y="386" type="line" smooth="yes"/>
      <point x="349" y="324" type="line" smooth="yes"/>
      <point x="498" y="324" type="line" smooth="yes"/>
      <point x="498" y="347" type="line" smooth="yes"/>
      <point x="441" y="489" type="line" smooth="yes"/>
      <point x="270" y="543" type="line" smooth="yes"/>
      <point x="87" y="470" type="line" smooth="yes"/>
      <point x="30" y="283" type="line" smooth="yes"/>
      <point x="30" y="247" type="line" smooth="yes"/>
      <point x="78" y="71" type="line" smooth="yes"/>
      <point x="230" y="-10" type="line" smooth="yes"/>
      <point x="206" y="-72" type="line" smooth="yes"/>
      <point x="221" y="-100" type="line" smooth="yes"/>
      <point x="233" y="-98" type="line" smooth="yes"/>
      <point x="259" y="-95" type="line" smooth="yes"/>
      <point x="295" y="-101" type="line" smooth="yes"/>
      <point x="307" y="-118" type="line" smooth="yes"/>
      <point x="297" y="-135" type="line" smooth="yes"/>
      <point x="260" y="-141" type="line" smooth="yes"/>
      <point x="220" y="-136" type="line" smooth="yes"/>
      <point x="188" y="-124" type="line" smooth="yes"/>
    </contour>
  </outline>
</glyph>
