<?xml version="1.0" encoding="UTF-8"?>
<glyph name="uni215F" format="1">
  <advance width="500"/>
  <unicode hex="215F"/>
  <outline>
    <contour>
      <point x="290" y="390" type="line" smooth="yes"/>
      <point x="290" y="493" type="line" smooth="yes"/>
      <point x="219" y="493" type="line" smooth="yes"/>
      <point x="219" y="781" type="line" smooth="yes"/>
      <point x="129" y="781" type="line" smooth="yes"/>
      <point x="5" y="697" type="line" smooth="yes"/>
      <point x="64" y="612" type="line" smooth="yes"/>
      <point x="99" y="635" type="line" smooth="yes"/>
      <point x="99" y="493" type="line" smooth="yes"/>
      <point x="27" y="493" type="line" smooth="yes"/>
      <point x="27" y="390" type="line" smooth="yes"/>
    </contour>
    <contour>
      <point x="179" y="0" type="line" smooth="yes"/>
      <point x="755" y="780" type="line" smooth="yes"/>
      <point x="621" y="780" type="line" smooth="yes"/>
      <point x="45" y="0" type="line" smooth="yes"/>
    </contour>
  </outline>
</glyph>
