<?xml version="1.0" encoding="UTF-8"?>
<glyph name="dollar" format="1">
  <advance width="600"/>
  <unicode hex="0024"/>
  <outline>
    <contour>
      <point x="188" y="535" type="line" smooth="yes"/>
      <point x="188" y="540" type="line" smooth="yes"/>
      <point x="203" y="584" type="line" smooth="yes"/>
      <point x="241" y="611" type="line" smooth="yes"/>
      <point x="296" y="621" type="line" smooth="yes"/>
      <point x="305" y="621" type="line" smooth="yes"/>
      <point x="265" y="454" type="line" smooth="yes"/>
      <point x="219" y="472" type="line" smooth="yes"/>
      <point x="195" y="499" type="line" smooth="yes"/>
    </contour>
    <contour>
      <point x="306" y="160" type="line" smooth="yes"/>
      <point x="297" y="160" type="line" smooth="yes"/>
      <point x="338" y="334" type="line" smooth="yes"/>
      <point x="383" y="316" type="line" smooth="yes"/>
      <point x="409" y="288" type="line" smooth="yes"/>
      <point x="417" y="251" type="line" smooth="yes"/>
      <point x="417" y="246" type="line" smooth="yes"/>
      <point x="403" y="200" type="line" smooth="yes"/>
      <point x="364" y="170" type="line" smooth="yes"/>
    </contour>
    <contour>
      <point x="459" y="840" type="line" smooth="yes"/>
      <point x="357" y="840" type="line" smooth="yes"/>
      <point x="330" y="729" type="line" smooth="yes"/>
      <point x="320" y="729" type="line" smooth="yes"/>
      <point x="310" y="730" type="line" smooth="yes"/>
      <point x="300" y="730" type="line" smooth="yes"/>
      <point x="171" y="707" type="line" smooth="yes"/>
      <point x="87" y="640" type="line" smooth="yes"/>
      <point x="56" y="534" type="line" smooth="yes"/>
      <point x="56" y="525" type="line" smooth="yes"/>
      <point x="75" y="440" type="line" smooth="yes"/>
      <point x="135" y="383" type="line" smooth="yes"/>
      <point x="240" y="350" type="line" smooth="yes"/>
      <point x="204" y="199" type="line" smooth="yes"/>
      <point x="191" y="221" type="line" smooth="yes"/>
      <point x="184" y="248" type="line" smooth="yes"/>
      <point x="181" y="279" type="line" smooth="yes"/>
      <point x="49" y="279" type="line" smooth="yes"/>
      <point x="49" y="273" type="line" smooth="yes"/>
      <point x="63" y="185" type="line" smooth="yes"/>
      <point x="105" y="118" type="line" smooth="yes"/>
      <point x="174" y="73" type="line" smooth="yes"/>
      <point x="142" y="-60" type="line" smooth="yes"/>
      <point x="244" y="-60" type="line" smooth="yes"/>
      <point x="271" y="52" type="line" smooth="yes"/>
      <point x="281" y="51" type="line" smooth="yes"/>
      <point x="292" y="51" type="line" smooth="yes"/>
      <point x="304" y="51" type="line" smooth="yes"/>
      <point x="439" y="75" type="line" smooth="yes"/>
      <point x="523" y="144" type="line" smooth="yes"/>
      <point x="551" y="252" type="line" smooth="yes"/>
      <point x="551" y="261" type="line" smooth="yes"/>
      <point x="529" y="351" type="line" smooth="yes"/>
      <point x="466" y="407" type="line" smooth="yes"/>
      <point x="363" y="438" type="line" smooth="yes"/>
      <point x="396" y="576" type="line" smooth="yes"/>
      <point x="406" y="553" type="line" smooth="yes"/>
      <point x="412" y="525" type="line" smooth="yes"/>
      <point x="414" y="493" type="line" smooth="yes"/>
      <point x="545" y="493" type="line" smooth="yes"/>
      <point x="545" y="507" type="line" smooth="yes"/>
      <point x="532" y="597" type="line" smooth="yes"/>
      <point x="494" y="664" type="line" smooth="yes"/>
      <point x="427" y="709" type="line" smooth="yes"/>
    </contour>
  </outline>
</glyph>
