<?xml version="1.0" encoding="UTF-8"?>
<glyph name="doublebar.cap" format="1">
  <advance width="418"/>
  <unicode hex="E464"/>
  <outline>
    <contour>
      <point x="233" y="0" type="line" smooth="yes"/>
      <point x="360" y="0" type="line" smooth="yes"/>
      <point x="360" y="780" type="line" smooth="yes"/>
      <point x="233" y="780" type="line" smooth="yes"/>
    </contour>
    <contour>
      <point x="57" y="0" type="line" smooth="yes"/>
      <point x="185" y="0" type="line" smooth="yes"/>
      <point x="185" y="780" type="line" smooth="yes"/>
      <point x="57" y="780" type="line" smooth="yes"/>
    </contour>
  </outline>
</glyph>
