<?xml version="1.0" encoding="UTF-8"?>
<glyph name="onethirdemdash" format="1">
  <advance width="333"/>
  <unicode hex="E471"/>
  <outline>
    <contour>
      <point x="293" y="293" type="line" smooth="yes"/>
      <point x="293" y="407" type="line" smooth="yes"/>
      <point x="40" y="407" type="line" smooth="yes"/>
      <point x="40" y="293" type="line" smooth="yes"/>
    </contour>
  </outline>
</glyph>
