<?xml version="1.0" encoding="UTF-8"?>
<glyph name="paragraph" format="1">
  <advance width="538"/>
  <unicode hex="00B6"/>
  <outline>
    <contour>
      <point x="163" y="530" type="line" smooth="yes"/>
      <point x="163" y="541" type="line" smooth="yes"/>
      <point x="173" y="601" type="line" smooth="yes"/>
      <point x="200" y="638" type="line" smooth="yes"/>
      <point x="236" y="656" type="line" smooth="yes"/>
      <point x="236" y="414" type="line" smooth="yes"/>
      <point x="200" y="433" type="line" smooth="yes"/>
      <point x="173" y="469" type="line" smooth="yes"/>
    </contour>
    <contour>
      <point x="236" y="0" type="line" smooth="yes"/>
      <point x="300" y="0" type="line" smooth="yes"/>
      <point x="300" y="663" type="line" smooth="yes"/>
      <point x="346" y="663" type="line" smooth="yes"/>
      <point x="346" y="0" type="line" smooth="yes"/>
      <point x="480" y="0" type="line" smooth="yes"/>
      <point x="480" y="780" type="line" smooth="yes"/>
      <point x="288" y="780" type="line" smooth="yes"/>
      <point x="166" y="763" type="line" smooth="yes"/>
      <point x="68" y="695" type="line" smooth="yes"/>
      <point x="27" y="546" type="line" smooth="yes"/>
      <point x="27" y="526" type="line" smooth="yes"/>
      <point x="57" y="392" type="line" smooth="yes"/>
      <point x="134" y="320" type="line" smooth="yes"/>
      <point x="236" y="293" type="line" smooth="yes"/>
    </contour>
  </outline>
</glyph>
