<?xml version="1.0" encoding="UTF-8"?>
<glyph name="q" format="1">
  <advance width="568"/>
  <unicode hex="0071"/>
  <outline>
    <contour>
      <point x="378" y="161" type="line" smooth="yes"/>
      <point x="356" y="134" type="line" smooth="yes"/>
      <point x="322" y="111" type="line" smooth="yes"/>
      <point x="273" y="101" type="line" smooth="yes"/>
      <point x="213" y="119" type="line" smooth="yes"/>
      <point x="179" y="169" type="line" smooth="yes"/>
      <point x="168" y="249" type="line" smooth="yes"/>
      <point x="168" y="281" type="line" smooth="yes"/>
      <point x="179" y="361" type="line" smooth="yes"/>
      <point x="213" y="412" type="line" smooth="yes"/>
      <point x="273" y="430" type="line" smooth="yes"/>
      <point x="322" y="420" type="line" smooth="yes"/>
      <point x="356" y="396" type="line" smooth="yes"/>
      <point x="378" y="369" type="line" smooth="yes"/>
    </contour>
    <contour>
      <point x="378" y="-200" type="line" smooth="yes"/>
      <point x="508" y="-200" type="line" smooth="yes"/>
      <point x="508" y="380" type="line" smooth="yes"/>
      <point x="516" y="530" type="line" smooth="yes"/>
      <point x="401" y="530" type="line" smooth="yes"/>
      <point x="390" y="463" type="line" smooth="yes"/>
      <point x="354" y="504" type="line" smooth="yes"/>
      <point x="304" y="532" type="line" smooth="yes"/>
      <point x="237" y="543" type="line" smooth="yes"/>
      <point x="121" y="509" type="line" smooth="yes"/>
      <point x="57" y="416" type="line" smooth="yes"/>
      <point x="38" y="281" type="line" smooth="yes"/>
      <point x="38" y="249" type="line" smooth="yes"/>
      <point x="57" y="114" type="line" smooth="yes"/>
      <point x="121" y="21" type="line" smooth="yes"/>
      <point x="237" y="-13" type="line" smooth="yes"/>
      <point x="296" y="-5" type="line" smooth="yes"/>
      <point x="343" y="17" type="line" smooth="yes"/>
      <point x="378" y="50" type="line" smooth="yes"/>
    </contour>
  </outline>
</glyph>
