<?xml version="1.0" encoding="UTF-8"?>
<glyph name="zero" format="1">
  <advance width="600"/>
  <unicode hex="0030"/>
  <outline>
    <contour>
      <point x="417" y="554" type="line" smooth="yes"/>
      <point x="417" y="226" type="line" smooth="yes"/>
      <point x="406" y="162" type="line" smooth="yes"/>
      <point x="369" y="119" type="line" smooth="yes"/>
      <point x="302" y="104" type="line" smooth="yes"/>
      <point x="298" y="104" type="line" smooth="yes"/>
      <point x="231" y="119" type="line" smooth="yes"/>
      <point x="194" y="162" type="line" smooth="yes"/>
      <point x="183" y="226" type="line" smooth="yes"/>
      <point x="183" y="554" type="line" smooth="yes"/>
      <point x="194" y="618" type="line" smooth="yes"/>
      <point x="231" y="661" type="line" smooth="yes"/>
      <point x="298" y="676" type="line" smooth="yes"/>
      <point x="302" y="676" type="line" smooth="yes"/>
      <point x="369" y="661" type="line" smooth="yes"/>
      <point x="406" y="618" type="line" smooth="yes"/>
    </contour>
    <contour>
      <point x="550" y="222" type="line" smooth="yes"/>
      <point x="550" y="558" type="line" smooth="yes"/>
      <point x="523" y="679" type="line" smooth="yes"/>
      <point x="440" y="762" type="line" smooth="yes"/>
      <point x="300" y="793" type="line" smooth="yes"/>
      <point x="160" y="762" type="line" smooth="yes"/>
      <point x="77" y="679" type="line" smooth="yes"/>
      <point x="50" y="558" type="line" smooth="yes"/>
      <point x="50" y="222" type="line" smooth="yes"/>
      <point x="77" y="101" type="line" smooth="yes"/>
      <point x="160" y="18" type="line" smooth="yes"/>
      <point x="300" y="-13" type="line" smooth="yes"/>
      <point x="440" y="18" type="line" smooth="yes"/>
      <point x="523" y="101" type="line" smooth="yes"/>
    </contour>
  </outline>
</glyph>
