<?xml version="1.0" encoding="UTF-8"?>
<glyph name="asciitilde" format="1">
  <advance width="600"/>
  <unicode hex="007E"/>
  <outline>
    <contour>
      <point x="179" y="462" type="line" smooth="yes"/>
      <point x="116" y="449" type="line" smooth="yes"/>
      <point x="68" y="418" type="line" smooth="yes"/>
      <point x="34" y="380" type="line" smooth="yes"/>
      <point x="86" y="327" type="line" smooth="yes"/>
      <point x="109" y="351" type="line" smooth="yes"/>
      <point x="141" y="372" type="line" smooth="yes"/>
      <point x="181" y="381" type="line" smooth="yes"/>
      <point x="257" y="363" type="line" smooth="yes"/>
      <point x="330" y="330" type="line" smooth="yes"/>
      <point x="421" y="312" type="line" smooth="yes"/>
      <point x="484" y="325" type="line" smooth="yes"/>
      <point x="532" y="355" type="line" smooth="yes"/>
      <point x="566" y="394" type="line" smooth="yes"/>
      <point x="514" y="446" type="line" smooth="yes"/>
      <point x="491" y="423" type="line" smooth="yes"/>
      <point x="459" y="402" type="line" smooth="yes"/>
      <point x="419" y="393" type="line" smooth="yes"/>
      <point x="343" y="411" type="line" smooth="yes"/>
      <point x="270" y="444" type="line" smooth="yes"/>
    </contour>
  </outline>
</glyph>
