<?xml version="1.0" encoding="UTF-8"?>
<glyph name="caron" format="1">
  <advance width="500"/>
  <unicode hex="02C7"/>
  <outline>
    <contour>
      <point x="71" y="780" type="line" smooth="yes"/>
      <point x="203" y="607" type="line" smooth="yes"/>
      <point x="297" y="607" type="line" smooth="yes"/>
      <point x="429" y="780" type="line" smooth="yes"/>
      <point x="335" y="780" type="line" smooth="yes"/>
      <point x="250" y="678" type="line" smooth="yes"/>
      <point x="165" y="780" type="line" smooth="yes"/>
    </contour>
  </outline>
</glyph>
