<?xml version="1.0" encoding="UTF-8"?>
<glyph name="guillemotright.cap" format="1">
  <advance width="534"/>
  <unicode hex="E454"/>
  <outline>
    <contour>
      <point x="276" y="494" type="line" smooth="yes"/>
      <point x="410" y="390" type="line" smooth="yes"/>
      <point x="276" y="286" type="line" smooth="yes"/>
      <point x="276" y="192" type="line" smooth="yes"/>
      <point x="484" y="343" type="line" smooth="yes"/>
      <point x="484" y="437" type="line" smooth="yes"/>
      <point x="276" y="588" type="line" smooth="yes"/>
    </contour>
    <contour>
      <point x="50" y="494" type="line" smooth="yes"/>
      <point x="184" y="390" type="line" smooth="yes"/>
      <point x="50" y="286" type="line" smooth="yes"/>
      <point x="50" y="192" type="line" smooth="yes"/>
      <point x="259" y="343" type="line" smooth="yes"/>
      <point x="259" y="437" type="line" smooth="yes"/>
      <point x="50" y="588" type="line" smooth="yes"/>
    </contour>
  </outline>
</glyph>
