<?xml version="1.0" encoding="UTF-8"?>
<glyph name="Imacron" format="1">
  <advance width="248"/>
  <unicode hex="012A"/>
  <outline>
    <contour>
      <point x="-2" y="860" type="line" smooth="yes"/>
      <point x="250" y="860" type="line" smooth="yes"/>
      <point x="250" y="930" type="line" smooth="yes"/>
      <point x="-2" y="930" type="line" smooth="yes"/>
    </contour>
    <contour>
      <point x="176" y="780" type="line" smooth="yes"/>
      <point x="72" y="780" type="line" smooth="yes"/>
      <point x="72" y="0" type="line" smooth="yes"/>
      <point x="176" y="0" type="line" smooth="yes"/>
    </contour>
  </outline>
</glyph>
