<?xml version="1.0" encoding="UTF-8"?>
<glyph name="mediumblackcircle" format="1">
  <advance width="670"/>
  <unicode hex="26AB"/>
  <outline>
    <contour>
      <point x="58" y="265" type="line" smooth="yes"/>
      <point x="96" y="125" type="line" smooth="yes"/>
      <point x="195" y="26" type="line" smooth="yes"/>
      <point x="335" y="-12" type="line" smooth="yes"/>
      <point x="475" y="26" type="line" smooth="yes"/>
      <point x="574" y="125" type="line" smooth="yes"/>
      <point x="612" y="265" type="line" smooth="yes"/>
      <point x="574" y="405" type="line" smooth="yes"/>
      <point x="475" y="504" type="line" smooth="yes"/>
      <point x="335" y="542" type="line" smooth="yes"/>
      <point x="195" y="504" type="line" smooth="yes"/>
      <point x="96" y="405" type="line" smooth="yes"/>
    </contour>
  </outline>
</glyph>
