<?xml version="1.0" encoding="UTF-8"?>
<glyph name="quoteleft" format="1">
  <advance width="234"/>
  <unicode hex="2018"/>
  <outline>
    <contour>
      <point x="60" y="558" type="line" smooth="yes"/>
      <point x="174" y="558" type="line" smooth="yes"/>
      <point x="174" y="672" type="line" smooth="yes"/>
      <point x="116" y="672" type="line" smooth="yes"/>
      <point x="128" y="713" type="line" smooth="yes"/>
      <point x="154" y="736" type="line" smooth="yes"/>
      <point x="192" y="743" type="line" smooth="yes"/>
      <point x="192" y="799" type="line" smooth="yes"/>
      <point x="119" y="782" type="line" smooth="yes"/>
      <point x="75" y="732" type="line" smooth="yes"/>
      <point x="60" y="648" type="line" smooth="yes"/>
    </contour>
  </outline>
</glyph>
