<?xml version="1.0" encoding="UTF-8"?>
<glyph name="rcaron" format="1">
  <advance width="350"/>
  <unicode hex="0159"/>
  <outline>
    <contour>
      <point x="8" y="780" type="line" smooth="yes"/>
      <point x="140" y="607" type="line" smooth="yes"/>
      <point x="234" y="607" type="line" smooth="yes"/>
      <point x="366" y="780" type="line" smooth="yes"/>
      <point x="272" y="780" type="line" smooth="yes"/>
      <point x="187" y="678" type="line" smooth="yes"/>
      <point x="102" y="780" type="line" smooth="yes"/>
    </contour>
    <contour>
      <point x="297" y="542" type="line" smooth="yes"/>
      <point x="236" y="531" type="line" smooth="yes"/>
      <point x="187" y="503" type="line" smooth="yes"/>
      <point x="151" y="462" type="line" smooth="yes"/>
      <point x="141" y="530" type="line" smooth="yes"/>
      <point x="55" y="530" type="line" smooth="yes"/>
      <point x="62" y="380" type="line" smooth="yes"/>
      <point x="62" y="0" type="line" smooth="yes"/>
      <point x="162" y="0" type="line" smooth="yes"/>
      <point x="162" y="377" type="line" smooth="yes"/>
      <point x="188" y="408" type="line" smooth="yes"/>
      <point x="231" y="434" type="line" smooth="yes"/>
      <point x="294" y="445" type="line" smooth="yes"/>
      <point x="312" y="445" type="line" smooth="yes"/>
      <point x="312" y="541" type="line" smooth="yes"/>
      <point x="309" y="541" type="line" smooth="yes"/>
      <point x="303" y="542" type="line" smooth="yes"/>
    </contour>
  </outline>
</glyph>
