<?xml version="1.0" encoding="UTF-8"?>
<glyph name="Tbar" format="1">
  <advance width="530"/>
  <unicode hex="0166"/>
  <outline>
    <contour>
      <point x="317" y="688" type="line" smooth="yes"/>
      <point x="509" y="688" type="line" smooth="yes"/>
      <point x="509" y="780" type="line" smooth="yes"/>
      <point x="21" y="780" type="line" smooth="yes"/>
      <point x="21" y="688" type="line" smooth="yes"/>
      <point x="213" y="688" type="line" smooth="yes"/>
      <point x="213" y="444" type="line" smooth="yes"/>
      <point x="91" y="444" type="line" smooth="yes"/>
      <point x="91" y="352" type="line" smooth="yes"/>
      <point x="213" y="352" type="line" smooth="yes"/>
      <point x="213" y="0" type="line" smooth="yes"/>
      <point x="317" y="0" type="line" smooth="yes"/>
      <point x="317" y="352" type="line" smooth="yes"/>
      <point x="438" y="352" type="line" smooth="yes"/>
      <point x="438" y="444" type="line" smooth="yes"/>
      <point x="317" y="444" type="line" smooth="yes"/>
    </contour>
  </outline>
</glyph>
