<?xml version="1.0" encoding="UTF-8"?>
<glyph name="altcedilla" format="1">
  <advance width="602"/>
  <unicode hex="E416"/>
  <outline>
    <contour>
      <point x="286" y="-118" type="line" smooth="yes"/>
      <point x="284" y="-128" type="line" smooth="yes"/>
      <point x="276" y="-135" type="line" smooth="yes"/>
      <point x="261" y="-139" type="line" smooth="yes"/>
      <point x="239" y="-141" type="line" smooth="yes"/>
      <point x="219" y="-140" type="line" smooth="yes"/>
      <point x="199" y="-136" type="line" smooth="yes"/>
      <point x="181" y="-131" type="line" smooth="yes"/>
      <point x="167" y="-124" type="line" smooth="yes"/>
      <point x="144" y="-190" type="line" smooth="yes"/>
      <point x="162" y="-199" type="line" smooth="yes"/>
      <point x="186" y="-207" type="line" smooth="yes"/>
      <point x="216" y="-213" type="line" smooth="yes"/>
      <point x="251" y="-215" type="line" smooth="yes"/>
      <point x="303" y="-209" type="line" smooth="yes"/>
      <point x="341" y="-192" type="line" smooth="yes"/>
      <point x="363" y="-165" type="line" smooth="yes"/>
      <point x="371" y="-127" type="line" smooth="yes"/>
      <point x="362" y="-88" type="line" smooth="yes"/>
      <point x="338" y="-61" type="line" smooth="yes"/>
      <point x="302" y="-45" type="line" smooth="yes"/>
      <point x="258" y="-40" type="line" smooth="yes"/>
      <point x="236" y="-41" type="line" smooth="yes"/>
      <point x="218" y="-43" type="line" smooth="yes"/>
      <point x="202" y="-46" type="line" smooth="yes"/>
      <point x="190" y="-50" type="line" smooth="yes"/>
      <point x="190" y="-102" type="line" smooth="yes"/>
      <point x="197" y="-100" type="line" smooth="yes"/>
      <point x="209" y="-97" type="line" smooth="yes"/>
      <point x="224" y="-96" type="line" smooth="yes"/>
      <point x="239" y="-95" type="line" smooth="yes"/>
      <point x="260" y="-96" type="line" smooth="yes"/>
      <point x="275" y="-101" type="line" smooth="yes"/>
      <point x="283" y="-108" type="line" smooth="yes"/>
    </contour>
  </outline>
</glyph>
