<?xml version="1.0" encoding="UTF-8"?>
<glyph name="amacron" format="1">
  <advance width="549"/>
  <unicode hex="0101"/>
  <outline>
    <contour>
      <point x="250" y="115" type="line" smooth="yes"/>
      <point x="221" y="120" type="line" smooth="yes"/>
      <point x="201" y="132" type="line" smooth="yes"/>
      <point x="190" y="149" type="line" smooth="yes"/>
      <point x="187" y="169" type="line" smooth="yes"/>
      <point x="187" y="175" type="line" smooth="yes"/>
      <point x="190" y="197" type="line" smooth="yes"/>
      <point x="201" y="216" type="line" smooth="yes"/>
      <point x="221" y="229" type="line" smooth="yes"/>
      <point x="252" y="238" type="line" smooth="yes"/>
      <point x="342" y="252" type="line" smooth="yes"/>
      <point x="342" y="155" type="line" smooth="yes"/>
      <point x="327" y="141" type="line" smooth="yes"/>
      <point x="307" y="128" type="line" smooth="yes"/>
      <point x="281" y="119" type="line" smooth="yes"/>
    </contour>
    <contour>
      <point x="124" y="619" type="line" smooth="yes"/>
      <point x="424" y="619" type="line" smooth="yes"/>
      <point x="424" y="757" type="line" smooth="yes"/>
      <point x="124" y="757" type="line" smooth="yes"/>
    </contour>
    <contour>
      <point x="368" y="0" type="line" smooth="yes"/>
      <point x="510" y="0" type="line" smooth="yes"/>
      <point x="500" y="150" type="line" smooth="yes"/>
      <point x="500" y="341" type="line" smooth="yes"/>
      <point x="489" y="427" type="line" smooth="yes"/>
      <point x="452" y="490" type="line" smooth="yes"/>
      <point x="383" y="529" type="line" smooth="yes"/>
      <point x="275" y="543" type="line" smooth="yes"/>
      <point x="166" y="528" type="line" smooth="yes"/>
      <point x="97" y="488" type="line" smooth="yes"/>
      <point x="61" y="431" type="line" smooth="yes"/>
      <point x="50" y="364" type="line" smooth="yes"/>
      <point x="50" y="355" type="line" smooth="yes"/>
      <point x="199" y="355" type="line" smooth="yes"/>
      <point x="202" y="380" type="line" smooth="yes"/>
      <point x="213" y="402" type="line" smooth="yes"/>
      <point x="235" y="417" type="line" smooth="yes"/>
      <point x="270" y="423" type="line" smooth="yes"/>
      <point x="304" y="418" type="line" smooth="yes"/>
      <point x="326" y="404" type="line" smooth="yes"/>
      <point x="338" y="379" type="line" smooth="yes"/>
      <point x="342" y="345" type="line" smooth="yes"/>
      <point x="220" y="326" type="line" smooth="yes"/>
      <point x="143" y="308" type="line" smooth="yes"/>
      <point x="83" y="278" type="line" smooth="yes"/>
      <point x="44" y="229" type="line" smooth="yes"/>
      <point x="30" y="156" type="line" smooth="yes"/>
      <point x="30" y="146" type="line" smooth="yes"/>
      <point x="39" y="85" type="line" smooth="yes"/>
      <point x="66" y="35" type="line" smooth="yes"/>
      <point x="116" y="-0" type="line" smooth="yes"/>
      <point x="192" y="-13" type="line" smooth="yes"/>
      <point x="244" y="-8" type="line" smooth="yes"/>
      <point x="289" y="6" type="line" smooth="yes"/>
      <point x="327" y="28" type="line" smooth="yes"/>
      <point x="358" y="55" type="line" smooth="yes"/>
    </contour>
  </outline>
</glyph>
