<?xml version="1.0" encoding="UTF-8"?>
<glyph name="bracketright.cap" format="1">
  <advance width="365"/>
  <unicode hex="E494"/>
  <outline>
    <contour>
      <point x="307" y="0" type="line" smooth="yes"/>
      <point x="307" y="780" type="line" smooth="yes"/>
      <point x="33" y="780" type="line" smooth="yes"/>
      <point x="33" y="642" type="line" smooth="yes"/>
      <point x="150" y="642" type="line" smooth="yes"/>
      <point x="150" y="138" type="line" smooth="yes"/>
      <point x="33" y="138" type="line" smooth="yes"/>
      <point x="33" y="0" type="line" smooth="yes"/>
    </contour>
  </outline>
</glyph>
