<?xml version="1.0" encoding="UTF-8"?>
<glyph name="c" format="1">
  <advance width="527"/>
  <unicode hex="0063"/>
  <outline>
    <contour>
      <point x="188" y="247" type="line" smooth="yes"/>
      <point x="188" y="283" type="line" smooth="yes"/>
      <point x="193" y="335" type="line" smooth="yes"/>
      <point x="208" y="374" type="line" smooth="yes"/>
      <point x="234" y="399" type="line" smooth="yes"/>
      <point x="273" y="407" type="line" smooth="yes"/>
      <point x="306" y="402" type="line" smooth="yes"/>
      <point x="330" y="386" type="line" smooth="yes"/>
      <point x="344" y="360" type="line" smooth="yes"/>
      <point x="349" y="324" type="line" smooth="yes"/>
      <point x="498" y="324" type="line" smooth="yes"/>
      <point x="498" y="347" type="line" smooth="yes"/>
      <point x="484" y="427" type="line" smooth="yes"/>
      <point x="441" y="489" type="line" smooth="yes"/>
      <point x="370" y="529" type="line" smooth="yes"/>
      <point x="270" y="543" type="line" smooth="yes"/>
      <point x="162" y="524" type="line" smooth="yes"/>
      <point x="87" y="470" type="line" smooth="yes"/>
      <point x="44" y="388" type="line" smooth="yes"/>
      <point x="30" y="283" type="line" smooth="yes"/>
      <point x="30" y="247" type="line" smooth="yes"/>
      <point x="44" y="142" type="line" smooth="yes"/>
      <point x="87" y="60" type="line" smooth="yes"/>
      <point x="162" y="6" type="line" smooth="yes"/>
      <point x="270" y="-13" type="line" smooth="yes"/>
      <point x="370" y="1" type="line" smooth="yes"/>
      <point x="441" y="40" type="line" smooth="yes"/>
      <point x="484" y="99" type="line" smooth="yes"/>
      <point x="498" y="174" type="line" smooth="yes"/>
      <point x="498" y="196" type="line" smooth="yes"/>
      <point x="349" y="196" type="line" smooth="yes"/>
      <point x="344" y="167" type="line" smooth="yes"/>
      <point x="330" y="144" type="line" smooth="yes"/>
      <point x="306" y="129" type="line" smooth="yes"/>
      <point x="273" y="123" type="line" smooth="yes"/>
      <point x="234" y="131" type="line" smooth="yes"/>
      <point x="208" y="156" type="line" smooth="yes"/>
      <point x="193" y="195" type="line" smooth="yes"/>
    </contour>
  </outline>
</glyph>
