<?xml version="1.0" encoding="UTF-8"?>
<glyph name="colon" format="1">
  <advance width="266"/>
  <unicode hex="003A"/>
  <outline>
    <contour>
      <point x="216" y="474" type="line" smooth="yes"/>
      <point x="50" y="474" type="line" smooth="yes"/>
      <point x="50" y="307" type="line" smooth="yes"/>
      <point x="216" y="307" type="line" smooth="yes"/>
    </contour>
    <contour>
      <point x="216" y="167" type="line" smooth="yes"/>
      <point x="50" y="167" type="line" smooth="yes"/>
      <point x="50" y="0" type="line" smooth="yes"/>
      <point x="216" y="0" type="line" smooth="yes"/>
    </contour>
  </outline>
</glyph>
