<?xml version="1.0" encoding="UTF-8"?>
<glyph name="degree" format="1">
  <advance width="400"/>
  <unicode hex="00B0"/>
  <outline>
    <contour>
      <point x="362" y="632" type="line" smooth="yes"/>
      <point x="350" y="699" type="line" smooth="yes"/>
      <point x="316" y="750" type="line" smooth="yes"/>
      <point x="264" y="782" type="line" smooth="yes"/>
      <point x="200" y="793" type="line" smooth="yes"/>
      <point x="136" y="782" type="line" smooth="yes"/>
      <point x="85" y="750" type="line" smooth="yes"/>
      <point x="50" y="699" type="line" smooth="yes"/>
      <point x="38" y="632" type="line" smooth="yes"/>
      <point x="38" y="627" type="line" smooth="yes"/>
      <point x="50" y="560" type="line" smooth="yes"/>
      <point x="85" y="509" type="line" smooth="yes"/>
      <point x="136" y="477" type="line" smooth="yes"/>
      <point x="200" y="466" type="line" smooth="yes"/>
      <point x="264" y="477" type="line" smooth="yes"/>
      <point x="316" y="509" type="line" smooth="yes"/>
      <point x="350" y="560" type="line" smooth="yes"/>
      <point x="362" y="627" type="line" smooth="yes"/>
    </contour>
    <contour>
      <point x="266" y="627" type="line" smooth="yes"/>
      <point x="261" y="601" type="line" smooth="yes"/>
      <point x="248" y="580" type="line" smooth="yes"/>
      <point x="227" y="568" type="line" smooth="yes"/>
      <point x="202" y="563" type="line" smooth="yes"/>
      <point x="198" y="563" type="line" smooth="yes"/>
      <point x="173" y="568" type="line" smooth="yes"/>
      <point x="153" y="580" type="line" smooth="yes"/>
      <point x="139" y="601" type="line" smooth="yes"/>
      <point x="134" y="627" type="line" smooth="yes"/>
      <point x="134" y="633" type="line" smooth="yes"/>
      <point x="139" y="659" type="line" smooth="yes"/>
      <point x="153" y="680" type="line" smooth="yes"/>
      <point x="173" y="692" type="line" smooth="yes"/>
      <point x="198" y="697" type="line" smooth="yes"/>
      <point x="202" y="697" type="line" smooth="yes"/>
      <point x="227" y="692" type="line" smooth="yes"/>
      <point x="248" y="680" type="line" smooth="yes"/>
      <point x="261" y="659" type="line" smooth="yes"/>
      <point x="266" y="633" type="line" smooth="yes"/>
    </contour>
  </outline>
</glyph>
