<?xml version="1.0" encoding="UTF-8"?>
<glyph name="divide" format="1">
  <advance width="600"/>
  <unicode hex="00F7"/>
  <outline>
    <contour>
      <point x="383" y="681" type="line" smooth="yes"/>
      <point x="217" y="681" type="line" smooth="yes"/>
      <point x="217" y="515" type="line" smooth="yes"/>
      <point x="383" y="515" type="line" smooth="yes"/>
    </contour>
    <contour>
      <point x="383" y="265" type="line" smooth="yes"/>
      <point x="217" y="265" type="line" smooth="yes"/>
      <point x="217" y="99" type="line" smooth="yes"/>
      <point x="383" y="99" type="line" smooth="yes"/>
    </contour>
    <contour>
      <point x="42" y="320" type="line" smooth="yes"/>
      <point x="558" y="320" type="line" smooth="yes"/>
      <point x="558" y="460" type="line" smooth="yes"/>
      <point x="42" y="460" type="line" smooth="yes"/>
    </contour>
  </outline>
</glyph>
