<?xml version="1.0" encoding="UTF-8"?>
<glyph name="ordmasculine" format="1">
  <advance width="443"/>
  <unicode hex="00BA"/>
  <outline>
    <contour>
      <point x="168" y="570" type="line" smooth="yes"/>
      <point x="168" y="600" type="line" smooth="yes"/>
      <point x="171" y="633" type="line" smooth="yes"/>
      <point x="181" y="656" type="line" smooth="yes"/>
      <point x="197" y="671" type="line" smooth="yes"/>
      <point x="221" y="676" type="line" smooth="yes"/>
      <point x="245" y="671" type="line" smooth="yes"/>
      <point x="262" y="656" type="line" smooth="yes"/>
      <point x="272" y="633" type="line" smooth="yes"/>
      <point x="275" y="600" type="line" smooth="yes"/>
      <point x="275" y="570" type="line" smooth="yes"/>
      <point x="272" y="538" type="line" smooth="yes"/>
      <point x="262" y="515" type="line" smooth="yes"/>
      <point x="245" y="500" type="line" smooth="yes"/>
      <point x="221" y="495" type="line" smooth="yes"/>
      <point x="197" y="500" type="line" smooth="yes"/>
      <point x="181" y="515" type="line" smooth="yes"/>
      <point x="171" y="538" type="line" smooth="yes"/>
    </contour>
    <contour>
      <point x="40" y="181" type="line" smooth="yes"/>
      <point x="403" y="181" type="line" smooth="yes"/>
      <point x="403" y="300" type="line" smooth="yes"/>
      <point x="40" y="300" type="line" smooth="yes"/>
    </contour>
    <contour>
      <point x="412" y="570" type="line" smooth="yes"/>
      <point x="412" y="600" type="line" smooth="yes"/>
      <point x="401" y="679" type="line" smooth="yes"/>
      <point x="366" y="741" type="line" smooth="yes"/>
      <point x="306" y="780" type="line" smooth="yes"/>
      <point x="221" y="794" type="line" smooth="yes"/>
      <point x="136" y="780" type="line" smooth="yes"/>
      <point x="77" y="741" type="line" smooth="yes"/>
      <point x="42" y="679" type="line" smooth="yes"/>
      <point x="31" y="600" type="line" smooth="yes"/>
      <point x="31" y="570" type="line" smooth="yes"/>
      <point x="42" y="491" type="line" smooth="yes"/>
      <point x="77" y="430" type="line" smooth="yes"/>
      <point x="136" y="391" type="line" smooth="yes"/>
      <point x="221" y="377" type="line" smooth="yes"/>
      <point x="306" y="391" type="line" smooth="yes"/>
      <point x="366" y="430" type="line" smooth="yes"/>
      <point x="401" y="491" type="line" smooth="yes"/>
    </contour>
  </outline>
</glyph>
