<?xml version="1.0" encoding="UTF-8"?>
<glyph name="percent" format="1">
  <advance width="981"/>
  <unicode hex="0025"/>
  <outline>
    <contour>
      <point x="289" y="605" type="line" smooth="yes"/>
      <point x="289" y="592" type="line" smooth="yes"/>
      <point x="284" y="563" type="line" smooth="yes"/>
      <point x="270" y="541" type="line" smooth="yes"/>
      <point x="249" y="527" type="line" smooth="yes"/>
      <point x="220" y="522" type="line" smooth="yes"/>
      <point x="214" y="522" type="line" smooth="yes"/>
      <point x="185" y="527" type="line" smooth="yes"/>
      <point x="163" y="541" type="line" smooth="yes"/>
      <point x="149" y="563" type="line" smooth="yes"/>
      <point x="144" y="592" type="line" smooth="yes"/>
      <point x="144" y="605" type="line" smooth="yes"/>
      <point x="149" y="634" type="line" smooth="yes"/>
      <point x="163" y="656" type="line" smooth="yes"/>
      <point x="185" y="671" type="line" smooth="yes"/>
      <point x="214" y="676" type="line" smooth="yes"/>
      <point x="220" y="676" type="line" smooth="yes"/>
      <point x="249" y="671" type="line" smooth="yes"/>
      <point x="270" y="656" type="line" smooth="yes"/>
      <point x="284" y="634" type="line" smooth="yes"/>
    </contour>
    <contour>
      <point x="692" y="175" type="line" smooth="yes"/>
      <point x="692" y="188" type="line" smooth="yes"/>
      <point x="697" y="217" type="line" smooth="yes"/>
      <point x="711" y="239" type="line" smooth="yes"/>
      <point x="733" y="253" type="line" smooth="yes"/>
      <point x="762" y="258" type="line" smooth="yes"/>
      <point x="768" y="258" type="line" smooth="yes"/>
      <point x="797" y="253" type="line" smooth="yes"/>
      <point x="818" y="239" type="line" smooth="yes"/>
      <point x="832" y="217" type="line" smooth="yes"/>
      <point x="837" y="188" type="line" smooth="yes"/>
      <point x="837" y="175" type="line" smooth="yes"/>
      <point x="832" y="146" type="line" smooth="yes"/>
      <point x="818" y="124" type="line" smooth="yes"/>
      <point x="797" y="109" type="line" smooth="yes"/>
      <point x="768" y="104" type="line" smooth="yes"/>
      <point x="762" y="104" type="line" smooth="yes"/>
      <point x="733" y="109" type="line" smooth="yes"/>
      <point x="711" y="124" type="line" smooth="yes"/>
      <point x="697" y="146" type="line" smooth="yes"/>
    </contour>
    <contour>
      <point x="575" y="187" type="line" smooth="yes"/>
      <point x="575" y="175" type="line" smooth="yes"/>
      <point x="589" y="94" type="line" smooth="yes"/>
      <point x="629" y="35" type="line" smooth="yes"/>
      <point x="689" y="-1" type="line" smooth="yes"/>
      <point x="765" y="-13" type="line" smooth="yes"/>
      <point x="841" y="-1" type="line" smooth="yes"/>
      <point x="900" y="35" type="line" smooth="yes"/>
      <point x="940" y="94" type="line" smooth="yes"/>
      <point x="954" y="175" type="line" smooth="yes"/>
      <point x="954" y="187" type="line" smooth="yes"/>
      <point x="940" y="268" type="line" smooth="yes"/>
      <point x="900" y="327" type="line" smooth="yes"/>
      <point x="841" y="364" type="line" smooth="yes"/>
      <point x="765" y="376" type="line" smooth="yes"/>
      <point x="689" y="364" type="line" smooth="yes"/>
      <point x="629" y="327" type="line" smooth="yes"/>
      <point x="589" y="268" type="line" smooth="yes"/>
    </contour>
    <contour>
      <point x="296" y="779" type="line" smooth="yes"/>
      <point x="277" y="785" type="line" smooth="yes"/>
      <point x="258" y="789" type="line" smooth="yes"/>
      <point x="238" y="792" type="line" smooth="yes"/>
      <point x="217" y="793" type="line" smooth="yes"/>
      <point x="141" y="781" type="line" smooth="yes"/>
      <point x="81" y="745" type="line" smooth="yes"/>
      <point x="41" y="686" type="line" smooth="yes"/>
      <point x="27" y="605" type="line" smooth="yes"/>
      <point x="27" y="593" type="line" smooth="yes"/>
      <point x="41" y="512" type="line" smooth="yes"/>
      <point x="81" y="453" type="line" smooth="yes"/>
      <point x="141" y="416" type="line" smooth="yes"/>
      <point x="217" y="404" type="line" smooth="yes"/>
      <point x="293" y="416" type="line" smooth="yes"/>
      <point x="352" y="453" type="line" smooth="yes"/>
      <point x="392" y="512" type="line" smooth="yes"/>
      <point x="406" y="593" type="line" smooth="yes"/>
      <point x="406" y="605" type="line" smooth="yes"/>
      <point x="406" y="611" type="line" smooth="yes"/>
      <point x="406" y="617" type="line" smooth="yes"/>
      <point x="405" y="623" type="line" smooth="yes"/>
      <point x="405" y="628" type="line" smooth="yes"/>
      <point x="416" y="627" type="line" smooth="yes"/>
      <point x="428" y="626" type="line" smooth="yes"/>
      <point x="440" y="625" type="line" smooth="yes"/>
      <point x="452" y="625" type="line" smooth="yes"/>
      <point x="475" y="626" type="line" smooth="yes"/>
      <point x="494" y="628" type="line" smooth="yes"/>
      <point x="511" y="630" type="line" smooth="yes"/>
      <point x="523" y="633" type="line" smooth="yes"/>
      <point x="259" y="0" type="line" smooth="yes"/>
      <point x="397" y="0" type="line" smooth="yes"/>
      <point x="692" y="708" type="line" smooth="yes"/>
      <point x="692" y="783" type="line" smooth="yes"/>
      <point x="658" y="773" type="line" smooth="yes"/>
      <point x="608" y="763" type="line" smooth="yes"/>
      <point x="547" y="754" type="line" smooth="yes"/>
      <point x="481" y="751" type="line" smooth="yes"/>
      <point x="425" y="752" type="line" smooth="yes"/>
      <point x="378" y="757" type="line" smooth="yes"/>
      <point x="337" y="766" type="line" smooth="yes"/>
    </contour>
  </outline>
</glyph>
