<?xml version="1.0" encoding="UTF-8"?>
<glyph name="uni2076" format="1">
  <advance width="300"/>
  <unicode hex="2076"/>
  <outline>
    <contour>
      <point x="148" y="533" type="line" smooth="yes"/>
      <point x="152" y="533" type="line" smooth="yes"/>
      <point x="158" y="532" type="line" smooth="yes"/>
      <point x="163" y="528" type="line" smooth="yes"/>
      <point x="167" y="521" type="line" smooth="yes"/>
      <point x="169" y="511" type="line" smooth="yes"/>
      <point x="169" y="506" type="line" smooth="yes"/>
      <point x="167" y="495" type="line" smooth="yes"/>
      <point x="163" y="488" type="line" smooth="yes"/>
      <point x="158" y="483" type="line" smooth="yes"/>
      <point x="152" y="481" type="line" smooth="yes"/>
      <point x="148" y="481" type="line" smooth="yes"/>
      <point x="142" y="483" type="line" smooth="yes"/>
      <point x="137" y="489" type="line" smooth="yes"/>
      <point x="133" y="501" type="line" smooth="yes"/>
      <point x="131" y="520" type="line" smooth="yes"/>
      <point x="131" y="522" type="line" smooth="yes"/>
      <point x="135" y="527" type="line" smooth="yes"/>
      <point x="139" y="530" type="line" smooth="yes"/>
      <point x="143" y="532" type="line" smooth="yes"/>
    </contour>
    <contour>
      <point x="278" y="793" type="line" smooth="yes"/>
      <point x="212" y="789" type="line" smooth="yes"/>
      <point x="155" y="777" type="line" smooth="yes"/>
      <point x="107" y="755" type="line" smooth="yes"/>
      <point x="68" y="719" type="line" smooth="yes"/>
      <point x="41" y="677" type="line" smooth="yes"/>
      <point x="23" y="634" type="line" smooth="yes"/>
      <point x="14" y="588" type="line" smooth="yes"/>
      <point x="11" y="542" type="line" smooth="yes"/>
      <point x="11" y="533" type="line" smooth="yes"/>
      <point x="19" y="474" type="line" smooth="yes"/>
      <point x="44" y="424" type="line" smooth="yes"/>
      <point x="87" y="390" type="line" smooth="yes"/>
      <point x="149" y="377" type="line" smooth="yes"/>
      <point x="212" y="387" type="line" smooth="yes"/>
      <point x="255" y="415" type="line" smooth="yes"/>
      <point x="280" y="457" type="line" smooth="yes"/>
      <point x="288" y="508" type="line" smooth="yes"/>
      <point x="288" y="513" type="line" smooth="yes"/>
      <point x="281" y="565" type="line" smooth="yes"/>
      <point x="260" y="604" type="line" smooth="yes"/>
      <point x="228" y="628" type="line" smooth="yes"/>
      <point x="186" y="636" type="line" smooth="yes"/>
      <point x="174" y="635" type="line" smooth="yes"/>
      <point x="162" y="633" type="line" smooth="yes"/>
      <point x="151" y="628" type="line" smooth="yes"/>
      <point x="141" y="623" type="line" smooth="yes"/>
      <point x="145" y="632" type="line" smooth="yes"/>
      <point x="149" y="640" type="line" smooth="yes"/>
      <point x="154" y="648" type="line" smooth="yes"/>
      <point x="159" y="654" type="line" smooth="yes"/>
      <point x="179" y="669" type="line" smooth="yes"/>
      <point x="205" y="680" type="line" smooth="yes"/>
      <point x="238" y="687" type="line" smooth="yes"/>
      <point x="278" y="689" type="line" smooth="yes"/>
    </contour>
  </outline>
</glyph>
