<?xml version="1.0" encoding="UTF-8"?>
<glyph name="uni2159" format="1">
  <advance width="800"/>
  <unicode hex="2159"/>
  <outline>
    <contour>
      <point x="648" y="143" type="line" smooth="yes"/>
      <point x="652" y="143" type="line" smooth="yes"/>
      <point x="658" y="142" type="line" smooth="yes"/>
      <point x="663" y="138" type="line" smooth="yes"/>
      <point x="667" y="131" type="line" smooth="yes"/>
      <point x="669" y="121" type="line" smooth="yes"/>
      <point x="669" y="116" type="line" smooth="yes"/>
      <point x="667" y="105" type="line" smooth="yes"/>
      <point x="663" y="98" type="line" smooth="yes"/>
      <point x="658" y="93" type="line" smooth="yes"/>
      <point x="652" y="91" type="line" smooth="yes"/>
      <point x="648" y="91" type="line" smooth="yes"/>
      <point x="642" y="93" type="line" smooth="yes"/>
      <point x="637" y="99" type="line" smooth="yes"/>
      <point x="633" y="111" type="line" smooth="yes"/>
      <point x="631" y="130" type="line" smooth="yes"/>
      <point x="631" y="132" type="line" smooth="yes"/>
      <point x="635" y="137" type="line" smooth="yes"/>
      <point x="639" y="140" type="line" smooth="yes"/>
      <point x="643" y="142" type="line" smooth="yes"/>
    </contour>
    <contour>
      <point x="290" y="390" type="line" smooth="yes"/>
      <point x="290" y="493" type="line" smooth="yes"/>
      <point x="219" y="493" type="line" smooth="yes"/>
      <point x="219" y="781" type="line" smooth="yes"/>
      <point x="129" y="781" type="line" smooth="yes"/>
      <point x="5" y="697" type="line" smooth="yes"/>
      <point x="64" y="612" type="line" smooth="yes"/>
      <point x="99" y="635" type="line" smooth="yes"/>
      <point x="99" y="493" type="line" smooth="yes"/>
      <point x="27" y="493" type="line" smooth="yes"/>
      <point x="27" y="390" type="line" smooth="yes"/>
    </contour>
    <contour>
      <point x="778" y="403" type="line" smooth="yes"/>
      <point x="712" y="399" type="line" smooth="yes"/>
      <point x="655" y="387" type="line" smooth="yes"/>
      <point x="607" y="365" type="line" smooth="yes"/>
      <point x="568" y="329" type="line" smooth="yes"/>
      <point x="541" y="287" type="line" smooth="yes"/>
      <point x="523" y="244" type="line" smooth="yes"/>
      <point x="514" y="198" type="line" smooth="yes"/>
      <point x="511" y="152" type="line" smooth="yes"/>
      <point x="511" y="143" type="line" smooth="yes"/>
      <point x="519" y="84" type="line" smooth="yes"/>
      <point x="544" y="34" type="line" smooth="yes"/>
      <point x="587" y="-0" type="line" smooth="yes"/>
      <point x="649" y="-13" type="line" smooth="yes"/>
      <point x="712" y="-3" type="line" smooth="yes"/>
      <point x="755" y="25" type="line" smooth="yes"/>
      <point x="780" y="67" type="line" smooth="yes"/>
      <point x="788" y="118" type="line" smooth="yes"/>
      <point x="788" y="123" type="line" smooth="yes"/>
      <point x="781" y="175" type="line" smooth="yes"/>
      <point x="760" y="214" type="line" smooth="yes"/>
      <point x="728" y="238" type="line" smooth="yes"/>
      <point x="686" y="246" type="line" smooth="yes"/>
      <point x="674" y="245" type="line" smooth="yes"/>
      <point x="662" y="243" type="line" smooth="yes"/>
      <point x="651" y="238" type="line" smooth="yes"/>
      <point x="641" y="233" type="line" smooth="yes"/>
      <point x="645" y="242" type="line" smooth="yes"/>
      <point x="649" y="250" type="line" smooth="yes"/>
      <point x="654" y="258" type="line" smooth="yes"/>
      <point x="659" y="264" type="line" smooth="yes"/>
      <point x="679" y="279" type="line" smooth="yes"/>
      <point x="705" y="290" type="line" smooth="yes"/>
      <point x="738" y="297" type="line" smooth="yes"/>
      <point x="778" y="299" type="line" smooth="yes"/>
    </contour>
    <contour>
      <point x="179" y="0" type="line" smooth="yes"/>
      <point x="755" y="780" type="line" smooth="yes"/>
      <point x="621" y="780" type="line" smooth="yes"/>
      <point x="45" y="0" type="line" smooth="yes"/>
    </contour>
  </outline>
</glyph>
