<?xml version="1.0" encoding="UTF-8"?>
<glyph name="Zdotaccent" format="1">
  <advance width="599"/>
  <unicode hex="017B"/>
  <outline>
    <contour>
      <point x="40" y="111" type="line" smooth="yes"/>
      <point x="40" y="0" type="line" smooth="yes"/>
      <point x="559" y="0" type="line" smooth="yes"/>
      <point x="559" y="140" type="line" smooth="yes"/>
      <point x="381" y="140" type="line" smooth="yes"/>
      <point x="238" y="137" type="line" smooth="yes"/>
      <point x="549" y="669" type="line" smooth="yes"/>
      <point x="549" y="780" type="line" smooth="yes"/>
      <point x="50" y="780" type="line" smooth="yes"/>
      <point x="50" y="640" type="line" smooth="yes"/>
      <point x="208" y="640" type="line" smooth="yes"/>
      <point x="351" y="643" type="line" smooth="yes"/>
    </contour>
    <contour>
      <point x="366" y="945" type="line" smooth="yes"/>
      <point x="232" y="945" type="line" smooth="yes"/>
      <point x="232" y="845" type="line" smooth="yes"/>
      <point x="366" y="845" type="line" smooth="yes"/>
    </contour>
  </outline>
</glyph>
