<?xml version="1.0" encoding="UTF-8"?>
<glyph name="less" format="1">
  <advance width="600"/>
  <unicode hex="003C"/>
  <outline>
    <contour>
      <point x="53" y="454" type="line" smooth="yes"/>
      <point x="36" y="326" type="line" smooth="yes"/>
      <point x="520" y="111" type="line" smooth="yes"/>
      <point x="536" y="237" type="line" smooth="yes"/>
      <point x="184" y="386" type="line" smooth="yes"/>
      <point x="575" y="535" type="line" smooth="yes"/>
      <point x="593" y="669" type="line" smooth="yes"/>
    </contour>
  </outline>
</glyph>
