<?xml version="1.0" encoding="UTF-8"?>
<glyph name="pdotaccent" format="1">
  <advance width="559"/>
  <unicode hex="1E57"/>
  <outline>
    <contour>
      <point x="254" y="100" type="line" smooth="yes"/>
      <point x="218" y="106" type="line" smooth="yes"/>
      <point x="191" y="122" type="line" smooth="yes"/>
      <point x="171" y="142" type="line" smooth="yes"/>
      <point x="159" y="163" type="line" smooth="yes"/>
      <point x="186" y="371" type="line" smooth="yes"/>
      <point x="203" y="390" type="line" smooth="yes"/>
      <point x="227" y="410" type="line" smooth="yes"/>
      <point x="257" y="424" type="line" smooth="yes"/>
      <point x="294" y="430" type="line" smooth="yes"/>
      <point x="341" y="419" type="line" smooth="yes"/>
      <point x="372" y="387" type="line" smooth="yes"/>
      <point x="387" y="338" type="line" smooth="yes"/>
      <point x="385" y="274" type="line" smooth="yes"/>
      <point x="382" y="252" type="line" smooth="yes"/>
      <point x="367" y="189" type="line" smooth="yes"/>
      <point x="341" y="141" type="line" smooth="yes"/>
      <point x="303" y="111" type="line" smooth="yes"/>
    </contour>
    <contour>
      <point x="344" y="543" type="line" smooth="yes"/>
      <point x="295" y="537" type="line" smooth="yes"/>
      <point x="251" y="520" type="line" smooth="yes"/>
      <point x="213" y="494" type="line" smooth="yes"/>
      <point x="183" y="461" type="line" smooth="yes"/>
      <point x="183" y="530" type="line" smooth="yes"/>
      <point x="68" y="530" type="line" smooth="yes"/>
      <point x="58" y="380" type="line" smooth="yes"/>
      <point x="-19" y="-200" type="line" smooth="yes"/>
      <point x="111" y="-200" type="line" smooth="yes"/>
      <point x="144" y="52" type="line" smooth="yes"/>
      <point x="163" y="30" type="line" smooth="yes"/>
      <point x="192" y="9" type="line" smooth="yes"/>
      <point x="231" y="-7" type="line" smooth="yes"/>
      <point x="284" y="-13" type="line" smooth="yes"/>
      <point x="375" y="7" type="line" smooth="yes"/>
      <point x="442" y="63" type="line" smooth="yes"/>
      <point x="486" y="147" type="line" smooth="yes"/>
      <point x="511" y="253" type="line" smooth="yes"/>
      <point x="514" y="275" type="line" smooth="yes"/>
      <point x="515" y="383" type="line" smooth="yes"/>
      <point x="487" y="468" type="line" smooth="yes"/>
      <point x="430" y="523" type="line" smooth="yes"/>
    </contour>
    <contour>
      <point x="412" y="763" type="line" smooth="yes"/>
      <point x="270" y="763" type="line" smooth="yes"/>
      <point x="251" y="622" type="line" smooth="yes"/>
      <point x="393" y="622" type="line" smooth="yes"/>
    </contour>
  </outline>
</glyph>
