<?xml version="1.0" encoding="UTF-8"?>
<glyph name="Racute" format="1">
  <advance width="608"/>
  <unicode hex="0154"/>
  <outline>
    <contour>
      <point x="199" y="408" type="line" smooth="yes"/>
      <point x="233" y="663" type="line" smooth="yes"/>
      <point x="347" y="663" type="line" smooth="yes"/>
      <point x="392" y="658" type="line" smooth="yes"/>
      <point x="428" y="640" type="line" smooth="yes"/>
      <point x="450" y="602" type="line" smooth="yes"/>
      <point x="452" y="540" type="line" smooth="yes"/>
      <point x="451" y="532" type="line" smooth="yes"/>
      <point x="435" y="473" type="line" smooth="yes"/>
      <point x="407" y="434" type="line" smooth="yes"/>
      <point x="367" y="414" type="line" smooth="yes"/>
      <point x="316" y="408" type="line" smooth="yes"/>
    </contour>
    <contour>
      <point x="184" y="291" type="line" smooth="yes"/>
      <point x="299" y="291" type="line" smooth="yes"/>
      <point x="372" y="0" type="line" smooth="yes"/>
      <point x="517" y="0" type="line" smooth="yes"/>
      <point x="432" y="312" type="line" smooth="yes"/>
      <point x="485" y="340" type="line" smooth="yes"/>
      <point x="530" y="383" type="line" smooth="yes"/>
      <point x="565" y="443" type="line" smooth="yes"/>
      <point x="586" y="525" type="line" smooth="yes"/>
      <point x="589" y="547" type="line" smooth="yes"/>
      <point x="580" y="661" type="line" smooth="yes"/>
      <point x="525" y="732" type="line" smooth="yes"/>
      <point x="443" y="769" type="line" smooth="yes"/>
      <point x="350" y="780" type="line" smooth="yes"/>
      <point x="114" y="780" type="line" smooth="yes"/>
      <point x="12" y="0" type="line" smooth="yes"/>
      <point x="146" y="0" type="line" smooth="yes"/>
    </contour>
    <contour>
      <point x="357" y="950" type="line" smooth="yes"/>
      <point x="286" y="840" type="line" smooth="yes"/>
      <point x="416" y="840" type="line" smooth="yes"/>
      <point x="494" y="950" type="line" smooth="yes"/>
    </contour>
  </outline>
</glyph>
