<?xml version="1.0" encoding="UTF-8"?>
<glyph name="semicolon" format="1">
  <advance width="250"/>
  <unicode hex="003B"/>
  <outline>
    <contour>
      <point x="166" y="141" type="line" smooth="yes"/>
      <point x="24" y="141" type="line" smooth="yes"/>
      <point x="5" y="0" type="line" smooth="yes"/>
      <point x="77" y="0" type="line" smooth="yes"/>
      <point x="63" y="-30" type="line" smooth="yes"/>
      <point x="43" y="-51" type="line" smooth="yes"/>
      <point x="17" y="-63" type="line" smooth="yes"/>
      <point x="-15" y="-67" type="line" smooth="yes"/>
      <point x="-24" y="-135" type="line" smooth="yes"/>
      <point x="44" y="-125" type="line" smooth="yes"/>
      <point x="96" y="-94" type="line" smooth="yes"/>
      <point x="132" y="-42" type="line" smooth="yes"/>
      <point x="151" y="30" type="line" smooth="yes"/>
    </contour>
    <contour>
      <point x="207" y="460" type="line" smooth="yes"/>
      <point x="65" y="460" type="line" smooth="yes"/>
      <point x="46" y="319" type="line" smooth="yes"/>
      <point x="188" y="319" type="line" smooth="yes"/>
    </contour>
  </outline>
</glyph>
