<?xml version="1.0" encoding="UTF-8"?>
<glyph name="uni2155" format="1">
  <advance width="800"/>
  <unicode hex="2155"/>
  <outline>
    <contour>
      <point x="484" y="125" type="line" smooth="yes"/>
      <point x="483" y="116" type="line" smooth="yes"/>
      <point x="486" y="62" type="line" smooth="yes"/>
      <point x="508" y="24" type="line" smooth="yes"/>
      <point x="548" y="1" type="line" smooth="yes"/>
      <point x="606" y="-7" type="line" smooth="yes"/>
      <point x="664" y="2" type="line" smooth="yes"/>
      <point x="707" y="28" type="line" smooth="yes"/>
      <point x="735" y="67" type="line" smooth="yes"/>
      <point x="748" y="119" type="line" smooth="yes"/>
      <point x="749" y="128" type="line" smooth="yes"/>
      <point x="747" y="180" type="line" smooth="yes"/>
      <point x="729" y="220" type="line" smooth="yes"/>
      <point x="694" y="246" type="line" smooth="yes"/>
      <point x="645" y="255" type="line" smooth="yes"/>
      <point x="626" y="254" type="line" smooth="yes"/>
      <point x="611" y="251" type="line" smooth="yes"/>
      <point x="597" y="247" type="line" smooth="yes"/>
      <point x="586" y="240" type="line" smooth="yes"/>
      <point x="598" y="309" type="line" smooth="yes"/>
      <point x="768" y="309" type="line" smooth="yes"/>
      <point x="779" y="390" type="line" smooth="yes"/>
      <point x="531" y="390" type="line" smooth="yes"/>
      <point x="494" y="177" type="line" smooth="yes"/>
      <point x="570" y="150" type="line" smooth="yes"/>
      <point x="580" y="161" type="line" smooth="yes"/>
      <point x="592" y="168" type="line" smooth="yes"/>
      <point x="604" y="173" type="line" smooth="yes"/>
      <point x="617" y="174" type="line" smooth="yes"/>
      <point x="623" y="174" type="line" smooth="yes"/>
      <point x="638" y="171" type="line" smooth="yes"/>
      <point x="649" y="163" type="line" smooth="yes"/>
      <point x="655" y="148" type="line" smooth="yes"/>
      <point x="656" y="128" type="line" smooth="yes"/>
      <point x="655" y="119" type="line" smooth="yes"/>
      <point x="650" y="97" type="line" smooth="yes"/>
      <point x="641" y="83" type="line" smooth="yes"/>
      <point x="628" y="76" type="line" smooth="yes"/>
      <point x="614" y="74" type="line" smooth="yes"/>
      <point x="609" y="74" type="line" smooth="yes"/>
      <point x="595" y="76" type="line" smooth="yes"/>
      <point x="584" y="85" type="line" smooth="yes"/>
      <point x="577" y="100" type="line" smooth="yes"/>
      <point x="577" y="125" type="line" smooth="yes"/>
    </contour>
    <contour>
      <point x="113" y="0" type="line" smooth="yes"/>
      <point x="791" y="780" type="line" smooth="yes"/>
      <point x="691" y="780" type="line" smooth="yes"/>
      <point x="13" y="0" type="line" smooth="yes"/>
    </contour>
    <contour>
      <point x="283" y="392" type="line" smooth="yes"/>
      <point x="293" y="473" type="line" smooth="yes"/>
      <point x="212" y="473" type="line" smooth="yes"/>
      <point x="253" y="782" type="line" smooth="yes"/>
      <point x="183" y="782" type="line" smooth="yes"/>
      <point x="50" y="699" type="line" smooth="yes"/>
      <point x="87" y="632" type="line" smooth="yes"/>
      <point x="145" y="668" type="line" smooth="yes"/>
      <point x="119" y="473" type="line" smooth="yes"/>
      <point x="38" y="473" type="line" smooth="yes"/>
      <point x="28" y="392" type="line" smooth="yes"/>
    </contour>
  </outline>
</glyph>
