<?xml version="1.0" encoding="UTF-8"?>
<glyph name="uni215E" format="1">
  <advance width="800"/>
  <unicode hex="215E"/>
  <outline>
    <contour>
      <point x="629" y="239" type="line" smooth="yes"/>
      <point x="615" y="242" type="line" smooth="yes"/>
      <point x="605" y="249" type="line" smooth="yes"/>
      <point x="600" y="260" type="line" smooth="yes"/>
      <point x="599" y="273" type="line" smooth="yes"/>
      <point x="600" y="282" type="line" smooth="yes"/>
      <point x="604" y="297" type="line" smooth="yes"/>
      <point x="612" y="308" type="line" smooth="yes"/>
      <point x="624" y="314" type="line" smooth="yes"/>
      <point x="638" y="316" type="line" smooth="yes"/>
      <point x="643" y="316" type="line" smooth="yes"/>
      <point x="655" y="314" type="line" smooth="yes"/>
      <point x="666" y="308" type="line" smooth="yes"/>
      <point x="672" y="297" type="line" smooth="yes"/>
      <point x="674" y="283" type="line" smooth="yes"/>
      <point x="673" y="274" type="line" smooth="yes"/>
      <point x="669" y="259" type="line" smooth="yes"/>
      <point x="661" y="248" type="line" smooth="yes"/>
      <point x="649" y="241" type="line" smooth="yes"/>
      <point x="633" y="239" type="line" smooth="yes"/>
    </contour>
    <contour>
      <point x="622" y="158" type="line" smooth="yes"/>
      <point x="638" y="156" type="line" smooth="yes"/>
      <point x="649" y="149" type="line" smooth="yes"/>
      <point x="654" y="137" type="line" smooth="yes"/>
      <point x="655" y="121" type="line" smooth="yes"/>
      <point x="654" y="112" type="line" smooth="yes"/>
      <point x="649" y="95" type="line" smooth="yes"/>
      <point x="640" y="83" type="line" smooth="yes"/>
      <point x="628" y="76" type="line" smooth="yes"/>
      <point x="614" y="74" type="line" smooth="yes"/>
      <point x="609" y="74" type="line" smooth="yes"/>
      <point x="594" y="76" type="line" smooth="yes"/>
      <point x="582" y="83" type="line" smooth="yes"/>
      <point x="576" y="95" type="line" smooth="yes"/>
      <point x="575" y="111" type="line" smooth="yes"/>
      <point x="576" y="120" type="line" smooth="yes"/>
      <point x="581" y="137" type="line" smooth="yes"/>
      <point x="590" y="149" type="line" smooth="yes"/>
      <point x="603" y="156" type="line" smooth="yes"/>
      <point x="617" y="158" type="line" smooth="yes"/>
    </contour>
    <contour>
      <point x="607" y="-7" type="line" smooth="yes"/>
      <point x="669" y="4" type="line" smooth="yes"/>
      <point x="711" y="30" type="line" smooth="yes"/>
      <point x="736" y="65" type="line" smooth="yes"/>
      <point x="746" y="101" type="line" smooth="yes"/>
      <point x="747" y="110" type="line" smooth="yes"/>
      <point x="747" y="140" type="line" smooth="yes"/>
      <point x="741" y="166" type="line" smooth="yes"/>
      <point x="730" y="186" type="line" smooth="yes"/>
      <point x="714" y="199" type="line" smooth="yes"/>
      <point x="733" y="211" type="line" smooth="yes"/>
      <point x="749" y="228" type="line" smooth="yes"/>
      <point x="761" y="250" type="line" smooth="yes"/>
      <point x="767" y="277" type="line" smooth="yes"/>
      <point x="768" y="286" type="line" smooth="yes"/>
      <point x="766" y="321" type="line" smooth="yes"/>
      <point x="748" y="358" type="line" smooth="yes"/>
      <point x="710" y="386" type="line" smooth="yes"/>
      <point x="647" y="397" type="line" smooth="yes"/>
      <point x="584" y="387" type="line" smooth="yes"/>
      <point x="542" y="361" type="line" smooth="yes"/>
      <point x="518" y="327" type="line" smooth="yes"/>
      <point x="508" y="292" type="line" smooth="yes"/>
      <point x="507" y="283" type="line" smooth="yes"/>
      <point x="508" y="256" type="line" smooth="yes"/>
      <point x="514" y="232" type="line" smooth="yes"/>
      <point x="525" y="213" type="line" smooth="yes"/>
      <point x="538" y="199" type="line" smooth="yes"/>
      <point x="518" y="186" type="line" smooth="yes"/>
      <point x="502" y="167" type="line" smooth="yes"/>
      <point x="490" y="143" type="line" smooth="yes"/>
      <point x="483" y="114" type="line" smooth="yes"/>
      <point x="482" y="105" type="line" smooth="yes"/>
      <point x="485" y="66" type="line" smooth="yes"/>
      <point x="505" y="30" type="line" smooth="yes"/>
      <point x="545" y="3" type="line" smooth="yes"/>
    </contour>
    <contour>
      <point x="113" y="0" type="line" smooth="yes"/>
      <point x="791" y="780" type="line" smooth="yes"/>
      <point x="691" y="780" type="line" smooth="yes"/>
      <point x="13" y="0" type="line" smooth="yes"/>
    </contour>
    <contour>
      <point x="48" y="642" type="line" smooth="yes"/>
      <point x="130" y="642" type="line" smooth="yes"/>
      <point x="137" y="701" type="line" smooth="yes"/>
      <point x="177" y="701" type="line" smooth="yes"/>
      <point x="222" y="702" type="line" smooth="yes"/>
      <point x="51" y="392" type="line" smooth="yes"/>
      <point x="150" y="392" type="line" smooth="yes"/>
      <point x="329" y="724" type="line" smooth="yes"/>
      <point x="336" y="782" type="line" smooth="yes"/>
      <point x="66" y="782" type="line" smooth="yes"/>
    </contour>
  </outline>
</glyph>
