<?xml version="1.0" encoding="UTF-8"?>
<glyph name="uni2070" format="1">
  <advance width="299"/>
  <unicode hex="2070"/>
  <outline>
    <contour>
      <point x="201" y="502" type="line" smooth="yes"/>
      <point x="197" y="487" type="line" smooth="yes"/>
      <point x="189" y="475" type="line" smooth="yes"/>
      <point x="177" y="468" type="line" smooth="yes"/>
      <point x="161" y="466" type="line" smooth="yes"/>
      <point x="159" y="466" type="line" smooth="yes"/>
      <point x="144" y="469" type="line" smooth="yes"/>
      <point x="133" y="476" type="line" smooth="yes"/>
      <point x="128" y="488" type="line" smooth="yes"/>
      <point x="127" y="502" type="line" smooth="yes"/>
      <point x="150" y="672" type="line" smooth="yes"/>
      <point x="154" y="687" type="line" smooth="yes"/>
      <point x="162" y="698" type="line" smooth="yes"/>
      <point x="174" y="705" type="line" smooth="yes"/>
      <point x="190" y="708" type="line" smooth="yes"/>
      <point x="192" y="708" type="line" smooth="yes"/>
      <point x="207" y="705" type="line" smooth="yes"/>
      <point x="218" y="698" type="line" smooth="yes"/>
      <point x="224" y="686" type="line" smooth="yes"/>
      <point x="224" y="672" type="line" smooth="yes"/>
    </contour>
    <contour>
      <point x="317" y="672" type="line" smooth="yes"/>
      <point x="314" y="719" type="line" smooth="yes"/>
      <point x="292" y="756" type="line" smooth="yes"/>
      <point x="252" y="780" type="line" smooth="yes"/>
      <point x="197" y="789" type="line" smooth="yes"/>
      <point x="140" y="781" type="line" smooth="yes"/>
      <point x="98" y="757" type="line" smooth="yes"/>
      <point x="70" y="720" type="line" smooth="yes"/>
      <point x="57" y="672" type="line" smooth="yes"/>
      <point x="34" y="502" type="line" smooth="yes"/>
      <point x="37" y="455" type="line" smooth="yes"/>
      <point x="59" y="418" type="line" smooth="yes"/>
      <point x="99" y="394" type="line" smooth="yes"/>
      <point x="154" y="385" type="line" smooth="yes"/>
      <point x="211" y="393" type="line" smooth="yes"/>
      <point x="253" y="417" type="line" smooth="yes"/>
      <point x="281" y="454" type="line" smooth="yes"/>
      <point x="294" y="502" type="line" smooth="yes"/>
    </contour>
  </outline>
</glyph>
