<?xml version="1.0" encoding="UTF-8"?>
<glyph name="uni2015" format="1">
  <advance width="1200"/>
  <unicode hex="2015"/>
  <outline>
    <contour>
      <point x="29" y="293" type="line" smooth="yes"/>
      <point x="1149" y="293" type="line" smooth="yes"/>
      <point x="1164" y="407" type="line" smooth="yes"/>
      <point x="44" y="407" type="line" smooth="yes"/>
    </contour>
  </outline>
</glyph>
