<?xml version="1.0" encoding="UTF-8"?>
<glyph name="Wgrave" format="1">
  <advance width="924"/>
  <unicode hex="1E80"/>
  <outline>
    <contour>
      <point x="541" y="-4" type="line" smooth="yes"/>
      <point x="714" y="-4" type="line" smooth="yes"/>
      <point x="951" y="780" type="line" smooth="yes"/>
      <point x="813" y="780" type="line" smooth="yes"/>
      <point x="644" y="176" type="line" smooth="yes"/>
      <point x="601" y="780" type="line" smooth="yes"/>
      <point x="429" y="780" type="line" smooth="yes"/>
      <point x="227" y="176" type="line" smooth="yes"/>
      <point x="218" y="780" type="line" smooth="yes"/>
      <point x="79" y="780" type="line" smooth="yes"/>
      <point x="110" y="-4" type="line" smooth="yes"/>
      <point x="285" y="-4" type="line" smooth="yes"/>
      <point x="496" y="628" type="line" smooth="yes"/>
    </contour>
    <contour>
      <point x="410" y="950" type="line" smooth="yes"/>
      <point x="458" y="840" type="line" smooth="yes"/>
      <point x="588" y="840" type="line" smooth="yes"/>
      <point x="547" y="950" type="line" smooth="yes"/>
    </contour>
  </outline>
</glyph>
