<?xml version="1.0" encoding="UTF-8"?>
<glyph name="fraction" format="1">
  <advance width="200"/>
  <unicode hex="2044"/>
  <outline>
    <contour>
      <point x="-186" y="0" type="line" smooth="yes"/>
      <point x="492" y="780" type="line" smooth="yes"/>
      <point x="390" y="780" type="line" smooth="yes"/>
      <point x="-288" y="0" type="line" smooth="yes"/>
    </contour>
  </outline>
</glyph>
