<?xml version="1.0" encoding="UTF-8"?>
<glyph name="percent" format="1">
  <advance width="941"/>
  <unicode hex="0025"/>
  <outline>
    <contour>
      <point x="253" y="712" type="line" smooth="yes"/>
      <point x="318" y="685" type="line" smooth="yes"/>
      <point x="336" y="613" type="line" smooth="yes"/>
      <point x="335" y="605" type="line" smooth="yes"/>
      <point x="302" y="531" type="line" smooth="yes"/>
      <point x="233" y="506" type="line" smooth="yes"/>
      <point x="227" y="506" type="line" smooth="yes"/>
      <point x="162" y="533" type="line" smooth="yes"/>
      <point x="144" y="605" type="line" smooth="yes"/>
      <point x="145" y="613" type="line" smooth="yes"/>
      <point x="178" y="687" type="line" smooth="yes"/>
      <point x="247" y="712" type="line" smooth="yes"/>
    </contour>
    <contour>
      <point x="250" y="792" type="line" smooth="yes"/>
      <point x="126" y="745" type="line" smooth="yes"/>
      <point x="65" y="615" type="line" smooth="yes"/>
      <point x="64" y="607" type="line" smooth="yes"/>
      <point x="102" y="473" type="line" smooth="yes"/>
      <point x="230" y="426" type="line" smooth="yes"/>
      <point x="354" y="473" type="line" smooth="yes"/>
      <point x="415" y="603" type="line" smooth="yes"/>
      <point x="416" y="611" type="line" smooth="yes"/>
      <point x="417" y="646" type="line" smooth="yes"/>
      <point x="414" y="674" type="line" smooth="yes"/>
      <point x="449" y="669" type="line" smooth="yes"/>
      <point x="499" y="666" type="line" smooth="yes"/>
      <point x="551" y="670" type="line" smooth="yes"/>
      <point x="585" y="678" type="line" smooth="yes"/>
      <point x="214" y="0" type="line" smooth="yes"/>
      <point x="306" y="0" type="line" smooth="yes"/>
      <point x="701" y="721" type="line" smooth="yes"/>
      <point x="709" y="782" type="line" smooth="yes"/>
      <point x="628" y="762" type="line" smooth="yes"/>
      <point x="505" y="750" type="line" smooth="yes"/>
      <point x="420" y="754" type="line" smooth="yes"/>
      <point x="340" y="773" type="line" smooth="yes"/>
      <point x="297" y="787" type="line" smooth="yes"/>
    </contour>
    <contour>
      <point x="719" y="274" type="line" smooth="yes"/>
      <point x="784" y="247" type="line" smooth="yes"/>
      <point x="802" y="175" type="line" smooth="yes"/>
      <point x="801" y="167" type="line" smooth="yes"/>
      <point x="768" y="93" type="line" smooth="yes"/>
      <point x="699" y="68" type="line" smooth="yes"/>
      <point x="693" y="68" type="line" smooth="yes"/>
      <point x="628" y="95" type="line" smooth="yes"/>
      <point x="610" y="167" type="line" smooth="yes"/>
      <point x="611" y="175" type="line" smooth="yes"/>
      <point x="644" y="249" type="line" smooth="yes"/>
      <point x="713" y="274" type="line" smooth="yes"/>
    </contour>
    <contour>
      <point x="696" y="-12" type="line" smooth="yes"/>
      <point x="820" y="35" type="line" smooth="yes"/>
      <point x="881" y="165" type="line" smooth="yes"/>
      <point x="882" y="173" type="line" smooth="yes"/>
      <point x="844" y="307" type="line" smooth="yes"/>
      <point x="716" y="354" type="line" smooth="yes"/>
      <point x="592" y="307" type="line" smooth="yes"/>
      <point x="531" y="177" type="line" smooth="yes"/>
      <point x="530" y="169" type="line" smooth="yes"/>
      <point x="568" y="35" type="line" smooth="yes"/>
    </contour>
  </outline>
</glyph>
