<?xml version="1.0" encoding="UTF-8"?>
<glyph name="threesuperior" format="1">
  <advance width="300"/>
  <unicode hex="00B3"/>
  <outline>
    <contour>
      <point x="117" y="515" type="line" smooth="yes"/>
      <point x="37" y="515" type="line" smooth="yes"/>
      <point x="36" y="507" type="line" smooth="yes"/>
      <point x="60" y="418" type="line" smooth="yes"/>
      <point x="161" y="383" type="line" smooth="yes"/>
      <point x="260" y="418" type="line" smooth="yes"/>
      <point x="295" y="491" type="line" smooth="yes"/>
      <point x="296" y="499" type="line" smooth="yes"/>
      <point x="289" y="557" type="line" smooth="yes"/>
      <point x="255" y="588" type="line" smooth="yes"/>
      <point x="295" y="615" type="line" smooth="yes"/>
      <point x="316" y="669" type="line" smooth="yes"/>
      <point x="317" y="677" type="line" smooth="yes"/>
      <point x="294" y="751" type="line" smooth="yes"/>
      <point x="194" y="786" type="line" smooth="yes"/>
      <point x="99" y="753" type="line" smooth="yes"/>
      <point x="58" y="658" type="line" smooth="yes"/>
      <point x="57" y="650" type="line" smooth="yes"/>
      <point x="137" y="650" type="line" smooth="yes"/>
      <point x="154" y="702" type="line" smooth="yes"/>
      <point x="191" y="716" type="line" smooth="yes"/>
      <point x="197" y="716" type="line" smooth="yes"/>
      <point x="227" y="705" type="line" smooth="yes"/>
      <point x="236" y="674" type="line" smooth="yes"/>
      <point x="235" y="666" type="line" smooth="yes"/>
      <point x="218" y="633" type="line" smooth="yes"/>
      <point x="183" y="624" type="line" smooth="yes"/>
      <point x="131" y="624" type="line" smooth="yes"/>
      <point x="122" y="554" type="line" smooth="yes"/>
      <point x="175" y="554" type="line" smooth="yes"/>
      <point x="209" y="542" type="line" smooth="yes"/>
      <point x="216" y="507" type="line" smooth="yes"/>
      <point x="215" y="499" type="line" smooth="yes"/>
      <point x="197" y="463" type="line" smooth="yes"/>
      <point x="164" y="453" type="line" smooth="yes"/>
      <point x="158" y="453" type="line" smooth="yes"/>
      <point x="125" y="465" type="line" smooth="yes"/>
    </contour>
  </outline>
</glyph>
