<?xml version="1.0" encoding="UTF-8"?>
<glyph name="whitesmallsquare" format="1">
  <advance width="680"/>
  <unicode hex="25AB"/>
  <outline>
    <contour>
      <point x="509" y="439" type="line" smooth="yes"/>
      <point x="509" y="91" type="line" smooth="yes"/>
      <point x="161" y="91" type="line" smooth="yes"/>
      <point x="161" y="439" type="line" smooth="yes"/>
    </contour>
    <contour>
      <point x="70" y="530" type="line" smooth="yes"/>
      <point x="70" y="0" type="line" smooth="yes"/>
      <point x="600" y="0" type="line" smooth="yes"/>
      <point x="600" y="530" type="line" smooth="yes"/>
    </contour>
  </outline>
</glyph>
