<?xml version="1.0" encoding="UTF-8"?>
<glyph name="greaterequal" format="1">
  <advance width="600"/>
  <unicode hex="2265"/>
  <outline>
    <contour>
      <point x="50" y="134" type="line" smooth="yes"/>
      <point x="550" y="323" type="line" smooth="yes"/>
      <point x="550" y="345" type="line" smooth="yes"/>
      <point x="50" y="156" type="line" smooth="yes"/>
    </contour>
    <contour>
      <point x="50" y="270" type="line" smooth="yes"/>
      <point x="50" y="248" type="line" smooth="yes"/>
      <point x="550" y="437" type="line" smooth="yes"/>
      <point x="550" y="457" type="line" smooth="yes"/>
      <point x="50" y="646" type="line" smooth="yes"/>
      <point x="50" y="624" type="line" smooth="yes"/>
      <point x="525" y="447" type="line" smooth="yes"/>
    </contour>
  </outline>
</glyph>
