<?xml version="1.0" encoding="UTF-8"?>
<glyph name="six.inf" format="1">
  <advance width="300"/>
  <unicode hex="E577"/>
  <outline>
    <contour>
      <point x="153" y="25" type="line" smooth="yes"/>
      <point x="156" y="25" type="line" smooth="yes"/>
      <point x="208" y="13" type="line" smooth="yes"/>
      <point x="242" y="-21" type="line" smooth="yes"/>
      <point x="254" y="-76" type="line" smooth="yes"/>
      <point x="254" y="-84" type="line" smooth="yes"/>
      <point x="242" y="-139" type="line" smooth="yes"/>
      <point x="207" y="-173" type="line" smooth="yes"/>
      <point x="154" y="-185" type="line" smooth="yes"/>
      <point x="151" y="-185" type="line" smooth="yes"/>
      <point x="100" y="-171" type="line" smooth="yes"/>
      <point x="64" y="-132" type="line" smooth="yes"/>
      <point x="50" y="-70" type="line" smooth="yes"/>
      <point x="50" y="-65" type="line" smooth="yes"/>
      <point x="50" y="-56" type="line" smooth="yes"/>
      <point x="50" y="-47" type="line" smooth="yes"/>
      <point x="51" y="-37" type="line" smooth="yes"/>
      <point x="75" y="-4" type="line" smooth="yes"/>
      <point x="110" y="17" type="line" smooth="yes"/>
    </contour>
    <contour>
      <point x="257" y="195" type="line" smooth="yes"/>
      <point x="197" y="186" type="line" smooth="yes"/>
      <point x="136" y="160" type="line" smooth="yes"/>
      <point x="85" y="113" type="line" smooth="yes"/>
      <point x="52" y="56" type="line" smooth="yes"/>
      <point x="35" y="-4" type="line" smooth="yes"/>
      <point x="30" y="-65" type="line" smooth="yes"/>
      <point x="30" y="-70" type="line" smooth="yes"/>
      <point x="47" y="-145" type="line" smooth="yes"/>
      <point x="91" y="-190" type="line" smooth="yes"/>
      <point x="152" y="-205" type="line" smooth="yes"/>
      <point x="215" y="-192" type="line" smooth="yes"/>
      <point x="259" y="-152" type="line" smooth="yes"/>
      <point x="275" y="-83" type="line" smooth="yes"/>
      <point x="275" y="-78" type="line" smooth="yes"/>
      <point x="259" y="-9" type="line" smooth="yes"/>
      <point x="216" y="32" type="line" smooth="yes"/>
      <point x="155" y="45" type="line" smooth="yes"/>
      <point x="115" y="39" type="line" smooth="yes"/>
      <point x="82" y="23" type="line" smooth="yes"/>
      <point x="56" y="-2" type="line" smooth="yes"/>
      <point x="65" y="32" type="line" smooth="yes"/>
      <point x="81" y="67" type="line" smooth="yes"/>
      <point x="102" y="100" type="line" smooth="yes"/>
      <point x="149" y="143" type="line" smooth="yes"/>
      <point x="204" y="168" type="line" smooth="yes"/>
      <point x="257" y="175" type="line" smooth="yes"/>
    </contour>
  </outline>
</glyph>
