<?xml version="1.0" encoding="UTF-8"?>
<glyph name="o" format="1">
  <advance width="548"/>
  <unicode hex="006F"/>
  <outline>
    <contour>
      <point x="274" y="76" type="line" smooth="yes"/>
      <point x="216" y="88" type="line" smooth="yes"/>
      <point x="175" y="124" type="line" smooth="yes"/>
      <point x="151" y="179" type="line" smooth="yes"/>
      <point x="143" y="251" type="line" smooth="yes"/>
      <point x="143" y="279" type="line" smooth="yes"/>
      <point x="151" y="351" type="line" smooth="yes"/>
      <point x="175" y="406" type="line" smooth="yes"/>
      <point x="216" y="442" type="line" smooth="yes"/>
      <point x="274" y="454" type="line" smooth="yes"/>
      <point x="332" y="442" type="line" smooth="yes"/>
      <point x="373" y="406" type="line" smooth="yes"/>
      <point x="397" y="351" type="line" smooth="yes"/>
      <point x="405" y="279" type="line" smooth="yes"/>
      <point x="405" y="251" type="line" smooth="yes"/>
      <point x="397" y="179" type="line" smooth="yes"/>
      <point x="373" y="124" type="line" smooth="yes"/>
      <point x="332" y="88" type="line" smooth="yes"/>
    </contour>
    <contour>
      <point x="274" y="-12" type="line" smooth="yes"/>
      <point x="378" y="8" type="line" smooth="yes"/>
      <point x="450" y="64" type="line" smooth="yes"/>
      <point x="492" y="147" type="line" smooth="yes"/>
      <point x="506" y="251" type="line" smooth="yes"/>
      <point x="506" y="279" type="line" smooth="yes"/>
      <point x="492" y="383" type="line" smooth="yes"/>
      <point x="450" y="466" type="line" smooth="yes"/>
      <point x="378" y="522" type="line" smooth="yes"/>
      <point x="274" y="542" type="line" smooth="yes"/>
      <point x="170" y="522" type="line" smooth="yes"/>
      <point x="98" y="466" type="line" smooth="yes"/>
      <point x="56" y="383" type="line" smooth="yes"/>
      <point x="42" y="279" type="line" smooth="yes"/>
      <point x="42" y="251" type="line" smooth="yes"/>
      <point x="56" y="147" type="line" smooth="yes"/>
      <point x="98" y="64" type="line" smooth="yes"/>
      <point x="170" y="8" type="line" smooth="yes"/>
    </contour>
  </outline>
</glyph>
