<?xml version="1.0" encoding="UTF-8"?>
<glyph name="question" format="1">
  <advance width="470"/>
  <unicode hex="003F"/>
  <outline>
    <contour>
      <point x="290" y="114" type="line" smooth="yes"/>
      <point x="176" y="114" type="line" smooth="yes"/>
      <point x="176" y="0" type="line" smooth="yes"/>
      <point x="290" y="0" type="line" smooth="yes"/>
    </contour>
    <contour>
      <point x="239" y="701" type="line" smooth="yes"/>
      <point x="288" y="692" type="line" smooth="yes"/>
      <point x="320" y="668" type="line" smooth="yes"/>
      <point x="337" y="629" type="line" smooth="yes"/>
      <point x="342" y="580" type="line" smooth="yes"/>
      <point x="318" y="496" type="line" smooth="yes"/>
      <point x="266" y="419" type="line" smooth="yes"/>
      <point x="216" y="327" type="line" smooth="yes"/>
      <point x="198" y="203" type="line" smooth="yes"/>
      <point x="267" y="203" type="line" smooth="yes"/>
      <point x="299" y="317" type="line" smooth="yes"/>
      <point x="360" y="393" type="line" smooth="yes"/>
      <point x="419" y="469" type="line" smooth="yes"/>
      <point x="445" y="586" type="line" smooth="yes"/>
      <point x="434" y="667" type="line" smooth="yes"/>
      <point x="399" y="733" type="line" smooth="yes"/>
      <point x="335" y="776" type="line" smooth="yes"/>
      <point x="239" y="792" type="line" smooth="yes"/>
      <point x="136" y="772" type="line" smooth="yes"/>
      <point x="70" y="717" type="line" smooth="yes"/>
      <point x="35" y="632" type="line" smooth="yes"/>
      <point x="25" y="522" type="line" smooth="yes"/>
      <point x="25" y="509" type="line" smooth="yes"/>
      <point x="127" y="509" type="line" smooth="yes"/>
      <point x="132" y="590" type="line" smooth="yes"/>
      <point x="150" y="651" type="line" smooth="yes"/>
      <point x="185" y="688" type="line" smooth="yes"/>
    </contour>
  </outline>
</glyph>
