<?xml version="1.0" encoding="UTF-8"?>
<glyph name="quotesingle" format="1">
  <advance width="234"/>
  <unicode hex="0027"/>
  <outline>
    <contour>
      <point x="61" y="780" type="line" smooth="yes"/>
      <point x="79" y="492" type="line" smooth="yes"/>
      <point x="155" y="492" type="line" smooth="yes"/>
      <point x="173" y="780" type="line" smooth="yes"/>
    </contour>
  </outline>
</glyph>
