<?xml version="1.0" encoding="UTF-8"?>
<glyph name="uni2197" format="1">
  <advance width="920"/>
  <unicode hex="2197"/>
  <outline>
    <contour>
      <point x="70" y="687" type="line" smooth="yes"/>
      <point x="692" y="687" type="line" smooth="yes"/>
      <point x="58" y="53" type="line" smooth="yes"/>
      <point x="123" y="-12" type="line" smooth="yes"/>
      <point x="757" y="622" type="line" smooth="yes"/>
      <point x="757" y="0" type="line" smooth="yes"/>
      <point x="850" y="0" type="line" smooth="yes"/>
      <point x="850" y="780" type="line" smooth="yes"/>
      <point x="70" y="780" type="line" smooth="yes"/>
    </contour>
  </outline>
</glyph>
