<?xml version="1.0" encoding="UTF-8"?>
<glyph name="Ygrave" format="1">
  <advance width="594"/>
  <unicode hex="1EF2"/>
  <outline>
    <contour>
      <point x="183" y="950" type="line" smooth="yes"/>
      <point x="246" y="840" type="line" smooth="yes"/>
      <point x="348" y="840" type="line" smooth="yes"/>
      <point x="290" y="950" type="line" smooth="yes"/>
    </contour>
    <contour>
      <point x="349" y="237" type="line" smooth="yes"/>
      <point x="578" y="780" type="line" smooth="yes"/>
      <point x="465" y="780" type="line" smooth="yes"/>
      <point x="297" y="366" type="line" smooth="yes"/>
      <point x="129" y="780" type="line" smooth="yes"/>
      <point x="16" y="780" type="line" smooth="yes"/>
      <point x="245" y="237" type="line" smooth="yes"/>
      <point x="245" y="0" type="line" smooth="yes"/>
      <point x="349" y="0" type="line" smooth="yes"/>
    </contour>
  </outline>
</glyph>
