<?xml version="1.0" encoding="UTF-8"?>
<glyph name="asciitilde" format="1">
  <advance width="600"/>
  <unicode hex="007E"/>
  <outline>
    <contour>
      <point x="186" y="492" type="line" smooth="yes"/>
      <point x="120" y="478" type="line" smooth="yes"/>
      <point x="67" y="442" type="line" smooth="yes"/>
      <point x="25" y="391" type="line" smooth="yes"/>
      <point x="110" y="306" type="line" smooth="yes"/>
      <point x="130" y="326" type="line" smooth="yes"/>
      <point x="159" y="344" type="line" smooth="yes"/>
      <point x="195" y="352" type="line" smooth="yes"/>
      <point x="259" y="335" type="line" smooth="yes"/>
      <point x="326" y="305" type="line" smooth="yes"/>
      <point x="414" y="288" type="line" smooth="yes"/>
      <point x="480" y="302" type="line" smooth="yes"/>
      <point x="533" y="338" type="line" smooth="yes"/>
      <point x="575" y="389" type="line" smooth="yes"/>
      <point x="490" y="474" type="line" smooth="yes"/>
      <point x="470" y="454" type="line" smooth="yes"/>
      <point x="441" y="436" type="line" smooth="yes"/>
      <point x="405" y="428" type="line" smooth="yes"/>
      <point x="341" y="445" type="line" smooth="yes"/>
      <point x="274" y="475" type="line" smooth="yes"/>
    </contour>
  </outline>
</glyph>
