<?xml version="1.0" encoding="UTF-8"?>
<glyph name="cedilla" format="1">
  <advance width="602"/>
  <unicode hex="00B8"/>
  <outline>
    <contour>
      <point x="141" y="-190" type="line" smooth="yes"/>
      <point x="166" y="-202" type="line" smooth="yes"/>
      <point x="204" y="-212" type="line" smooth="yes"/>
      <point x="252" y="-216" type="line" smooth="yes"/>
      <point x="322" y="-205" type="line" smooth="yes"/>
      <point x="363" y="-174" type="line" smooth="yes"/>
      <point x="377" y="-125" type="line" smooth="yes"/>
      <point x="364" y="-78" type="line" smooth="yes"/>
      <point x="328" y="-50" type="line" smooth="yes"/>
      <point x="277" y="-37" type="line" smooth="yes"/>
      <point x="292" y="0" type="line" smooth="yes"/>
      <point x="212" y="0" type="line" smooth="yes"/>
      <point x="184" y="-70" type="line" smooth="yes"/>
      <point x="198" y="-99" type="line" smooth="yes"/>
      <point x="204" y="-98" type="line" smooth="yes"/>
      <point x="219" y="-95" type="line" smooth="yes"/>
      <point x="238" y="-94" type="line" smooth="yes"/>
      <point x="265" y="-97" type="line" smooth="yes"/>
      <point x="278" y="-104" type="line" smooth="yes"/>
      <point x="282" y="-116" type="line" smooth="yes"/>
      <point x="278" y="-127" type="line" smooth="yes"/>
      <point x="265" y="-135" type="line" smooth="yes"/>
      <point x="238" y="-138" type="line" smooth="yes"/>
      <point x="212" y="-136" type="line" smooth="yes"/>
      <point x="187" y="-130" type="line" smooth="yes"/>
      <point x="168" y="-121" type="line" smooth="yes"/>
    </contour>
  </outline>
</glyph>
