<?xml version="1.0" encoding="UTF-8"?>
<glyph name="Edotaccent" format="1">
  <advance width="580"/>
  <unicode hex="0116"/>
  <outline>
    <contour>
      <point x="370" y="950" type="line" smooth="yes"/>
      <point x="220" y="950" type="line" smooth="yes"/>
      <point x="220" y="840" type="line" smooth="yes"/>
      <point x="370" y="840" type="line" smooth="yes"/>
    </contour>
    <contour>
      <point x="50" y="780" type="line" smooth="yes"/>
      <point x="50" y="0" type="line" smooth="yes"/>
      <point x="540" y="0" type="line" smooth="yes"/>
      <point x="540" y="164" type="line" smooth="yes"/>
      <point x="240" y="164" type="line" smooth="yes"/>
      <point x="240" y="316" type="line" smooth="yes"/>
      <point x="490" y="316" type="line" smooth="yes"/>
      <point x="490" y="480" type="line" smooth="yes"/>
      <point x="240" y="480" type="line" smooth="yes"/>
      <point x="240" y="616" type="line" smooth="yes"/>
      <point x="540" y="616" type="line" smooth="yes"/>
      <point x="540" y="780" type="line" smooth="yes"/>
    </contour>
  </outline>
</glyph>
