<?xml version="1.0" encoding="UTF-8"?>
<glyph name="f" format="1">
  <advance width="420"/>
  <unicode hex="0066"/>
  <outline>
    <contour>
      <point x="279" y="585" type="line" smooth="yes"/>
      <point x="288" y="630" type="line" smooth="yes"/>
      <point x="313" y="651" type="line" smooth="yes"/>
      <point x="350" y="656" type="line" smooth="yes"/>
      <point x="368" y="655" type="line" smooth="yes"/>
      <point x="385" y="652" type="line" smooth="yes"/>
      <point x="396" y="650" type="line" smooth="yes"/>
      <point x="396" y="800" type="line" smooth="yes"/>
      <point x="380" y="806" type="line" smooth="yes"/>
      <point x="350" y="811" type="line" smooth="yes"/>
      <point x="307" y="814" type="line" smooth="yes"/>
      <point x="196" y="794" type="line" smooth="yes"/>
      <point x="122" y="728" type="line" smooth="yes"/>
      <point x="95" y="605" type="line" smooth="yes"/>
      <point x="95" y="530" type="line" smooth="yes"/>
      <point x="15" y="530" type="line" smooth="yes"/>
      <point x="15" y="370" type="line" smooth="yes"/>
      <point x="95" y="370" type="line" smooth="yes"/>
      <point x="95" y="0" type="line" smooth="yes"/>
      <point x="279" y="0" type="line" smooth="yes"/>
      <point x="279" y="370" type="line" smooth="yes"/>
      <point x="386" y="370" type="line" smooth="yes"/>
      <point x="386" y="530" type="line" smooth="yes"/>
      <point x="279" y="530" type="line" smooth="yes"/>
    </contour>
  </outline>
</glyph>
