<?xml version="1.0" encoding="UTF-8"?>
<glyph name="Ibreve" format="1">
  <advance width="300"/>
  <unicode hex="012C"/>
  <outline>
    <contour>
      <point x="150" y="824" type="line" smooth="yes"/>
      <point x="272" y="842" type="line" smooth="yes"/>
      <point x="330" y="888" type="line" smooth="yes"/>
      <point x="345" y="950" type="line" smooth="yes"/>
      <point x="220" y="950" type="line" smooth="yes"/>
      <point x="213" y="933" type="line" smooth="yes"/>
      <point x="190" y="923" type="line" smooth="yes"/>
      <point x="150" y="920" type="line" smooth="yes"/>
      <point x="110" y="923" type="line" smooth="yes"/>
      <point x="87" y="933" type="line" smooth="yes"/>
      <point x="80" y="950" type="line" smooth="yes"/>
      <point x="-45" y="950" type="line" smooth="yes"/>
      <point x="-30" y="888" type="line" smooth="yes"/>
      <point x="28" y="842" type="line" smooth="yes"/>
    </contour>
    <contour>
      <point x="245" y="780" type="line" smooth="yes"/>
      <point x="55" y="780" type="line" smooth="yes"/>
      <point x="55" y="0" type="line" smooth="yes"/>
      <point x="245" y="0" type="line" smooth="yes"/>
    </contour>
  </outline>
</glyph>
