<?xml version="1.0" encoding="UTF-8"?>
<glyph name="Omacron" format="1">
  <advance width="680"/>
  <unicode hex="014C"/>
  <outline>
    <contour>
      <point x="180" y="840" type="line" smooth="yes"/>
      <point x="500" y="840" type="line" smooth="yes"/>
      <point x="500" y="950" type="line" smooth="yes"/>
      <point x="180" y="950" type="line" smooth="yes"/>
    </contour>
    <contour>
      <point x="335" y="150" type="line" smooth="yes"/>
      <point x="267" y="177" type="line" smooth="yes"/>
      <point x="234" y="253" type="line" smooth="yes"/>
      <point x="226" y="370" type="line" smooth="yes"/>
      <point x="226" y="410" type="line" smooth="yes"/>
      <point x="234" y="527" type="line" smooth="yes"/>
      <point x="267" y="603" type="line" smooth="yes"/>
      <point x="335" y="630" type="line" smooth="yes"/>
      <point x="345" y="630" type="line" smooth="yes"/>
      <point x="413" y="603" type="line" smooth="yes"/>
      <point x="446" y="527" type="line" smooth="yes"/>
      <point x="454" y="410" type="line" smooth="yes"/>
      <point x="454" y="370" type="line" smooth="yes"/>
      <point x="446" y="253" type="line" smooth="yes"/>
      <point x="413" y="177" type="line" smooth="yes"/>
      <point x="345" y="150" type="line" smooth="yes"/>
    </contour>
    <contour>
      <point x="340" y="-14" type="line" smooth="yes"/>
      <point x="513" y="26" type="line" smooth="yes"/>
      <point x="614" y="150" type="line" smooth="yes"/>
      <point x="647" y="370" type="line" smooth="yes"/>
      <point x="647" y="410" type="line" smooth="yes"/>
      <point x="614" y="630" type="line" smooth="yes"/>
      <point x="513" y="754" type="line" smooth="yes"/>
      <point x="340" y="794" type="line" smooth="yes"/>
      <point x="167" y="754" type="line" smooth="yes"/>
      <point x="66" y="630" type="line" smooth="yes"/>
      <point x="33" y="410" type="line" smooth="yes"/>
      <point x="33" y="370" type="line" smooth="yes"/>
      <point x="66" y="150" type="line" smooth="yes"/>
      <point x="167" y="26" type="line" smooth="yes"/>
    </contour>
  </outline>
</glyph>
