<?xml version="1.0" encoding="UTF-8"?>
<glyph name="oslash" format="1">
  <advance width="560"/>
  <unicode hex="00F8"/>
  <outline>
    <contour>
      <point x="208" y="232" type="line" smooth="yes"/>
      <point x="208" y="285" type="line" smooth="yes"/>
      <point x="216" y="340" type="line" smooth="yes"/>
      <point x="239" y="374" type="line" smooth="yes"/>
      <point x="280" y="386" type="line" smooth="yes"/>
      <point x="296" y="385" type="line" smooth="yes"/>
      <point x="309" y="381" type="line" smooth="yes"/>
      <point x="321" y="374" type="line" smooth="yes"/>
    </contour>
    <contour>
      <point x="352" y="285" type="line" smooth="yes"/>
      <point x="352" y="245" type="line" smooth="yes"/>
      <point x="344" y="190" type="line" smooth="yes"/>
      <point x="321" y="156" type="line" smooth="yes"/>
      <point x="280" y="144" type="line" smooth="yes"/>
      <point x="264" y="145" type="line" smooth="yes"/>
      <point x="250" y="149" type="line" smooth="yes"/>
      <point x="238" y="156" type="line" smooth="yes"/>
      <point x="351" y="299" type="line" smooth="yes"/>
      <point x="352" y="295" type="line" smooth="yes"/>
      <point x="352" y="290" type="line" smooth="yes"/>
    </contour>
    <contour>
      <point x="535" y="530" type="line" smooth="yes"/>
      <point x="445" y="530" type="line" smooth="yes"/>
      <point x="428" y="509" type="line" smooth="yes"/>
      <point x="386" y="528" type="line" smooth="yes"/>
      <point x="336" y="540" type="line" smooth="yes"/>
      <point x="280" y="544" type="line" smooth="yes"/>
      <point x="136" y="511" type="line" smooth="yes"/>
      <point x="52" y="421" type="line" smooth="yes"/>
      <point x="25" y="285" type="line" smooth="yes"/>
      <point x="25" y="245" type="line" smooth="yes"/>
      <point x="31" y="177" type="line" smooth="yes"/>
      <point x="48" y="117" type="line" smooth="yes"/>
      <point x="78" y="68" type="line" smooth="yes"/>
      <point x="24" y="0" type="line" smooth="yes"/>
      <point x="114" y="0" type="line" smooth="yes"/>
      <point x="131" y="21" type="line" smooth="yes"/>
      <point x="173" y="2" type="line" smooth="yes"/>
      <point x="223" y="-10" type="line" smooth="yes"/>
      <point x="280" y="-14" type="line" smooth="yes"/>
      <point x="424" y="19" type="line" smooth="yes"/>
      <point x="508" y="109" type="line" smooth="yes"/>
      <point x="535" y="245" type="line" smooth="yes"/>
      <point x="535" y="285" type="line" smooth="yes"/>
      <point x="529" y="353" type="line" smooth="yes"/>
      <point x="511" y="413" type="line" smooth="yes"/>
      <point x="481" y="462" type="line" smooth="yes"/>
    </contour>
  </outline>
</glyph>
