<?xml version="1.0" encoding="UTF-8"?>
<glyph name="servicemark" format="1">
  <advance width="570"/>
  <unicode hex="2120"/>
  <outline>
    <contour>
      <point x="461" y="677" type="line" smooth="yes"/>
      <point x="459" y="620" type="line" smooth="yes"/>
      <point x="459" y="530" type="line" smooth="yes"/>
      <point x="530" y="530" type="line" smooth="yes"/>
      <point x="530" y="800" type="line" smooth="yes"/>
      <point x="424" y="800" type="line" smooth="yes"/>
      <point x="387" y="654" type="line" smooth="yes"/>
      <point x="350" y="800" type="line" smooth="yes"/>
      <point x="244" y="800" type="line" smooth="yes"/>
      <point x="244" y="530" type="line" smooth="yes"/>
      <point x="315" y="530" type="line" smooth="yes"/>
      <point x="315" y="620" type="line" smooth="yes"/>
      <point x="313" y="677" type="line" smooth="yes"/>
      <point x="350" y="530" type="line" smooth="yes"/>
      <point x="424" y="530" type="line" smooth="yes"/>
    </contour>
    <contour>
      <point x="104" y="635" type="line" smooth="yes"/>
      <point x="130" y="629" type="line" smooth="yes"/>
      <point x="143" y="620" type="line" smooth="yes"/>
      <point x="147" y="607" type="line" smooth="yes"/>
      <point x="147" y="605" type="line" smooth="yes"/>
      <point x="144" y="594" type="line" smooth="yes"/>
      <point x="135" y="585" type="line" smooth="yes"/>
      <point x="119" y="581" type="line" smooth="yes"/>
      <point x="115" y="581" type="line" smooth="yes"/>
      <point x="96" y="585" type="line" smooth="yes"/>
      <point x="85" y="600" type="line" smooth="yes"/>
      <point x="81" y="624" type="line" smooth="yes"/>
      <point x="11" y="624" type="line" smooth="yes"/>
      <point x="11" y="622" type="line" smooth="yes"/>
      <point x="23" y="564" type="line" smooth="yes"/>
      <point x="58" y="531" type="line" smooth="yes"/>
      <point x="115" y="520" type="line" smooth="yes"/>
      <point x="173" y="531" type="line" smooth="yes"/>
      <point x="208" y="560" type="line" smooth="yes"/>
      <point x="220" y="607" type="line" smooth="yes"/>
      <point x="220" y="612" type="line" smooth="yes"/>
      <point x="209" y="657" type="line" smooth="yes"/>
      <point x="178" y="683" type="line" smooth="yes"/>
      <point x="127" y="695" type="line" smooth="yes"/>
      <point x="103" y="701" type="line" smooth="yes"/>
      <point x="89" y="710" type="line" smooth="yes"/>
      <point x="85" y="724" type="line" smooth="yes"/>
      <point x="85" y="726" type="line" smooth="yes"/>
      <point x="88" y="737" type="line" smooth="yes"/>
      <point x="97" y="745" type="line" smooth="yes"/>
      <point x="111" y="748" type="line" smooth="yes"/>
      <point x="115" y="748" type="line" smooth="yes"/>
      <point x="135" y="743" type="line" smooth="yes"/>
      <point x="145" y="727" type="line" smooth="yes"/>
      <point x="148" y="701" type="line" smooth="yes"/>
      <point x="218" y="701" type="line" smooth="yes"/>
      <point x="218" y="708" type="line" smooth="yes"/>
      <point x="207" y="765" type="line" smooth="yes"/>
      <point x="173" y="799" type="line" smooth="yes"/>
      <point x="115" y="810" type="line" smooth="yes"/>
      <point x="58" y="799" type="line" smooth="yes"/>
      <point x="24" y="769" type="line" smooth="yes"/>
      <point x="13" y="723" type="line" smooth="yes"/>
      <point x="13" y="719" type="line" smooth="yes"/>
      <point x="23" y="673" type="line" smooth="yes"/>
      <point x="53" y="647" type="line" smooth="yes"/>
    </contour>
  </outline>
</glyph>
