<?xml version="1.0" encoding="UTF-8"?>
<glyph name="tcommaaccent" format="1">
  <advance width="440"/>
  <unicode hex="0163"/>
  <outline>
    <contour>
      <point x="320" y="-40" type="line" smooth="yes"/>
      <point x="160" y="-40" type="line" smooth="yes"/>
      <point x="160" y="-140" type="line" smooth="yes"/>
      <point x="248" y="-140" type="line" smooth="yes"/>
      <point x="228" y="-158" type="line" smooth="yes"/>
      <point x="199" y="-167" type="line" smooth="yes"/>
      <point x="160" y="-170" type="line" smooth="yes"/>
      <point x="160" y="-230" type="line" smooth="yes"/>
      <point x="250" y="-217" type="line" smooth="yes"/>
      <point x="303" y="-176" type="line" smooth="yes"/>
      <point x="320" y="-100" type="line" smooth="yes"/>
    </contour>
    <contour>
      <point x="279" y="530" type="line" smooth="yes"/>
      <point x="279" y="680" type="line" smooth="yes"/>
      <point x="95" y="680" type="line" smooth="yes"/>
      <point x="95" y="530" type="line" smooth="yes"/>
      <point x="15" y="530" type="line" smooth="yes"/>
      <point x="15" y="370" type="line" smooth="yes"/>
      <point x="95" y="370" type="line" smooth="yes"/>
      <point x="95" y="195" type="line" smooth="yes"/>
      <point x="122" y="72" type="line" smooth="yes"/>
      <point x="196" y="6" type="line" smooth="yes"/>
      <point x="307" y="-14" type="line" smooth="yes"/>
      <point x="350" y="-11" type="line" smooth="yes"/>
      <point x="380" y="-6" type="line" smooth="yes"/>
      <point x="396" y="0" type="line" smooth="yes"/>
      <point x="396" y="150" type="line" smooth="yes"/>
      <point x="385" y="148" type="line" smooth="yes"/>
      <point x="368" y="145" type="line" smooth="yes"/>
      <point x="350" y="144" type="line" smooth="yes"/>
      <point x="313" y="149" type="line" smooth="yes"/>
      <point x="288" y="170" type="line" smooth="yes"/>
      <point x="279" y="215" type="line" smooth="yes"/>
      <point x="279" y="370" type="line" smooth="yes"/>
      <point x="406" y="370" type="line" smooth="yes"/>
      <point x="406" y="530" type="line" smooth="yes"/>
    </contour>
  </outline>
</glyph>
