<?xml version="1.0" encoding="UTF-8"?>
<glyph name="breve" format="1">
  <advance width="500"/>
  <unicode hex="02D8"/>
  <outline>
    <contour>
      <point x="250" y="614" type="line" smooth="yes"/>
      <point x="316" y="627" type="line" smooth="yes"/>
      <point x="363" y="663" type="line" smooth="yes"/>
      <point x="391" y="716" type="line" smooth="yes"/>
      <point x="400" y="780" type="line" smooth="yes"/>
      <point x="382" y="780" type="line" smooth="yes"/>
      <point x="374" y="723" type="line" smooth="yes"/>
      <point x="350" y="676" type="line" smooth="yes"/>
      <point x="309" y="644" type="line" smooth="yes"/>
      <point x="250" y="632" type="line" smooth="yes"/>
      <point x="191" y="644" type="line" smooth="yes"/>
      <point x="150" y="676" type="line" smooth="yes"/>
      <point x="126" y="723" type="line" smooth="yes"/>
      <point x="118" y="780" type="line" smooth="yes"/>
      <point x="100" y="780" type="line" smooth="yes"/>
      <point x="109" y="716" type="line" smooth="yes"/>
      <point x="138" y="663" type="line" smooth="yes"/>
      <point x="184" y="627" type="line" smooth="yes"/>
    </contour>
  </outline>
</glyph>
