<?xml version="1.0" encoding="UTF-8"?>
<glyph name="Dcroat" format="1">
  <advance width="670"/>
  <unicode hex="0110"/>
  <outline>
    <contour>
      <point x="155" y="20" type="line" smooth="yes"/>
      <point x="155" y="388" type="line" smooth="yes"/>
      <point x="385" y="388" type="line" smooth="yes"/>
      <point x="385" y="408" type="line" smooth="yes"/>
      <point x="155" y="408" type="line" smooth="yes"/>
      <point x="155" y="760" type="line" smooth="yes"/>
      <point x="320" y="760" type="line" smooth="yes"/>
      <point x="430" y="742" type="line" smooth="yes"/>
      <point x="515" y="683" type="line" smooth="yes"/>
      <point x="570" y="574" type="line" smooth="yes"/>
      <point x="590" y="410" type="line" smooth="yes"/>
      <point x="590" y="370" type="line" smooth="yes"/>
      <point x="570" y="206" type="line" smooth="yes"/>
      <point x="515" y="98" type="line" smooth="yes"/>
      <point x="430" y="38" type="line" smooth="yes"/>
      <point x="320" y="20" type="line" smooth="yes"/>
    </contour>
    <contour>
      <point x="25" y="408" type="line" smooth="yes"/>
      <point x="25" y="388" type="line" smooth="yes"/>
      <point x="135" y="388" type="line" smooth="yes"/>
      <point x="135" y="0" type="line" smooth="yes"/>
      <point x="325" y="0" type="line" smooth="yes"/>
      <point x="439" y="19" type="line" smooth="yes"/>
      <point x="529" y="82" type="line" smooth="yes"/>
      <point x="589" y="196" type="line" smooth="yes"/>
      <point x="610" y="370" type="line" smooth="yes"/>
      <point x="610" y="410" type="line" smooth="yes"/>
      <point x="589" y="584" type="line" smooth="yes"/>
      <point x="529" y="698" type="line" smooth="yes"/>
      <point x="439" y="761" type="line" smooth="yes"/>
      <point x="325" y="780" type="line" smooth="yes"/>
      <point x="135" y="780" type="line" smooth="yes"/>
      <point x="135" y="408" type="line" smooth="yes"/>
    </contour>
  </outline>
</glyph>
