<?xml version="1.0" encoding="UTF-8"?>
<glyph name="ecircumflex" format="1">
  <advance width="530"/>
  <unicode hex="00EA"/>
  <outline>
    <contour>
      <point x="155" y="620" type="line" smooth="yes"/>
      <point x="265" y="762" type="line" smooth="yes"/>
      <point x="375" y="620" type="line" smooth="yes"/>
      <point x="400" y="620" type="line" smooth="yes"/>
      <point x="275" y="780" type="line" smooth="yes"/>
      <point x="255" y="780" type="line" smooth="yes"/>
      <point x="130" y="620" type="line" smooth="yes"/>
    </contour>
    <contour>
      <point x="265" y="516" type="line" smooth="yes"/>
      <point x="349" y="498" type="line" smooth="yes"/>
      <point x="408" y="448" type="line" smooth="yes"/>
      <point x="443" y="372" type="line" smooth="yes"/>
      <point x="455" y="275" type="line" smooth="yes"/>
      <point x="75" y="275" type="line" smooth="yes"/>
      <point x="87" y="372" type="line" smooth="yes"/>
      <point x="122" y="448" type="line" smooth="yes"/>
      <point x="181" y="498" type="line" smooth="yes"/>
    </contour>
    <contour>
      <point x="475" y="255" type="line" smooth="yes"/>
      <point x="475" y="275" type="line" smooth="yes"/>
      <point x="463" y="377" type="line" smooth="yes"/>
      <point x="426" y="460" type="line" smooth="yes"/>
      <point x="360" y="516" type="line" smooth="yes"/>
      <point x="265" y="536" type="line" smooth="yes"/>
      <point x="170" y="516" type="line" smooth="yes"/>
      <point x="105" y="460" type="line" smooth="yes"/>
      <point x="67" y="377" type="line" smooth="yes"/>
      <point x="55" y="275" type="line" smooth="yes"/>
      <point x="55" y="255" type="line" smooth="yes"/>
      <point x="67" y="153" type="line" smooth="yes"/>
      <point x="106" y="70" type="line" smooth="yes"/>
      <point x="173" y="14" type="line" smooth="yes"/>
      <point x="270" y="-6" type="line" smooth="yes"/>
      <point x="364" y="10" type="line" smooth="yes"/>
      <point x="428" y="51" type="line" smooth="yes"/>
      <point x="464" y="107" type="line" smooth="yes"/>
      <point x="475" y="165" type="line" smooth="yes"/>
      <point x="475" y="170" type="line" smooth="yes"/>
      <point x="455" y="170" type="line" smooth="yes"/>
      <point x="445" y="116" type="line" smooth="yes"/>
      <point x="414" y="65" type="line" smooth="yes"/>
      <point x="356" y="28" type="line" smooth="yes"/>
      <point x="270" y="14" type="line" smooth="yes"/>
      <point x="182" y="32" type="line" smooth="yes"/>
      <point x="122" y="82" type="line" smooth="yes"/>
      <point x="86" y="158" type="line" smooth="yes"/>
      <point x="75" y="255" type="line" smooth="yes"/>
    </contour>
  </outline>
</glyph>
