<?xml version="1.0" encoding="UTF-8"?>
<glyph name="ogonek" format="1">
  <advance width="602"/>
  <unicode hex="02DB"/>
  <outline>
    <contour>
      <point x="323" y="-172" type="line" smooth="yes"/>
      <point x="310" y="-177" type="line" smooth="yes"/>
      <point x="294" y="-183" type="line" smooth="yes"/>
      <point x="274" y="-186" type="line" smooth="yes"/>
      <point x="250" y="-188" type="line" smooth="yes"/>
      <point x="223" y="-184" type="line" smooth="yes"/>
      <point x="199" y="-172" type="line" smooth="yes"/>
      <point x="183" y="-150" type="line" smooth="yes"/>
      <point x="177" y="-115" type="line" smooth="yes"/>
      <point x="187" y="-70" type="line" smooth="yes"/>
      <point x="213" y="-37" type="line" smooth="yes"/>
      <point x="247" y="-14" type="line" smooth="yes"/>
      <point x="284" y="0" type="line" smooth="yes"/>
      <point x="277" y="16" type="line" smooth="yes"/>
      <point x="234" y="-2" type="line" smooth="yes"/>
      <point x="196" y="-27" type="line" smooth="yes"/>
      <point x="169" y="-64" type="line" smooth="yes"/>
      <point x="159" y="-115" type="line" smooth="yes"/>
      <point x="167" y="-157" type="line" smooth="yes"/>
      <point x="187" y="-185" type="line" smooth="yes"/>
      <point x="216" y="-201" type="line" smooth="yes"/>
      <point x="250" y="-206" type="line" smooth="yes"/>
      <point x="276" y="-204" type="line" smooth="yes"/>
      <point x="297" y="-200" type="line" smooth="yes"/>
      <point x="315" y="-195" type="line" smooth="yes"/>
      <point x="329" y="-188" type="line" smooth="yes"/>
    </contour>
  </outline>
</glyph>
