<?xml version="1.0" encoding="UTF-8"?>
<glyph name="uni00AD" format="1">
  <advance width="320"/>
  <unicode hex="00AD"/>
  <outline>
    <contour>
      <point x="50" y="330" type="line" smooth="yes"/>
      <point x="270" y="330" type="line" smooth="yes"/>
      <point x="270" y="350" type="line" smooth="yes"/>
      <point x="50" y="350" type="line" smooth="yes"/>
    </contour>
  </outline>
</glyph>
