<?xml version="1.0" encoding="UTF-8"?>
<glyph name="uni2080" format="1">
  <advance width="300"/>
  <unicode hex="2080"/>
  <outline>
    <contour>
      <point x="245" y="272" type="line" smooth="yes"/>
      <point x="245" y="117" type="line" smooth="yes"/>
      <point x="240" y="75" type="line" smooth="yes"/>
      <point x="225" y="42" type="line" smooth="yes"/>
      <point x="196" y="21" type="line" smooth="yes"/>
      <point x="151" y="14" type="line" smooth="yes"/>
      <point x="148" y="14" type="line" smooth="yes"/>
      <point x="104" y="21" type="line" smooth="yes"/>
      <point x="75" y="42" type="line" smooth="yes"/>
      <point x="60" y="75" type="line" smooth="yes"/>
      <point x="55" y="117" type="line" smooth="yes"/>
      <point x="55" y="272" type="line" smooth="yes"/>
      <point x="60" y="315" type="line" smooth="yes"/>
      <point x="75" y="348" type="line" smooth="yes"/>
      <point x="104" y="369" type="line" smooth="yes"/>
      <point x="148" y="376" type="line" smooth="yes"/>
      <point x="151" y="376" type="line" smooth="yes"/>
      <point x="196" y="369" type="line" smooth="yes"/>
      <point x="225" y="348" type="line" smooth="yes"/>
      <point x="240" y="315" type="line" smooth="yes"/>
    </contour>
    <contour>
      <point x="266" y="112" type="line" smooth="yes"/>
      <point x="266" y="277" type="line" smooth="yes"/>
      <point x="260" y="324" type="line" smooth="yes"/>
      <point x="240" y="362" type="line" smooth="yes"/>
      <point x="204" y="386" type="line" smooth="yes"/>
      <point x="150" y="395" type="line" smooth="yes"/>
      <point x="96" y="386" type="line" smooth="yes"/>
      <point x="60" y="362" type="line" smooth="yes"/>
      <point x="40" y="324" type="line" smooth="yes"/>
      <point x="34" y="277" type="line" smooth="yes"/>
      <point x="34" y="112" type="line" smooth="yes"/>
      <point x="40" y="65" type="line" smooth="yes"/>
      <point x="60" y="28" type="line" smooth="yes"/>
      <point x="96" y="4" type="line" smooth="yes"/>
      <point x="150" y="-5" type="line" smooth="yes"/>
      <point x="204" y="4" type="line" smooth="yes"/>
      <point x="240" y="28" type="line" smooth="yes"/>
      <point x="260" y="65" type="line" smooth="yes"/>
    </contour>
  </outline>
</glyph>
