<?xml version="1.0" encoding="UTF-8"?>
<glyph name="acute" format="1">
  <advance width="500"/>
  <unicode hex="00B4"/>
  <outline>
    <contour>
      <point x="250" y="780" type="line" smooth="yes"/>
      <point x="159" y="590" type="line" smooth="yes"/>
      <point x="341" y="590" type="line" smooth="yes"/>
      <point x="452" y="780" type="line" smooth="yes"/>
    </contour>
  </outline>
</glyph>
