<?xml version="1.0" encoding="UTF-8"?>
<glyph name="aogonek" format="1">
  <advance width="560"/>
  <unicode hex="0105"/>
  <outline>
    <contour>
      <point x="336" y="-105" type="line" smooth="yes"/>
      <point x="346" y="-154" type="line" smooth="yes"/>
      <point x="375" y="-189" type="line" smooth="yes"/>
      <point x="420" y="-209" type="line" smooth="yes"/>
      <point x="478" y="-216" type="line" smooth="yes"/>
      <point x="511" y="-214" type="line" smooth="yes"/>
      <point x="541" y="-208" type="line" smooth="yes"/>
      <point x="567" y="-200" type="line" smooth="yes"/>
      <point x="586" y="-190" type="line" smooth="yes"/>
      <point x="545" y="-80" type="line" smooth="yes"/>
      <point x="539" y="-83" type="line" smooth="yes"/>
      <point x="532" y="-87" type="line" smooth="yes"/>
      <point x="521" y="-89" type="line" smooth="yes"/>
      <point x="509" y="-90" type="line" smooth="yes"/>
      <point x="493" y="-88" type="line" smooth="yes"/>
      <point x="481" y="-81" type="line" smooth="yes"/>
      <point x="474" y="-71" type="line" smooth="yes"/>
      <point x="471" y="-58" type="line" smooth="yes"/>
      <point x="474" y="-42" type="line" smooth="yes"/>
      <point x="484" y="-27" type="line" smooth="yes"/>
      <point x="501" y="-13" type="line" smooth="yes"/>
      <point x="526" y="0" type="line" smooth="yes"/>
      <point x="516" y="150" type="line" smooth="yes"/>
      <point x="516" y="340" type="line" smooth="yes"/>
      <point x="505" y="427" type="line" smooth="yes"/>
      <point x="466" y="491" type="line" smooth="yes"/>
      <point x="393" y="531" type="line" smooth="yes"/>
      <point x="280" y="544" type="line" smooth="yes"/>
      <point x="167" y="529" type="line" smooth="yes"/>
      <point x="95" y="490" type="line" smooth="yes"/>
      <point x="56" y="433" type="line" smooth="yes"/>
      <point x="45" y="364" type="line" smooth="yes"/>
      <point x="45" y="355" type="line" smooth="yes"/>
      <point x="218" y="355" type="line" smooth="yes"/>
      <point x="221" y="374" type="line" smooth="yes"/>
      <point x="230" y="390" type="line" smooth="yes"/>
      <point x="247" y="402" type="line" smooth="yes"/>
      <point x="275" y="406" type="line" smooth="yes"/>
      <point x="301" y="403" type="line" smooth="yes"/>
      <point x="318" y="392" type="line" smooth="yes"/>
      <point x="328" y="375" type="line" smooth="yes"/>
      <point x="332" y="350" type="line" smooth="yes"/>
      <point x="220" y="332" type="line" smooth="yes"/>
      <point x="140" y="314" type="line" smooth="yes"/>
      <point x="78" y="282" type="line" smooth="yes"/>
      <point x="39" y="233" type="line" smooth="yes"/>
      <point x="25" y="160" type="line" smooth="yes"/>
      <point x="25" y="150" type="line" smooth="yes"/>
      <point x="33" y="89" type="line" smooth="yes"/>
      <point x="61" y="36" type="line" smooth="yes"/>
      <point x="111" y="-0" type="line" smooth="yes"/>
      <point x="190" y="-14" type="line" smooth="yes"/>
      <point x="239" y="-9" type="line" smooth="yes"/>
      <point x="282" y="3" type="line" smooth="yes"/>
      <point x="319" y="24" type="line" smooth="yes"/>
      <point x="350" y="50" type="line" smooth="yes"/>
      <point x="363" y="-17" type="line" smooth="yes"/>
      <point x="352" y="-37" type="line" smooth="yes"/>
      <point x="343" y="-58" type="line" smooth="yes"/>
      <point x="338" y="-81" type="line" smooth="yes"/>
    </contour>
    <contour>
      <point x="260" y="134" type="line" smooth="yes"/>
      <point x="236" y="138" type="line" smooth="yes"/>
      <point x="220" y="148" type="line" smooth="yes"/>
      <point x="211" y="161" type="line" smooth="yes"/>
      <point x="208" y="177" type="line" smooth="yes"/>
      <point x="208" y="183" type="line" smooth="yes"/>
      <point x="210" y="200" type="line" smooth="yes"/>
      <point x="218" y="214" type="line" smooth="yes"/>
      <point x="234" y="226" type="line" smooth="yes"/>
      <point x="260" y="233" type="line" smooth="yes"/>
      <point x="332" y="244" type="line" smooth="yes"/>
      <point x="332" y="163" type="line" smooth="yes"/>
      <point x="319" y="153" type="line" smooth="yes"/>
      <point x="302" y="143" type="line" smooth="yes"/>
      <point x="282" y="137" type="line" smooth="yes"/>
    </contour>
  </outline>
</glyph>
