<?xml version="1.0" encoding="UTF-8"?>
<glyph name="edieresis" format="1">
  <advance width="560"/>
  <unicode hex="00EB"/>
  <outline>
    <contour>
      <point x="280" y="406" type="line" smooth="yes"/>
      <point x="309" y="402" type="line" smooth="yes"/>
      <point x="330" y="389" type="line" smooth="yes"/>
      <point x="344" y="366" type="line" smooth="yes"/>
      <point x="351" y="330" type="line" smooth="yes"/>
      <point x="209" y="330" type="line" smooth="yes"/>
      <point x="216" y="366" type="line" smooth="yes"/>
      <point x="230" y="389" type="line" smooth="yes"/>
      <point x="251" y="402" type="line" smooth="yes"/>
    </contour>
    <contour>
      <point x="494" y="780" type="line" smooth="yes"/>
      <point x="304" y="780" type="line" smooth="yes"/>
      <point x="304" y="590" type="line" smooth="yes"/>
      <point x="494" y="590" type="line" smooth="yes"/>
    </contour>
    <contour>
      <point x="264" y="780" type="line" smooth="yes"/>
      <point x="74" y="780" type="line" smooth="yes"/>
      <point x="74" y="590" type="line" smooth="yes"/>
      <point x="264" y="590" type="line" smooth="yes"/>
    </contour>
    <contour>
      <point x="535" y="200" type="line" smooth="yes"/>
      <point x="535" y="280" type="line" smooth="yes"/>
      <point x="520" y="387" type="line" smooth="yes"/>
      <point x="474" y="470" type="line" smooth="yes"/>
      <point x="395" y="525" type="line" smooth="yes"/>
      <point x="284" y="544" type="line" smooth="yes"/>
      <point x="171" y="525" type="line" smooth="yes"/>
      <point x="90" y="470" type="line" smooth="yes"/>
      <point x="41" y="387" type="line" smooth="yes"/>
      <point x="25" y="280" type="line" smooth="yes"/>
      <point x="25" y="250" type="line" smooth="yes"/>
      <point x="41" y="143" type="line" smooth="yes"/>
      <point x="90" y="60" type="line" smooth="yes"/>
      <point x="172" y="5" type="line" smooth="yes"/>
      <point x="290" y="-14" type="line" smooth="yes"/>
      <point x="393" y="-1" type="line" smooth="yes"/>
      <point x="470" y="36" type="line" smooth="yes"/>
      <point x="518" y="93" type="line" smooth="yes"/>
      <point x="535" y="166" type="line" smooth="yes"/>
      <point x="535" y="170" type="line" smooth="yes"/>
      <point x="362" y="170" type="line" smooth="yes"/>
      <point x="357" y="152" type="line" smooth="yes"/>
      <point x="342" y="138" type="line" smooth="yes"/>
      <point x="319" y="128" type="line" smooth="yes"/>
      <point x="291" y="124" type="line" smooth="yes"/>
      <point x="260" y="127" type="line" smooth="yes"/>
      <point x="235" y="140" type="line" smooth="yes"/>
      <point x="218" y="163" type="line" smooth="yes"/>
      <point x="209" y="200" type="line" smooth="yes"/>
    </contour>
  </outline>
</glyph>
