<?xml version="1.0" encoding="UTF-8"?>
<glyph name="hbar" format="1">
  <advance width="595"/>
  <unicode hex="0127"/>
  <outline>
    <contour>
      <point x="234" y="800" type="line" smooth="yes"/>
      <point x="50" y="800" type="line" smooth="yes"/>
      <point x="50" y="730" type="line" smooth="yes"/>
      <point x="-10" y="730" type="line" smooth="yes"/>
      <point x="-10" y="600" type="line" smooth="yes"/>
      <point x="50" y="600" type="line" smooth="yes"/>
      <point x="50" y="0" type="line" smooth="yes"/>
      <point x="234" y="0" type="line" smooth="yes"/>
      <point x="234" y="345" type="line" smooth="yes"/>
      <point x="245" y="358" type="line" smooth="yes"/>
      <point x="261" y="371" type="line" smooth="yes"/>
      <point x="284" y="382" type="line" smooth="yes"/>
      <point x="311" y="386" type="line" smooth="yes"/>
      <point x="341" y="380" type="line" smooth="yes"/>
      <point x="358" y="365" type="line" smooth="yes"/>
      <point x="366" y="345" type="line" smooth="yes"/>
      <point x="368" y="325" type="line" smooth="yes"/>
      <point x="368" y="0" type="line" smooth="yes"/>
      <point x="551" y="0" type="line" smooth="yes"/>
      <point x="551" y="355" type="line" smooth="yes"/>
      <point x="543" y="425" type="line" smooth="yes"/>
      <point x="515" y="485" type="line" smooth="yes"/>
      <point x="465" y="528" type="line" smooth="yes"/>
      <point x="386" y="544" type="line" smooth="yes"/>
      <point x="338" y="540" type="line" smooth="yes"/>
      <point x="297" y="527" type="line" smooth="yes"/>
      <point x="263" y="508" type="line" smooth="yes"/>
      <point x="234" y="483" type="line" smooth="yes"/>
      <point x="234" y="600" type="line" smooth="yes"/>
      <point x="341" y="600" type="line" smooth="yes"/>
      <point x="341" y="730" type="line" smooth="yes"/>
      <point x="234" y="730" type="line" smooth="yes"/>
    </contour>
  </outline>
</glyph>
