<?xml version="1.0" encoding="UTF-8"?>
<glyph name="ij" format="1">
  <advance width="510"/>
  <unicode hex="0133"/>
  <outline>
    <contour>
      <point x="465" y="780" type="line" smooth="yes"/>
      <point x="275" y="780" type="line" smooth="yes"/>
      <point x="275" y="590" type="line" smooth="yes"/>
      <point x="465" y="590" type="line" smooth="yes"/>
    </contour>
    <contour>
      <point x="235" y="780" type="line" smooth="yes"/>
      <point x="45" y="780" type="line" smooth="yes"/>
      <point x="45" y="590" type="line" smooth="yes"/>
      <point x="235" y="590" type="line" smooth="yes"/>
    </contour>
    <contour>
      <point x="48" y="0" type="line" smooth="yes"/>
      <point x="232" y="0" type="line" smooth="yes"/>
      <point x="232" y="530" type="line" smooth="yes"/>
      <point x="48" y="530" type="line" smooth="yes"/>
    </contour>
    <contour>
      <point x="278" y="15" type="line" smooth="yes"/>
      <point x="273" y="-21" type="line" smooth="yes"/>
      <point x="258" y="-43" type="line" smooth="yes"/>
      <point x="236" y="-53" type="line" smooth="yes"/>
      <point x="207" y="-56" type="line" smooth="yes"/>
      <point x="194" y="-55" type="line" smooth="yes"/>
      <point x="180" y="-54" type="line" smooth="yes"/>
      <point x="168" y="-52" type="line" smooth="yes"/>
      <point x="161" y="-50" type="line" smooth="yes"/>
      <point x="161" y="-200" type="line" smooth="yes"/>
      <point x="172" y="-204" type="line" smooth="yes"/>
      <point x="190" y="-209" type="line" smooth="yes"/>
      <point x="216" y="-213" type="line" smooth="yes"/>
      <point x="250" y="-214" type="line" smooth="yes"/>
      <point x="337" y="-203" type="line" smooth="yes"/>
      <point x="404" y="-168" type="line" smooth="yes"/>
      <point x="447" y="-103" type="line" smooth="yes"/>
      <point x="462" y="-5" type="line" smooth="yes"/>
      <point x="462" y="530" type="line" smooth="yes"/>
      <point x="278" y="530" type="line" smooth="yes"/>
    </contour>
  </outline>
</glyph>
