<?xml version="1.0" encoding="UTF-8"?>
<glyph name="Ncaron" format="1">
  <advance width="690"/>
  <unicode hex="0147"/>
  <outline>
    <contour>
      <point x="120" y="950" type="line" smooth="yes"/>
      <point x="250" y="840" type="line" smooth="yes"/>
      <point x="440" y="840" type="line" smooth="yes"/>
      <point x="570" y="950" type="line" smooth="yes"/>
      <point x="405" y="950" type="line" smooth="yes"/>
      <point x="345" y="910" type="line" smooth="yes"/>
      <point x="285" y="950" type="line" smooth="yes"/>
    </contour>
    <contour>
      <point x="640" y="780" type="line" smooth="yes"/>
      <point x="460" y="780" type="line" smooth="yes"/>
      <point x="460" y="500" type="line" smooth="yes"/>
      <point x="465" y="350" type="line" smooth="yes"/>
      <point x="250" y="780" type="line" smooth="yes"/>
      <point x="50" y="780" type="line" smooth="yes"/>
      <point x="50" y="0" type="line" smooth="yes"/>
      <point x="230" y="0" type="line" smooth="yes"/>
      <point x="230" y="280" type="line" smooth="yes"/>
      <point x="225" y="430" type="line" smooth="yes"/>
      <point x="440" y="0" type="line" smooth="yes"/>
      <point x="640" y="0" type="line" smooth="yes"/>
    </contour>
  </outline>
</glyph>
