<?xml version="1.0" encoding="UTF-8"?>
<glyph name="Ycircumflex" format="1">
  <advance width="640"/>
  <unicode hex="0176"/>
  <outline>
    <contour>
      <point x="260" y="840" type="line" smooth="yes"/>
      <point x="320" y="879" type="line" smooth="yes"/>
      <point x="380" y="840" type="line" smooth="yes"/>
      <point x="545" y="840" type="line" smooth="yes"/>
      <point x="415" y="950" type="line" smooth="yes"/>
      <point x="225" y="950" type="line" smooth="yes"/>
      <point x="95" y="840" type="line" smooth="yes"/>
    </contour>
    <contour>
      <point x="415" y="240" type="line" smooth="yes"/>
      <point x="636" y="780" type="line" smooth="yes"/>
      <point x="428" y="780" type="line" smooth="yes"/>
      <point x="320" y="474" type="line" smooth="yes"/>
      <point x="212" y="780" type="line" smooth="yes"/>
      <point x="4" y="780" type="line" smooth="yes"/>
      <point x="225" y="240" type="line" smooth="yes"/>
      <point x="225" y="0" type="line" smooth="yes"/>
      <point x="415" y="0" type="line" smooth="yes"/>
    </contour>
  </outline>
</glyph>
