<?xml version="1.0" encoding="UTF-8"?>
<glyph name="Ucircumflex" format="1">
  <advance width="620"/>
  <unicode hex="00DB"/>
  <outline>
    <contour>
      <point x="286" y="840" type="line" smooth="yes"/>
      <point x="385" y="935" type="line" smooth="yes"/>
      <point x="458" y="840" type="line" smooth="yes"/>
      <point x="481" y="840" type="line" smooth="yes"/>
      <point x="396" y="950" type="line" smooth="yes"/>
      <point x="376" y="950" type="line" smooth="yes"/>
      <point x="261" y="840" type="line" smooth="yes"/>
    </contour>
    <contour>
      <point x="267" y="-6" type="line" smooth="yes"/>
      <point x="391" y="15" type="line" smooth="yes"/>
      <point x="478" y="90" type="line" smooth="yes"/>
      <point x="525" y="239" type="line" smooth="yes"/>
      <point x="596" y="780" type="line" smooth="yes"/>
      <point x="576" y="780" type="line" smooth="yes"/>
      <point x="506" y="245" type="line" smooth="yes"/>
      <point x="463" y="105" type="line" smooth="yes"/>
      <point x="384" y="34" type="line" smooth="yes"/>
      <point x="267" y="14" type="line" smooth="yes"/>
      <point x="153" y="33" type="line" smooth="yes"/>
      <point x="88" y="104" type="line" smooth="yes"/>
      <point x="80" y="244" type="line" smooth="yes"/>
      <point x="150" y="780" type="line" smooth="yes"/>
      <point x="130" y="780" type="line" smooth="yes"/>
      <point x="59" y="239" type="line" smooth="yes"/>
      <point x="71" y="90" type="line" smooth="yes"/>
      <point x="145" y="15" type="line" smooth="yes"/>
    </contour>
  </outline>
</glyph>
