<?xml version="1.0" encoding="UTF-8"?>
<glyph name="umacron" format="1">
  <advance width="490"/>
  <unicode hex="016B"/>
  <outline>
    <contour>
      <point x="181" y="690" type="line" smooth="yes"/>
      <point x="381" y="690" type="line" smooth="yes"/>
      <point x="384" y="710" type="line" smooth="yes"/>
      <point x="184" y="710" type="line" smooth="yes"/>
    </contour>
    <contour>
      <point x="80" y="530" type="line" smooth="yes"/>
      <point x="30" y="149" type="line" smooth="yes"/>
      <point x="40" y="60" type="line" smooth="yes"/>
      <point x="92" y="10" type="line" smooth="yes"/>
      <point x="178" y="-6" type="line" smooth="yes"/>
      <point x="263" y="9" type="line" smooth="yes"/>
      <point x="324" y="43" type="line" smooth="yes"/>
      <point x="365" y="86" type="line" smooth="yes"/>
      <point x="360" y="0" type="line" smooth="yes"/>
      <point x="376" y="0" type="line" smooth="yes"/>
      <point x="386" y="118" type="line" smooth="yes"/>
      <point x="440" y="530" type="line" smooth="yes"/>
      <point x="420" y="530" type="line" smooth="yes"/>
      <point x="365" y="111" type="line" smooth="yes"/>
      <point x="323" y="67" type="line" smooth="yes"/>
      <point x="262" y="30" type="line" smooth="yes"/>
      <point x="178" y="14" type="line" smooth="yes"/>
      <point x="104" y="27" type="line" smooth="yes"/>
      <point x="59" y="73" type="line" smooth="yes"/>
      <point x="51" y="156" type="line" smooth="yes"/>
      <point x="100" y="530" type="line" smooth="yes"/>
    </contour>
  </outline>
</glyph>
