<?xml version="1.0" encoding="UTF-8"?>
<glyph name="interrobangdown" format="1">
  <advance width="510"/>
  <unicode hex="E935"/>
  <outline>
    <contour>
      <point x="201" y="12" type="line" smooth="yes"/>
      <point x="210" y="60" type="line" smooth="yes"/>
      <point x="230" y="104" type="line" smooth="yes"/>
      <point x="227" y="-46" type="line" smooth="yes"/>
      <point x="207" y="-25" type="line" smooth="yes"/>
    </contour>
    <contour>
      <point x="165" y="340" type="line" smooth="yes"/>
      <point x="355" y="340" type="line" smooth="yes"/>
      <point x="355" y="530" type="line" smooth="yes"/>
      <point x="165" y="530" type="line" smooth="yes"/>
    </contour>
    <contour>
      <point x="15" y="-25" type="line" smooth="yes"/>
      <point x="62" y="-152" type="line" smooth="yes"/>
      <point x="250" y="-214" type="line" smooth="yes"/>
      <point x="436" y="-151" type="line" smooth="yes"/>
      <point x="490" y="41" type="line" smooth="yes"/>
      <point x="490" y="60" type="line" smooth="yes"/>
      <point x="324" y="60" type="line" smooth="yes"/>
      <point x="317" y="-6" type="line" smooth="yes"/>
      <point x="295" y="-41" type="line" smooth="yes"/>
      <point x="288" y="290" type="line" smooth="yes"/>
      <point x="195" y="290" type="line" smooth="yes"/>
      <point x="99" y="150" type="line" smooth="yes"/>
    </contour>
  </outline>
</glyph>
