<?xml version="1.0" encoding="UTF-8"?>
<glyph name="invertedbreve" format="1">
  <advance width="499"/>
  <unicode hex="E411"/>
  <outline>
    <contour>
      <point x="250" y="794" type="line" smooth="yes"/>
      <point x="96" y="736" type="line" smooth="yes"/>
      <point x="55" y="590" type="line" smooth="yes"/>
      <point x="185" y="590" type="line" smooth="yes"/>
      <point x="205" y="644" type="line" smooth="yes"/>
      <point x="250" y="656" type="line" smooth="yes"/>
      <point x="295" y="644" type="line" smooth="yes"/>
      <point x="315" y="590" type="line" smooth="yes"/>
      <point x="445" y="590" type="line" smooth="yes"/>
      <point x="404" y="736" type="line" smooth="yes"/>
    </contour>
  </outline>
</glyph>
