<?xml version="1.0" encoding="UTF-8"?>
<glyph name="ordfeminine" format="1">
  <advance width="440"/>
  <unicode hex="00AA"/>
  <outline>
    <contour>
      <point x="212" y="503" type="line" smooth="yes"/>
      <point x="190" y="511" type="line" smooth="yes"/>
      <point x="184" y="527" type="line" smooth="yes"/>
      <point x="184" y="530" type="line" smooth="yes"/>
      <point x="190" y="547" type="line" smooth="yes"/>
      <point x="211" y="557" type="line" smooth="yes"/>
      <point x="250" y="563" type="line" smooth="yes"/>
      <point x="250" y="516" type="line" smooth="yes"/>
      <point x="232" y="507" type="line" smooth="yes"/>
    </contour>
    <contour>
      <point x="37" y="172" type="line" smooth="yes"/>
      <point x="415" y="172" type="line" smooth="yes"/>
      <point x="415" y="309" type="line" smooth="yes"/>
      <point x="37" y="309" type="line" smooth="yes"/>
    </contour>
    <contour>
      <point x="273" y="387" type="line" smooth="yes"/>
      <point x="418" y="387" type="line" smooth="yes"/>
      <point x="410" y="499" type="line" smooth="yes"/>
      <point x="410" y="640" type="line" smooth="yes"/>
      <point x="370" y="755" type="line" smooth="yes"/>
      <point x="224" y="794" type="line" smooth="yes"/>
      <point x="80" y="755" type="line" smooth="yes"/>
      <point x="40" y="659" type="line" smooth="yes"/>
      <point x="40" y="652" type="line" smooth="yes"/>
      <point x="190" y="652" type="line" smooth="yes"/>
      <point x="196" y="668" type="line" smooth="yes"/>
      <point x="220" y="676" type="line" smooth="yes"/>
      <point x="241" y="670" type="line" smooth="yes"/>
      <point x="249" y="652" type="line" smooth="yes"/>
      <point x="175" y="640" type="line" smooth="yes"/>
      <point x="64" y="602" type="line" smooth="yes"/>
      <point x="25" y="509" type="line" smooth="yes"/>
      <point x="25" y="502" type="line" smooth="yes"/>
      <point x="51" y="415" type="line" smooth="yes"/>
      <point x="151" y="376" type="line" smooth="yes"/>
      <point x="217" y="388" type="line" smooth="yes"/>
      <point x="266" y="421" type="line" smooth="yes"/>
    </contour>
  </outline>
</glyph>
