<?xml version="1.0" encoding="UTF-8"?>
<glyph name="quoteleft" format="1">
  <advance width="280"/>
  <unicode hex="2018"/>
  <outline>
    <contour>
      <point x="45" y="470" type="line" smooth="yes"/>
      <point x="235" y="470" type="line" smooth="yes"/>
      <point x="235" y="660" type="line" smooth="yes"/>
      <point x="140" y="660" type="line" smooth="yes"/>
      <point x="173" y="705" type="line" smooth="yes"/>
      <point x="235" y="720" type="line" smooth="yes"/>
      <point x="235" y="810" type="line" smooth="yes"/>
      <point x="93" y="762" type="line" smooth="yes"/>
      <point x="45" y="620" type="line" smooth="yes"/>
    </contour>
  </outline>
</glyph>
