<?xml version="1.0" encoding="UTF-8"?>
<glyph name="rcaron" format="1">
  <advance width="400"/>
  <unicode hex="0159"/>
  <outline>
    <contour>
      <point x="-15" y="780" type="line" smooth="yes"/>
      <point x="120" y="590" type="line" smooth="yes"/>
      <point x="300" y="590" type="line" smooth="yes"/>
      <point x="435" y="780" type="line" smooth="yes"/>
      <point x="275" y="780" type="line" smooth="yes"/>
      <point x="210" y="706" type="line" smooth="yes"/>
      <point x="145" y="780" type="line" smooth="yes"/>
    </contour>
    <contour>
      <point x="356" y="544" type="line" smooth="yes"/>
      <point x="276" y="524" type="line" smooth="yes"/>
      <point x="217" y="471" type="line" smooth="yes"/>
      <point x="206" y="530" type="line" smooth="yes"/>
      <point x="40" y="530" type="line" smooth="yes"/>
      <point x="50" y="380" type="line" smooth="yes"/>
      <point x="50" y="0" type="line" smooth="yes"/>
      <point x="234" y="0" type="line" smooth="yes"/>
      <point x="234" y="320" type="line" smooth="yes"/>
      <point x="270" y="343" type="line" smooth="yes"/>
      <point x="341" y="355" type="line" smooth="yes"/>
      <point x="371" y="355" type="line" smooth="yes"/>
      <point x="371" y="543" type="line" smooth="yes"/>
      <point x="364" y="544" type="line" smooth="yes"/>
    </contour>
  </outline>
</glyph>
