<?xml version="1.0" encoding="UTF-8"?>
<glyph name="tcaron" format="1">
  <advance width="440"/>
  <unicode hex="0165"/>
  <outline>
    <contour>
      <point x="329" y="800" type="line" smooth="yes"/>
      <point x="329" y="590" type="line" smooth="yes"/>
      <point x="409" y="590" type="line" smooth="yes"/>
      <point x="434" y="800" type="line" smooth="yes"/>
    </contour>
    <contour>
      <point x="279" y="530" type="line" smooth="yes"/>
      <point x="279" y="680" type="line" smooth="yes"/>
      <point x="95" y="680" type="line" smooth="yes"/>
      <point x="95" y="530" type="line" smooth="yes"/>
      <point x="15" y="530" type="line" smooth="yes"/>
      <point x="15" y="370" type="line" smooth="yes"/>
      <point x="95" y="370" type="line" smooth="yes"/>
      <point x="95" y="195" type="line" smooth="yes"/>
      <point x="153" y="32" type="line" smooth="yes"/>
      <point x="307" y="-14" type="line" smooth="yes"/>
      <point x="367" y="-9" type="line" smooth="yes"/>
      <point x="396" y="0" type="line" smooth="yes"/>
      <point x="396" y="150" type="line" smooth="yes"/>
      <point x="377" y="146" type="line" smooth="yes"/>
      <point x="350" y="144" type="line" smooth="yes"/>
      <point x="299" y="157" type="line" smooth="yes"/>
      <point x="279" y="215" type="line" smooth="yes"/>
      <point x="279" y="370" type="line" smooth="yes"/>
      <point x="406" y="370" type="line" smooth="yes"/>
      <point x="406" y="530" type="line" smooth="yes"/>
    </contour>
  </outline>
</glyph>
