<?xml version="1.0" encoding="UTF-8"?>
<glyph name="underscoremonospace" format="1">
  <advance width="600"/>
  <unicode hex="E512"/>
  <outline>
    <contour>
      <point x="40" y="-200" type="line" smooth="yes"/>
      <point x="560" y="-200" type="line" smooth="yes"/>
      <point x="560" y="-40" type="line" smooth="yes"/>
      <point x="40" y="-40" type="line" smooth="yes"/>
    </contour>
  </outline>
</glyph>
