<?xml version="1.0" encoding="UTF-8"?>
<glyph name="underscore" format="1">
  <advance width="320"/>
  <unicode hex="005F"/>
  <outline>
    <contour>
      <point x="40" y="-200" type="line" smooth="yes"/>
      <point x="280" y="-200" type="line" smooth="yes"/>
      <point x="280" y="-40" type="line" smooth="yes"/>
      <point x="40" y="-40" type="line" smooth="yes"/>
    </contour>
  </outline>
</glyph>
