<?xml version="1.0" encoding="UTF-8"?>
<glyph name="X" format="1">
  <advance width="660"/>
  <unicode hex="0058"/>
  <outline>
    <contour>
      <point x="15" y="0" type="line" smooth="yes"/>
      <point x="225" y="0" type="line" smooth="yes"/>
      <point x="330" y="265" type="line" smooth="yes"/>
      <point x="435" y="0" type="line" smooth="yes"/>
      <point x="645" y="0" type="line" smooth="yes"/>
      <point x="464" y="413" type="line" smooth="yes"/>
      <point x="645" y="780" type="line" smooth="yes"/>
      <point x="425" y="780" type="line" smooth="yes"/>
      <point x="330" y="542" type="line" smooth="yes"/>
      <point x="235" y="780" type="line" smooth="yes"/>
      <point x="15" y="780" type="line" smooth="yes"/>
      <point x="195" y="413" type="line" smooth="yes"/>
    </contour>
  </outline>
</glyph>
