<?xml version="1.0" encoding="UTF-8"?>
<glyph name="amacron" format="1">
  <advance width="500"/>
  <unicode hex="0101"/>
  <outline>
    <contour>
      <point x="145" y="680" type="line" smooth="yes"/>
      <point x="355" y="680" type="line" smooth="yes"/>
      <point x="355" y="720" type="line" smooth="yes"/>
      <point x="145" y="720" type="line" smooth="yes"/>
    </contour>
    <contour>
      <point x="205" y="28" type="line" smooth="yes"/>
      <point x="153" y="36" type="line" smooth="yes"/>
      <point x="118" y="59" type="line" smooth="yes"/>
      <point x="97" y="92" type="line" smooth="yes"/>
      <point x="90" y="130" type="line" smooth="yes"/>
      <point x="90" y="140" type="line" smooth="yes"/>
      <point x="99" y="186" type="line" smooth="yes"/>
      <point x="124" y="221" type="line" smooth="yes"/>
      <point x="164" y="245" type="line" smooth="yes"/>
      <point x="215" y="259" type="line" smooth="yes"/>
      <point x="390" y="288" type="line" smooth="yes"/>
      <point x="390" y="128" type="line" smooth="yes"/>
      <point x="370" y="98" type="line" smooth="yes"/>
      <point x="335" y="65" type="line" smooth="yes"/>
      <point x="281" y="39" type="line" smooth="yes"/>
    </contour>
    <contour>
      <point x="405" y="0" type="line" smooth="yes"/>
      <point x="435" y="0" type="line" smooth="yes"/>
      <point x="430" y="150" type="line" smooth="yes"/>
      <point x="430" y="345" type="line" smooth="yes"/>
      <point x="421" y="423" type="line" smooth="yes"/>
      <point x="392" y="485" type="line" smooth="yes"/>
      <point x="336" y="525" type="line" smooth="yes"/>
      <point x="250" y="540" type="line" smooth="yes"/>
      <point x="159" y="523" type="line" smooth="yes"/>
      <point x="104" y="481" type="line" smooth="yes"/>
      <point x="77" y="424" type="line" smooth="yes"/>
      <point x="70" y="364" type="line" smooth="yes"/>
      <point x="70" y="355" type="line" smooth="yes"/>
      <point x="110" y="355" type="line" smooth="yes"/>
      <point x="116" y="412" type="line" smooth="yes"/>
      <point x="137" y="459" type="line" smooth="yes"/>
      <point x="180" y="490" type="line" smooth="yes"/>
      <point x="250" y="502" type="line" smooth="yes"/>
      <point x="317" y="492" type="line" smooth="yes"/>
      <point x="360" y="462" type="line" smooth="yes"/>
      <point x="383" y="413" type="line" smooth="yes"/>
      <point x="390" y="345" type="line" smooth="yes"/>
      <point x="390" y="325" type="line" smooth="yes"/>
      <point x="218" y="298" type="line" smooth="yes"/>
      <point x="159" y="284" type="line" smooth="yes"/>
      <point x="105" y="258" type="line" smooth="yes"/>
      <point x="65" y="212" type="line" smooth="yes"/>
      <point x="50" y="140" type="line" smooth="yes"/>
      <point x="50" y="130" type="line" smooth="yes"/>
      <point x="61" y="72" type="line" smooth="yes"/>
      <point x="91" y="28" type="line" smooth="yes"/>
      <point x="139" y="-0" type="line" smooth="yes"/>
      <point x="200" y="-10" type="line" smooth="yes"/>
      <point x="268" y="-2" type="line" smooth="yes"/>
      <point x="322" y="18" type="line" smooth="yes"/>
      <point x="364" y="47" type="line" smooth="yes"/>
      <point x="395" y="80" type="line" smooth="yes"/>
    </contour>
  </outline>
</glyph>
