<?xml version="1.0" encoding="UTF-8"?>
<glyph name="commaaccent" format="1">
  <advance width="602"/>
  <unicode hex="F6C3"/>
  <outline>
    <contour>
      <point x="280" y="-60" type="line" smooth="yes"/>
      <point x="220" y="-60" type="line" smooth="yes"/>
      <point x="220" y="-120" type="line" smooth="yes"/>
      <point x="250" y="-120" type="line" smooth="yes"/>
      <point x="244" y="-147" type="line" smooth="yes"/>
      <point x="231" y="-166" type="line" smooth="yes"/>
      <point x="212" y="-177" type="line" smooth="yes"/>
      <point x="190" y="-180" type="line" smooth="yes"/>
      <point x="190" y="-210" type="line" smooth="yes"/>
      <point x="227" y="-203" type="line" smooth="yes"/>
      <point x="256" y="-182" type="line" smooth="yes"/>
      <point x="274" y="-150" type="line" smooth="yes"/>
      <point x="280" y="-108" type="line" smooth="yes"/>
    </contour>
  </outline>
</glyph>
