<?xml version="1.0" encoding="UTF-8"?>
<glyph name="egrave" format="1">
  <advance width="540"/>
  <unicode hex="00E8"/>
  <outline>
    <contour>
      <point x="159" y="780" type="line" smooth="yes"/>
      <point x="249" y="620" type="line" smooth="yes"/>
      <point x="291" y="620" type="line" smooth="yes"/>
      <point x="201" y="780" type="line" smooth="yes"/>
    </contour>
    <contour>
      <point x="270" y="502" type="line" smooth="yes"/>
      <point x="346" y="486" type="line" smooth="yes"/>
      <point x="399" y="442" type="line" smooth="yes"/>
      <point x="431" y="373" type="line" smooth="yes"/>
      <point x="443" y="284" type="line" smooth="yes"/>
      <point x="97" y="284" type="line" smooth="yes"/>
      <point x="108" y="373" type="line" smooth="yes"/>
      <point x="140" y="442" type="line" smooth="yes"/>
      <point x="194" y="486" type="line" smooth="yes"/>
    </contour>
    <contour>
      <point x="485" y="246" type="line" smooth="yes"/>
      <point x="485" y="275" type="line" smooth="yes"/>
      <point x="473" y="378" type="line" smooth="yes"/>
      <point x="434" y="462" type="line" smooth="yes"/>
      <point x="367" y="519" type="line" smooth="yes"/>
      <point x="270" y="540" type="line" smooth="yes"/>
      <point x="173" y="519" type="line" smooth="yes"/>
      <point x="106" y="462" type="line" smooth="yes"/>
      <point x="67" y="378" type="line" smooth="yes"/>
      <point x="55" y="275" type="line" smooth="yes"/>
      <point x="55" y="255" type="line" smooth="yes"/>
      <point x="68" y="152" type="line" smooth="yes"/>
      <point x="107" y="68" type="line" smooth="yes"/>
      <point x="175" y="11" type="line" smooth="yes"/>
      <point x="275" y="-10" type="line" smooth="yes"/>
      <point x="370" y="7" type="line" smooth="yes"/>
      <point x="436" y="50" type="line" smooth="yes"/>
      <point x="473" y="106" type="line" smooth="yes"/>
      <point x="485" y="166" type="line" smooth="yes"/>
      <point x="485" y="170" type="line" smooth="yes"/>
      <point x="445" y="170" type="line" smooth="yes"/>
      <point x="436" y="120" type="line" smooth="yes"/>
      <point x="406" y="75" type="line" smooth="yes"/>
      <point x="353" y="41" type="line" smooth="yes"/>
      <point x="275" y="28" type="line" smooth="yes"/>
      <point x="196" y="44" type="line" smooth="yes"/>
      <point x="141" y="88" type="line" smooth="yes"/>
      <point x="108" y="157" type="line" smooth="yes"/>
      <point x="97" y="246" type="line" smooth="yes"/>
    </contour>
  </outline>
</glyph>
