<?xml version="1.0" encoding="UTF-8"?>
<glyph name="fivesixteenths" format="1">
  <advance width="1100"/>
  <unicode hex="F217"/>
  <outline>
    <contour>
      <point x="774" y="0" type="line" smooth="yes"/>
      <point x="774" y="32" type="line" smooth="yes"/>
      <point x="673" y="32" type="line" smooth="yes"/>
      <point x="673" y="392" type="line" smooth="yes"/>
      <point x="650" y="392" type="line" smooth="yes"/>
      <point x="527" y="309" type="line" smooth="yes"/>
      <point x="545" y="281" type="line" smooth="yes"/>
      <point x="637" y="343" type="line" smooth="yes"/>
      <point x="637" y="32" type="line" smooth="yes"/>
      <point x="535" y="32" type="line" smooth="yes"/>
      <point x="535" y="0" type="line" smooth="yes"/>
    </contour>
    <contour>
      <point x="953" y="213" type="line" smooth="yes"/>
      <point x="956" y="213" type="line" smooth="yes"/>
      <point x="991" y="207" type="line" smooth="yes"/>
      <point x="1018" y="190" type="line" smooth="yes"/>
      <point x="1035" y="162" type="line" smooth="yes"/>
      <point x="1041" y="124" type="line" smooth="yes"/>
      <point x="1041" y="116" type="line" smooth="yes"/>
      <point x="1035" y="78" type="line" smooth="yes"/>
      <point x="1017" y="50" type="line" smooth="yes"/>
      <point x="989" y="32" type="line" smooth="yes"/>
      <point x="953" y="26" type="line" smooth="yes"/>
      <point x="950" y="26" type="line" smooth="yes"/>
      <point x="916" y="33" type="line" smooth="yes"/>
      <point x="889" y="54" type="line" smooth="yes"/>
      <point x="870" y="86" type="line" smooth="yes"/>
      <point x="863" y="130" type="line" smooth="yes"/>
      <point x="863" y="158" type="line" smooth="yes"/>
      <point x="879" y="181" type="line" smooth="yes"/>
      <point x="899" y="198" type="line" smooth="yes"/>
      <point x="924" y="209" type="line" smooth="yes"/>
    </contour>
    <contour>
      <point x="134" y="0" type="line" smooth="yes"/>
      <point x="710" y="780" type="line" smooth="yes"/>
      <point x="666" y="780" type="line" smooth="yes"/>
      <point x="90" y="0" type="line" smooth="yes"/>
    </contour>
    <contour>
      <point x="25" y="515" type="line" smooth="yes"/>
      <point x="25" y="509" type="line" smooth="yes"/>
      <point x="33" y="457" type="line" smooth="yes"/>
      <point x="56" y="418" type="line" smooth="yes"/>
      <point x="95" y="393" type="line" smooth="yes"/>
      <point x="150" y="384" type="line" smooth="yes"/>
      <point x="199" y="392" type="line" smooth="yes"/>
      <point x="239" y="416" type="line" smooth="yes"/>
      <point x="265" y="454" type="line" smooth="yes"/>
      <point x="274" y="508" type="line" smooth="yes"/>
      <point x="274" y="514" type="line" smooth="yes"/>
      <point x="265" y="567" type="line" smooth="yes"/>
      <point x="239" y="606" type="line" smooth="yes"/>
      <point x="200" y="629" type="line" smooth="yes"/>
      <point x="151" y="637" type="line" smooth="yes"/>
      <point x="126" y="635" type="line" smooth="yes"/>
      <point x="103" y="629" type="line" smooth="yes"/>
      <point x="83" y="620" type="line" smooth="yes"/>
      <point x="66" y="608" type="line" smooth="yes"/>
      <point x="72" y="747" type="line" smooth="yes"/>
      <point x="269" y="747" type="line" smooth="yes"/>
      <point x="269" y="780" type="line" smooth="yes"/>
      <point x="38" y="780" type="line" smooth="yes"/>
      <point x="28" y="561" type="line" smooth="yes"/>
      <point x="58" y="552" type="line" smooth="yes"/>
      <point x="73" y="575" type="line" smooth="yes"/>
      <point x="95" y="592" type="line" smooth="yes"/>
      <point x="120" y="602" type="line" smooth="yes"/>
      <point x="147" y="605" type="line" smooth="yes"/>
      <point x="151" y="605" type="line" smooth="yes"/>
      <point x="184" y="600" type="line" smooth="yes"/>
      <point x="212" y="584" type="line" smooth="yes"/>
      <point x="232" y="556" type="line" smooth="yes"/>
      <point x="239" y="515" type="line" smooth="yes"/>
      <point x="239" y="506" type="line" smooth="yes"/>
      <point x="232" y="465" type="line" smooth="yes"/>
      <point x="212" y="437" type="line" smooth="yes"/>
      <point x="185" y="421" type="line" smooth="yes"/>
      <point x="152" y="416" type="line" smooth="yes"/>
      <point x="147" y="416" type="line" smooth="yes"/>
      <point x="111" y="422" type="line" smooth="yes"/>
      <point x="84" y="440" type="line" smooth="yes"/>
      <point x="67" y="471" type="line" smooth="yes"/>
      <point x="61" y="515" type="line" smooth="yes"/>
    </contour>
    <contour>
      <point x="1058" y="395" type="line" smooth="yes"/>
      <point x="1010" y="391" type="line" smooth="yes"/>
      <point x="963" y="377" type="line" smooth="yes"/>
      <point x="919" y="352" type="line" smooth="yes"/>
      <point x="882" y="315" type="line" smooth="yes"/>
      <point x="856" y="273" type="line" smooth="yes"/>
      <point x="839" y="229" type="line" smooth="yes"/>
      <point x="830" y="183" type="line" smooth="yes"/>
      <point x="827" y="137" type="line" smooth="yes"/>
      <point x="827" y="131" type="line" smooth="yes"/>
      <point x="836" y="73" type="line" smooth="yes"/>
      <point x="863" y="30" type="line" smooth="yes"/>
      <point x="902" y="3" type="line" smooth="yes"/>
      <point x="952" y="-6" type="line" smooth="yes"/>
      <point x="1003" y="2" type="line" smooth="yes"/>
      <point x="1042" y="25" type="line" smooth="yes"/>
      <point x="1067" y="63" type="line" smooth="yes"/>
      <point x="1076" y="117" type="line" smooth="yes"/>
      <point x="1076" y="122" type="line" smooth="yes"/>
      <point x="1067" y="176" type="line" smooth="yes"/>
      <point x="1043" y="215" type="line" smooth="yes"/>
      <point x="1006" y="237" type="line" smooth="yes"/>
      <point x="959" y="245" type="line" smooth="yes"/>
      <point x="933" y="242" type="line" smooth="yes"/>
      <point x="909" y="235" type="line" smooth="yes"/>
      <point x="888" y="223" type="line" smooth="yes"/>
      <point x="871" y="209" type="line" smooth="yes"/>
      <point x="877" y="231" type="line" smooth="yes"/>
      <point x="886" y="253" type="line" smooth="yes"/>
      <point x="897" y="274" type="line" smooth="yes"/>
      <point x="911" y="294" type="line" smooth="yes"/>
      <point x="942" y="325" type="line" smooth="yes"/>
      <point x="979" y="347" type="line" smooth="yes"/>
      <point x="1019" y="359" type="line" smooth="yes"/>
      <point x="1058" y="363" type="line" smooth="yes"/>
    </contour>
  </outline>
</glyph>
