<?xml version="1.0" encoding="UTF-8"?>
<glyph name="M" format="1">
  <advance width="780"/>
  <unicode hex="004D"/>
  <outline>
    <contour>
      <point x="663" y="710" type="line" smooth="yes"/>
      <point x="660" y="530" type="line" smooth="yes"/>
      <point x="660" y="0" type="line" smooth="yes"/>
      <point x="700" y="0" type="line" smooth="yes"/>
      <point x="700" y="780" type="line" smooth="yes"/>
      <point x="648" y="780" type="line" smooth="yes"/>
      <point x="390" y="68" type="line" smooth="yes"/>
      <point x="132" y="780" type="line" smooth="yes"/>
      <point x="80" y="780" type="line" smooth="yes"/>
      <point x="80" y="0" type="line" smooth="yes"/>
      <point x="120" y="0" type="line" smooth="yes"/>
      <point x="120" y="530" type="line" smooth="yes"/>
      <point x="117" y="710" type="line" smooth="yes"/>
      <point x="375" y="0" type="line" smooth="yes"/>
      <point x="405" y="0" type="line" smooth="yes"/>
    </contour>
  </outline>
</glyph>
