<?xml version="1.0" encoding="UTF-8"?>
<glyph name="scedilla" format="1">
  <advance width="520"/>
  <unicode hex="015F"/>
  <outline>
    <contour>
      <point x="169" y="-188" type="line" smooth="yes"/>
      <point x="187" y="-197" type="line" smooth="yes"/>
      <point x="208" y="-204" type="line" smooth="yes"/>
      <point x="232" y="-209" type="line" smooth="yes"/>
      <point x="257" y="-210" type="line" smooth="yes"/>
      <point x="295" y="-206" type="line" smooth="yes"/>
      <point x="326" y="-193" type="line" smooth="yes"/>
      <point x="347" y="-170" type="line" smooth="yes"/>
      <point x="354" y="-135" type="line" smooth="yes"/>
      <point x="345" y="-101" type="line" smooth="yes"/>
      <point x="323" y="-79" type="line" smooth="yes"/>
      <point x="293" y="-67" type="line" smooth="yes"/>
      <point x="261" y="-64" type="line" smooth="yes"/>
      <point x="256" y="-64" type="line" smooth="yes"/>
      <point x="276" y="-9" type="line" smooth="yes"/>
      <point x="352" y="5" type="line" smooth="yes"/>
      <point x="408" y="36" type="line" smooth="yes"/>
      <point x="443" y="82" type="line" smooth="yes"/>
      <point x="455" y="138" type="line" smooth="yes"/>
      <point x="455" y="142" type="line" smooth="yes"/>
      <point x="446" y="202" type="line" smooth="yes"/>
      <point x="415" y="245" type="line" smooth="yes"/>
      <point x="359" y="272" type="line" smooth="yes"/>
      <point x="275" y="286" type="line" smooth="yes"/>
      <point x="194" y="299" type="line" smooth="yes"/>
      <point x="144" y="321" type="line" smooth="yes"/>
      <point x="120" y="353" type="line" smooth="yes"/>
      <point x="113" y="395" type="line" smooth="yes"/>
      <point x="123" y="441" type="line" smooth="yes"/>
      <point x="152" y="474" type="line" smooth="yes"/>
      <point x="198" y="495" type="line" smooth="yes"/>
      <point x="260" y="502" type="line" smooth="yes"/>
      <point x="332" y="492" type="line" smooth="yes"/>
      <point x="379" y="464" type="line" smooth="yes"/>
      <point x="403" y="419" type="line" smooth="yes"/>
      <point x="410" y="360" type="line" smooth="yes"/>
      <point x="450" y="360" type="line" smooth="yes"/>
      <point x="450" y="364" type="line" smooth="yes"/>
      <point x="440" y="434" type="line" smooth="yes"/>
      <point x="408" y="490" type="line" smooth="yes"/>
      <point x="349" y="527" type="line" smooth="yes"/>
      <point x="260" y="540" type="line" smooth="yes"/>
      <point x="178" y="529" type="line" smooth="yes"/>
      <point x="119" y="499" type="line" smooth="yes"/>
      <point x="83" y="454" type="line" smooth="yes"/>
      <point x="71" y="397" type="line" smooth="yes"/>
      <point x="71" y="392" type="line" smooth="yes"/>
      <point x="79" y="342" type="line" smooth="yes"/>
      <point x="106" y="300" type="line" smooth="yes"/>
      <point x="159" y="270" type="line" smooth="yes"/>
      <point x="245" y="253" type="line" smooth="yes"/>
      <point x="321" y="243" type="line" smooth="yes"/>
      <point x="373" y="225" type="line" smooth="yes"/>
      <point x="403" y="192" type="line" smooth="yes"/>
      <point x="413" y="140" type="line" smooth="yes"/>
      <point x="403" y="93" type="line" smooth="yes"/>
      <point x="373" y="58" type="line" smooth="yes"/>
      <point x="325" y="36" type="line" smooth="yes"/>
      <point x="260" y="28" type="line" smooth="yes"/>
      <point x="184" y="39" type="line" smooth="yes"/>
      <point x="136" y="69" type="line" smooth="yes"/>
      <point x="112" y="112" type="line" smooth="yes"/>
      <point x="105" y="160" type="line" smooth="yes"/>
      <point x="65" y="160" type="line" smooth="yes"/>
      <point x="65" y="156" type="line" smooth="yes"/>
      <point x="74" y="102" type="line" smooth="yes"/>
      <point x="103" y="50" type="line" smooth="yes"/>
      <point x="157" y="10" type="line" smooth="yes"/>
      <point x="240" y="-9" type="line" smooth="yes"/>
      <point x="213" y="-83" type="line" smooth="yes"/>
      <point x="230" y="-99" type="line" smooth="yes"/>
      <point x="232" y="-99" type="line" smooth="yes"/>
      <point x="238" y="-98" type="line" smooth="yes"/>
      <point x="246" y="-97" type="line" smooth="yes"/>
      <point x="256" y="-97" type="line" smooth="yes"/>
      <point x="282" y="-99" type="line" smooth="yes"/>
      <point x="302" y="-106" type="line" smooth="yes"/>
      <point x="316" y="-118" type="line" smooth="yes"/>
      <point x="321" y="-136" type="line" smooth="yes"/>
      <point x="317" y="-155" type="line" smooth="yes"/>
      <point x="304" y="-168" type="line" smooth="yes"/>
      <point x="282" y="-175" type="line" smooth="yes"/>
      <point x="252" y="-177" type="line" smooth="yes"/>
      <point x="232" y="-176" type="line" smooth="yes"/>
      <point x="214" y="-172" type="line" smooth="yes"/>
      <point x="196" y="-166" type="line" smooth="yes"/>
      <point x="182" y="-158" type="line" smooth="yes"/>
    </contour>
  </outline>
</glyph>
