<?xml version="1.0" encoding="UTF-8"?>
<glyph name="bdotaccent" format="1">
  <advance width="522"/>
  <unicode hex="1E03"/>
  <outline>
    <contour>
      <point x="77" y="126" type="line" smooth="yes"/>
      <point x="115" y="416" type="line" smooth="yes"/>
      <point x="144" y="449" type="line" smooth="yes"/>
      <point x="180" y="477" type="line" smooth="yes"/>
      <point x="222" y="495" type="line" smooth="yes"/>
      <point x="274" y="502" type="line" smooth="yes"/>
      <point x="346" y="486" type="line" smooth="yes"/>
      <point x="394" y="439" type="line" smooth="yes"/>
      <point x="416" y="365" type="line" smooth="yes"/>
      <point x="415" y="268" type="line" smooth="yes"/>
      <point x="413" y="252" type="line" smooth="yes"/>
      <point x="391" y="159" type="line" smooth="yes"/>
      <point x="352" y="88" type="line" smooth="yes"/>
      <point x="294" y="44" type="line" smooth="yes"/>
      <point x="218" y="28" type="line" smooth="yes"/>
      <point x="166" y="37" type="line" smooth="yes"/>
      <point x="125" y="61" type="line" smooth="yes"/>
      <point x="96" y="92" type="line" smooth="yes"/>
    </contour>
    <contour>
      <point x="166" y="800" type="line" smooth="yes"/>
      <point x="126" y="800" type="line" smooth="yes"/>
      <point x="40" y="150" type="line" smooth="yes"/>
      <point x="16" y="0" type="line" smooth="yes"/>
      <point x="46" y="0" type="line" smooth="yes"/>
      <point x="65" y="81" type="line" smooth="yes"/>
      <point x="84" y="51" type="line" smooth="yes"/>
      <point x="117" y="21" type="line" smooth="yes"/>
      <point x="162" y="-1" type="line" smooth="yes"/>
      <point x="218" y="-10" type="line" smooth="yes"/>
      <point x="314" y="10" type="line" smooth="yes"/>
      <point x="384" y="64" type="line" smooth="yes"/>
      <point x="430" y="148" type="line" smooth="yes"/>
      <point x="455" y="255" type="line" smooth="yes"/>
      <point x="457" y="271" type="line" smooth="yes"/>
      <point x="458" y="376" type="line" smooth="yes"/>
      <point x="429" y="461" type="line" smooth="yes"/>
      <point x="369" y="519" type="line" smooth="yes"/>
      <point x="274" y="540" type="line" smooth="yes"/>
      <point x="227" y="535" type="line" smooth="yes"/>
      <point x="185" y="520" type="line" smooth="yes"/>
      <point x="150" y="497" type="line" smooth="yes"/>
      <point x="123" y="470" type="line" smooth="yes"/>
    </contour>
    <contour>
      <point x="192" y="925" type="line" smooth="yes"/>
      <point x="132" y="925" type="line" smooth="yes"/>
      <point x="124" y="865" type="line" smooth="yes"/>
      <point x="184" y="865" type="line" smooth="yes"/>
    </contour>
  </outline>
</glyph>
