<?xml version="1.0" encoding="UTF-8"?>
<glyph name="braceright.cap" format="1">
  <advance width="300"/>
  <unicode hex="E496"/>
  <outline>
    <contour>
      <point x="-4" y="0" type="line" smooth="yes"/>
      <point x="11" y="0" type="line" smooth="yes"/>
      <point x="54" y="5" type="line" smooth="yes"/>
      <point x="97" y="24" type="line" smooth="yes"/>
      <point x="132" y="62" type="line" smooth="yes"/>
      <point x="152" y="125" type="line" smooth="yes"/>
      <point x="173" y="280" type="line" smooth="yes"/>
      <point x="185" y="327" type="line" smooth="yes"/>
      <point x="205" y="354" type="line" smooth="yes"/>
      <point x="234" y="367" type="line" smooth="yes"/>
      <point x="274" y="370" type="line" smooth="yes"/>
      <point x="280" y="410" type="line" smooth="yes"/>
      <point x="241" y="413" type="line" smooth="yes"/>
      <point x="214" y="426" type="line" smooth="yes"/>
      <point x="201" y="453" type="line" smooth="yes"/>
      <point x="202" y="500" type="line" smooth="yes"/>
      <point x="222" y="655" type="line" smooth="yes"/>
      <point x="218" y="717" type="line" smooth="yes"/>
      <point x="194" y="755" type="line" smooth="yes"/>
      <point x="156" y="775" type="line" smooth="yes"/>
      <point x="113" y="780" type="line" smooth="yes"/>
      <point x="98" y="780" type="line" smooth="yes"/>
      <point x="93" y="740" type="line" smooth="yes"/>
      <point x="139" y="736" type="line" smooth="yes"/>
      <point x="169" y="721" type="line" smooth="yes"/>
      <point x="181" y="688" type="line" smooth="yes"/>
      <point x="179" y="630" type="line" smooth="yes"/>
      <point x="160" y="488" type="line" smooth="yes"/>
      <point x="159" y="452" type="line" smooth="yes"/>
      <point x="167" y="424" type="line" smooth="yes"/>
      <point x="181" y="404" type="line" smooth="yes"/>
      <point x="200" y="390" type="line" smooth="yes"/>
      <point x="177" y="377" type="line" smooth="yes"/>
      <point x="158" y="356" type="line" smooth="yes"/>
      <point x="143" y="329" type="line" smooth="yes"/>
      <point x="134" y="292" type="line" smooth="yes"/>
      <point x="116" y="150" type="line" smooth="yes"/>
      <point x="103" y="94" type="line" smooth="yes"/>
      <point x="80" y="61" type="line" smooth="yes"/>
      <point x="47" y="44" type="line" smooth="yes"/>
      <point x="1" y="40" type="line" smooth="yes"/>
    </contour>
  </outline>
</glyph>
