<?xml version="1.0" encoding="UTF-8"?>
<glyph name="Iacute" format="1">
  <advance width="210"/>
  <unicode hex="00CD"/>
  <outline>
    <contour>
      <point x="222" y="950" type="line" smooth="yes"/>
      <point x="145" y="840" type="line" smooth="yes"/>
      <point x="187" y="840" type="line" smooth="yes"/>
      <point x="264" y="950" type="line" smooth="yes"/>
    </contour>
    <contour>
      <point x="178" y="780" type="line" smooth="yes"/>
      <point x="138" y="780" type="line" smooth="yes"/>
      <point x="36" y="0" type="line" smooth="yes"/>
      <point x="76" y="0" type="line" smooth="yes"/>
    </contour>
  </outline>
</glyph>
