<?xml version="1.0" encoding="UTF-8"?>
<glyph name="idieresis" format="1">
  <advance width="200"/>
  <unicode hex="00EF"/>
  <outline>
    <contour>
      <point x="102" y="735" type="line" smooth="yes"/>
      <point x="42" y="735" type="line" smooth="yes"/>
      <point x="34" y="675" type="line" smooth="yes"/>
      <point x="94" y="675" type="line" smooth="yes"/>
    </contour>
    <contour>
      <point x="252" y="735" type="line" smooth="yes"/>
      <point x="192" y="735" type="line" smooth="yes"/>
      <point x="184" y="675" type="line" smooth="yes"/>
      <point x="244" y="675" type="line" smooth="yes"/>
    </contour>
    <contour>
      <point x="31" y="0" type="line" smooth="yes"/>
      <point x="71" y="0" type="line" smooth="yes"/>
      <point x="140" y="530" type="line" smooth="yes"/>
      <point x="100" y="530" type="line" smooth="yes"/>
    </contour>
  </outline>
</glyph>
