<?xml version="1.0" encoding="UTF-8"?>
<glyph name="sacute" format="1">
  <advance width="517"/>
  <unicode hex="015B"/>
  <outline>
    <contour>
      <point x="220" y="28" type="line" smooth="yes"/>
      <point x="144" y="38" type="line" smooth="yes"/>
      <point x="98" y="66" type="line" smooth="yes"/>
      <point x="77" y="107" type="line" smooth="yes"/>
      <point x="77" y="160" type="line" smooth="yes"/>
      <point x="38" y="160" type="line" smooth="yes"/>
      <point x="37" y="152" type="line" smooth="yes"/>
      <point x="39" y="91" type="line" smooth="yes"/>
      <point x="66" y="40" type="line" smooth="yes"/>
      <point x="124" y="4" type="line" smooth="yes"/>
      <point x="220" y="-10" type="line" smooth="yes"/>
      <point x="300" y="0" type="line" smooth="yes"/>
      <point x="361" y="29" type="line" smooth="yes"/>
      <point x="403" y="74" type="line" smooth="yes"/>
      <point x="422" y="131" type="line" smooth="yes"/>
      <point x="423" y="139" type="line" smooth="yes"/>
      <point x="420" y="197" type="line" smooth="yes"/>
      <point x="393" y="240" type="line" smooth="yes"/>
      <point x="341" y="270" type="line" smooth="yes"/>
      <point x="265" y="288" type="line" smooth="yes"/>
      <point x="187" y="304" type="line" smooth="yes"/>
      <point x="140" y="328" type="line" smooth="yes"/>
      <point x="118" y="360" type="line" smooth="yes"/>
      <point x="116" y="402" type="line" smooth="yes"/>
      <point x="131" y="447" type="line" smooth="yes"/>
      <point x="163" y="478" type="line" smooth="yes"/>
      <point x="209" y="496" type="line" smooth="yes"/>
      <point x="270" y="502" type="line" smooth="yes"/>
      <point x="344" y="492" type="line" smooth="yes"/>
      <point x="389" y="464" type="line" smooth="yes"/>
      <point x="408" y="419" type="line" smooth="yes"/>
      <point x="408" y="360" type="line" smooth="yes"/>
      <point x="447" y="360" type="line" smooth="yes"/>
      <point x="448" y="368" type="line" smooth="yes"/>
      <point x="446" y="437" type="line" smooth="yes"/>
      <point x="419" y="492" type="line" smooth="yes"/>
      <point x="362" y="527" type="line" smooth="yes"/>
      <point x="270" y="540" type="line" smooth="yes"/>
      <point x="192" y="530" type="line" smooth="yes"/>
      <point x="132" y="503" type="line" smooth="yes"/>
      <point x="93" y="461" type="line" smooth="yes"/>
      <point x="74" y="406" type="line" smooth="yes"/>
      <point x="73" y="398" type="line" smooth="yes"/>
      <point x="76" y="349" type="line" smooth="yes"/>
      <point x="102" y="308" type="line" smooth="yes"/>
      <point x="154" y="277" type="line" smooth="yes"/>
      <point x="235" y="256" type="line" smooth="yes"/>
      <point x="308" y="241" type="line" smooth="yes"/>
      <point x="355" y="219" type="line" smooth="yes"/>
      <point x="379" y="186" type="line" smooth="yes"/>
      <point x="380" y="135" type="line" smooth="yes"/>
      <point x="365" y="89" type="line" smooth="yes"/>
      <point x="333" y="56" type="line" smooth="yes"/>
      <point x="285" y="35" type="line" smooth="yes"/>
    </contour>
    <contour>
      <point x="382" y="780" type="line" smooth="yes"/>
      <point x="271" y="620" type="line" smooth="yes"/>
      <point x="313" y="620" type="line" smooth="yes"/>
      <point x="424" y="780" type="line" smooth="yes"/>
    </contour>
  </outline>
</glyph>
