<?xml version="1.0" encoding="UTF-8"?>
<glyph name="jcircumflex" format="1">
  <advance width="200"/>
  <unicode hex="0135"/>
  <outline>
    <contour>
      <point x="0" y="620" type="line" smooth="yes"/>
      <point x="100" y="744" type="line" smooth="yes"/>
      <point x="200" y="620" type="line" smooth="yes"/>
      <point x="245" y="620" type="line" smooth="yes"/>
      <point x="115" y="780" type="line" smooth="yes"/>
      <point x="85" y="780" type="line" smooth="yes"/>
      <point x="-45" y="620" type="line" smooth="yes"/>
    </contour>
    <contour>
      <point x="80" y="-60" type="line" smooth="yes"/>
      <point x="52" y="-150" type="line" smooth="yes"/>
      <point x="-30" y="-172" type="line" smooth="yes"/>
      <point x="-66" y="-169" type="line" smooth="yes"/>
      <point x="-90" y="-163" type="line" smooth="yes"/>
      <point x="-90" y="-200" type="line" smooth="yes"/>
      <point x="-67" y="-206" type="line" smooth="yes"/>
      <point x="-20" y="-210" type="line" smooth="yes"/>
      <point x="80" y="-177" type="line" smooth="yes"/>
      <point x="120" y="-65" type="line" smooth="yes"/>
      <point x="120" y="530" type="line" smooth="yes"/>
      <point x="80" y="530" type="line" smooth="yes"/>
    </contour>
  </outline>
</glyph>
