<?xml version="1.0" encoding="UTF-8"?>
<glyph name="Lcaron" format="1">
  <advance width="480"/>
  <unicode hex="013D"/>
  <outline>
    <contour>
      <point x="278" y="800" type="line" smooth="yes"/>
      <point x="278" y="620" type="line" smooth="yes"/>
      <point x="308" y="620" type="line" smooth="yes"/>
      <point x="323" y="800" type="line" smooth="yes"/>
    </contour>
    <contour>
      <point x="465" y="0" type="line" smooth="yes"/>
      <point x="465" y="38" type="line" smooth="yes"/>
      <point x="120" y="38" type="line" smooth="yes"/>
      <point x="120" y="780" type="line" smooth="yes"/>
      <point x="80" y="780" type="line" smooth="yes"/>
      <point x="80" y="0" type="line" smooth="yes"/>
    </contour>
  </outline>
</glyph>
