<?xml version="1.0" encoding="UTF-8"?>
<glyph name="oslash" format="1">
  <advance width="540"/>
  <unicode hex="00F8"/>
  <outline>
    <contour>
      <point x="443" y="275" type="line" smooth="yes"/>
      <point x="443" y="255" type="line" smooth="yes"/>
      <point x="401" y="91" type="line" smooth="yes"/>
      <point x="270" y="28" type="line" smooth="yes"/>
      <point x="202" y="40" type="line" smooth="yes"/>
      <point x="152" y="74" type="line" smooth="yes"/>
      <point x="409" y="426" type="line" smooth="yes"/>
      <point x="435" y="358" type="line" smooth="yes"/>
    </contour>
    <contour>
      <point x="97" y="255" type="line" smooth="yes"/>
      <point x="97" y="275" type="line" smooth="yes"/>
      <point x="139" y="439" type="line" smooth="yes"/>
      <point x="270" y="502" type="line" smooth="yes"/>
      <point x="337" y="490" type="line" smooth="yes"/>
      <point x="387" y="456" type="line" smooth="yes"/>
      <point x="130" y="103" type="line" smooth="yes"/>
      <point x="105" y="171" type="line" smooth="yes"/>
    </contour>
    <contour>
      <point x="485" y="530" type="line" smooth="yes"/>
      <point x="441" y="530" type="line" smooth="yes"/>
      <point x="411" y="488" type="line" smooth="yes"/>
      <point x="350" y="526" type="line" smooth="yes"/>
      <point x="270" y="540" type="line" smooth="yes"/>
      <point x="106" y="462" type="line" smooth="yes"/>
      <point x="55" y="275" type="line" smooth="yes"/>
      <point x="55" y="255" type="line" smooth="yes"/>
      <point x="67" y="153" type="line" smooth="yes"/>
      <point x="105" y="69" type="line" smooth="yes"/>
      <point x="55" y="0" type="line" smooth="yes"/>
      <point x="99" y="0" type="line" smooth="yes"/>
      <point x="129" y="41" type="line" smooth="yes"/>
      <point x="189" y="4" type="line" smooth="yes"/>
      <point x="270" y="-10" type="line" smooth="yes"/>
      <point x="434" y="68" type="line" smooth="yes"/>
      <point x="485" y="255" type="line" smooth="yes"/>
      <point x="485" y="275" type="line" smooth="yes"/>
      <point x="473" y="377" type="line" smooth="yes"/>
      <point x="434" y="461" type="line" smooth="yes"/>
    </contour>
  </outline>
</glyph>
