<?xml version="1.0" encoding="UTF-8"?>
<glyph name="Racute" format="1">
  <advance width="570"/>
  <unicode hex="0154"/>
  <outline>
    <contour>
      <point x="306" y="950" type="line" smooth="yes"/>
      <point x="244" y="840" type="line" smooth="yes"/>
      <point x="286" y="840" type="line" smooth="yes"/>
      <point x="348" y="950" type="line" smooth="yes"/>
    </contour>
    <contour>
      <point x="120" y="368" type="line" smooth="yes"/>
      <point x="120" y="742" type="line" smooth="yes"/>
      <point x="282" y="742" type="line" smooth="yes"/>
      <point x="404" y="709" type="line" smooth="yes"/>
      <point x="468" y="563" type="line" smooth="yes"/>
      <point x="468" y="547" type="line" smooth="yes"/>
      <point x="404" y="401" type="line" smooth="yes"/>
      <point x="282" y="368" type="line" smooth="yes"/>
    </contour>
    <contour>
      <point x="120" y="330" type="line" smooth="yes"/>
      <point x="282" y="330" type="line" smooth="yes"/>
      <point x="308" y="331" type="line" smooth="yes"/>
      <point x="333" y="334" type="line" smooth="yes"/>
      <point x="465" y="0" type="line" smooth="yes"/>
      <point x="510" y="0" type="line" smooth="yes"/>
      <point x="371" y="342" type="line" smooth="yes"/>
      <point x="469" y="406" type="line" smooth="yes"/>
      <point x="510" y="545" type="line" smooth="yes"/>
      <point x="510" y="565" type="line" smooth="yes"/>
      <point x="436" y="736" type="line" smooth="yes"/>
      <point x="282" y="780" type="line" smooth="yes"/>
      <point x="80" y="780" type="line" smooth="yes"/>
      <point x="80" y="0" type="line" smooth="yes"/>
      <point x="120" y="0" type="line" smooth="yes"/>
    </contour>
  </outline>
</glyph>
