<?xml version="1.0" encoding="UTF-8"?>
<glyph name="sterling" format="1">
  <advance width="600"/>
  <unicode hex="00A3"/>
  <outline>
    <contour>
      <point x="330" y="752" type="line" smooth="yes"/>
      <point x="464" y="683" type="line" smooth="yes"/>
      <point x="505" y="500" type="line" smooth="yes"/>
      <point x="545" y="500" type="line" smooth="yes"/>
      <point x="545" y="510" type="line" smooth="yes"/>
      <point x="497" y="707" type="line" smooth="yes"/>
      <point x="330" y="790" type="line" smooth="yes"/>
      <point x="180" y="733" type="line" smooth="yes"/>
      <point x="125" y="575" type="line" smooth="yes"/>
      <point x="131" y="491" type="line" smooth="yes"/>
      <point x="145" y="410" type="line" smooth="yes"/>
      <point x="60" y="410" type="line" smooth="yes"/>
      <point x="60" y="370" type="line" smooth="yes"/>
      <point x="155" y="370" type="line" smooth="yes"/>
      <point x="200" y="210" type="line" smooth="yes"/>
      <point x="229" y="40" type="line" smooth="yes"/>
      <point x="60" y="40" type="line" smooth="yes"/>
      <point x="60" y="0" type="line" smooth="yes"/>
      <point x="540" y="0" type="line" smooth="yes"/>
      <point x="540" y="40" type="line" smooth="yes"/>
      <point x="264" y="40" type="line" smooth="yes"/>
      <point x="242" y="210" type="line" smooth="yes"/>
      <point x="201" y="370" type="line" smooth="yes"/>
      <point x="400" y="370" type="line" smooth="yes"/>
      <point x="400" y="410" type="line" smooth="yes"/>
      <point x="191" y="410" type="line" smooth="yes"/>
      <point x="174" y="492" type="line" smooth="yes"/>
      <point x="167" y="570" type="line" smooth="yes"/>
      <point x="207" y="702" type="line" smooth="yes"/>
    </contour>
  </outline>
</glyph>
