<?xml version="1.0" encoding="UTF-8"?>
<glyph name="Ygrave" format="1">
  <advance width="560"/>
  <unicode hex="1EF2"/>
  <outline>
    <contour>
      <point x="197" y="950" type="line" smooth="yes"/>
      <point x="259" y="840" type="line" smooth="yes"/>
      <point x="301" y="840" type="line" smooth="yes"/>
      <point x="239" y="950" type="line" smooth="yes"/>
    </contour>
    <contour>
      <point x="300" y="235" type="line" smooth="yes"/>
      <point x="535" y="780" type="line" smooth="yes"/>
      <point x="492" y="780" type="line" smooth="yes"/>
      <point x="280" y="285" type="line" smooth="yes"/>
      <point x="68" y="780" type="line" smooth="yes"/>
      <point x="25" y="780" type="line" smooth="yes"/>
      <point x="260" y="235" type="line" smooth="yes"/>
      <point x="260" y="0" type="line" smooth="yes"/>
      <point x="300" y="0" type="line" smooth="yes"/>
    </contour>
  </outline>
</glyph>
