<?xml version="1.0" encoding="UTF-8"?>
<glyph name="zacute" format="1">
  <advance width="446"/>
  <unicode hex="017A"/>
  <outline>
    <contour>
      <point x="38" y="28" type="line" smooth="yes"/>
      <point x="38" y="0" type="line" smooth="yes"/>
      <point x="408" y="0" type="line" smooth="yes"/>
      <point x="408" y="38" type="line" smooth="yes"/>
      <point x="208" y="38" type="line" smooth="yes"/>
      <point x="87" y="37" type="line" smooth="yes"/>
      <point x="398" y="502" type="line" smooth="yes"/>
      <point x="398" y="530" type="line" smooth="yes"/>
      <point x="48" y="530" type="line" smooth="yes"/>
      <point x="48" y="492" type="line" smooth="yes"/>
      <point x="228" y="492" type="line" smooth="yes"/>
      <point x="349" y="493" type="line" smooth="yes"/>
    </contour>
    <contour>
      <point x="290" y="780" type="line" smooth="yes"/>
      <point x="200" y="620" type="line" smooth="yes"/>
      <point x="242" y="620" type="line" smooth="yes"/>
      <point x="332" y="780" type="line" smooth="yes"/>
    </contour>
  </outline>
</glyph>
