<?xml version="1.0" encoding="UTF-8"?>
<glyph name="A" format="1">
  <advance width="650"/>
  <unicode hex="0041"/>
  <outline>
    <contour>
      <point x="349" y="560" type="line" smooth="yes"/>
      <point x="366" y="322" type="line" smooth="yes"/>
      <point x="270" y="322" type="line" smooth="yes"/>
    </contour>
    <contour>
      <point x="248" y="780" type="line" smooth="yes"/>
      <point x="-40" y="0" type="line" smooth="yes"/>
      <point x="164" y="0" type="line" smooth="yes"/>
      <point x="215" y="158" type="line" smooth="yes"/>
      <point x="377" y="158" type="line" smooth="yes"/>
      <point x="389" y="0" type="line" smooth="yes"/>
      <point x="592" y="0" type="line" smooth="yes"/>
      <point x="508" y="780" type="line" smooth="yes"/>
    </contour>
  </outline>
</glyph>
