<?xml version="1.0" encoding="UTF-8"?>
<glyph name="commaaccent" format="1">
  <advance width="602"/>
  <unicode hex="F6C3"/>
  <outline>
    <contour>
      <point x="275" y="-40" type="line" smooth="yes"/>
      <point x="115" y="-40" type="line" smooth="yes"/>
      <point x="102" y="-140" type="line" smooth="yes"/>
      <point x="190" y="-140" type="line" smooth="yes"/>
      <point x="174" y="-154" type="line" smooth="yes"/>
      <point x="153" y="-164" type="line" smooth="yes"/>
      <point x="128" y="-169" type="line" smooth="yes"/>
      <point x="98" y="-170" type="line" smooth="yes"/>
      <point x="90" y="-230" type="line" smooth="yes"/>
      <point x="162" y="-223" type="line" smooth="yes"/>
      <point x="215" y="-201" type="line" smooth="yes"/>
      <point x="250" y="-160" type="line" smooth="yes"/>
      <point x="267" y="-100" type="line" smooth="yes"/>
    </contour>
  </outline>
</glyph>
