<?xml version="1.0" encoding="UTF-8"?>
<glyph name="Edieresis" format="1">
  <advance width="580"/>
  <unicode hex="00CB"/>
  <outline>
    <contour>
      <point x="356" y="950" type="line" smooth="yes"/>
      <point x="206" y="950" type="line" smooth="yes"/>
      <point x="191" y="840" type="line" smooth="yes"/>
      <point x="341" y="840" type="line" smooth="yes"/>
    </contour>
    <contour>
      <point x="536" y="950" type="line" smooth="yes"/>
      <point x="386" y="950" type="line" smooth="yes"/>
      <point x="371" y="840" type="line" smooth="yes"/>
      <point x="521" y="840" type="line" smooth="yes"/>
    </contour>
    <contour>
      <point x="103" y="780" type="line" smooth="yes"/>
      <point x="1" y="0" type="line" smooth="yes"/>
      <point x="491" y="0" type="line" smooth="yes"/>
      <point x="512" y="164" type="line" smooth="yes"/>
      <point x="212" y="164" type="line" smooth="yes"/>
      <point x="232" y="316" type="line" smooth="yes"/>
      <point x="482" y="316" type="line" smooth="yes"/>
      <point x="504" y="480" type="line" smooth="yes"/>
      <point x="254" y="480" type="line" smooth="yes"/>
      <point x="272" y="616" type="line" smooth="yes"/>
      <point x="572" y="616" type="line" smooth="yes"/>
      <point x="593" y="780" type="line" smooth="yes"/>
    </contour>
  </outline>
</glyph>
