<?xml version="1.0" encoding="UTF-8"?>
<glyph name="twosuperior" format="1">
  <advance width="300"/>
  <unicode hex="00B2"/>
  <outline>
    <contour>
      <point x="302" y="503" type="line" smooth="yes"/>
      <point x="210" y="503" type="line" smooth="yes"/>
      <point x="267" y="560" type="line" smooth="yes"/>
      <point x="289" y="583" type="line" smooth="yes"/>
      <point x="306" y="606" type="line" smooth="yes"/>
      <point x="317" y="629" type="line" smooth="yes"/>
      <point x="323" y="657" type="line" smooth="yes"/>
      <point x="325" y="675" type="line" smooth="yes"/>
      <point x="323" y="710" type="line" smooth="yes"/>
      <point x="305" y="747" type="line" smooth="yes"/>
      <point x="265" y="776" type="line" smooth="yes"/>
      <point x="196" y="788" type="line" smooth="yes"/>
      <point x="137" y="781" type="line" smooth="yes"/>
      <point x="94" y="758" type="line" smooth="yes"/>
      <point x="66" y="718" type="line" smooth="yes"/>
      <point x="52" y="660" type="line" smooth="yes"/>
      <point x="51" y="650" type="line" smooth="yes"/>
      <point x="176" y="650" type="line" smooth="yes"/>
      <point x="179" y="674" type="line" smooth="yes"/>
      <point x="182" y="679" type="line" smooth="yes"/>
      <point x="187" y="681" type="line" smooth="yes"/>
      <point x="191" y="679" type="line" smooth="yes"/>
      <point x="193" y="674" type="line" smooth="yes"/>
      <point x="189" y="644" type="line" smooth="yes"/>
      <point x="188" y="637" type="line" smooth="yes"/>
      <point x="185" y="632" type="line" smooth="yes"/>
      <point x="181" y="627" type="line" smooth="yes"/>
      <point x="177" y="623" type="line" smooth="yes"/>
      <point x="28" y="473" type="line" smooth="yes"/>
      <point x="17" y="390" type="line" smooth="yes"/>
      <point x="287" y="390" type="line" smooth="yes"/>
    </contour>
  </outline>
</glyph>
