<?xml version="1.0" encoding="UTF-8"?>
<glyph name="uni2086" format="1">
  <advance width="300"/>
  <unicode hex="2086"/>
  <outline>
    <contour>
      <point x="116" y="137" type="line" smooth="yes"/>
      <point x="118" y="137" type="line" smooth="yes"/>
      <point x="121" y="135" type="line" smooth="yes"/>
      <point x="122" y="132" type="line" smooth="yes"/>
      <point x="122" y="126" type="line" smooth="yes"/>
      <point x="120" y="106" type="line" smooth="yes"/>
      <point x="117" y="101" type="line" smooth="yes"/>
      <point x="112" y="99" type="line" smooth="yes"/>
      <point x="108" y="101" type="line" smooth="yes"/>
      <point x="106" y="106" type="line" smooth="yes"/>
      <point x="109" y="133" type="line" smooth="yes"/>
      <point x="111" y="134" type="line" smooth="yes"/>
      <point x="112" y="136" type="line" smooth="yes"/>
      <point x="114" y="137" type="line" smooth="yes"/>
    </contour>
    <contour>
      <point x="267" y="398" type="line" smooth="yes"/>
      <point x="211" y="395" type="line" smooth="yes"/>
      <point x="154" y="386" type="line" smooth="yes"/>
      <point x="101" y="365" type="line" smooth="yes"/>
      <point x="56" y="331" type="line" smooth="yes"/>
      <point x="26" y="292" type="line" smooth="yes"/>
      <point x="4" y="249" type="line" smooth="yes"/>
      <point x="-11" y="202" type="line" smooth="yes"/>
      <point x="-20" y="152" type="line" smooth="yes"/>
      <point x="-22" y="137" type="line" smooth="yes"/>
      <point x="-20" y="72" type="line" smooth="yes"/>
      <point x="5" y="27" type="line" smooth="yes"/>
      <point x="47" y="-0" type="line" smooth="yes"/>
      <point x="106" y="-9" type="line" smooth="yes"/>
      <point x="170" y="1" type="line" smooth="yes"/>
      <point x="214" y="29" type="line" smooth="yes"/>
      <point x="240" y="70" type="line" smooth="yes"/>
      <point x="252" y="120" type="line" smooth="yes"/>
      <point x="253" y="130" type="line" smooth="yes"/>
      <point x="252" y="178" type="line" smooth="yes"/>
      <point x="238" y="215" type="line" smooth="yes"/>
      <point x="212" y="238" type="line" smooth="yes"/>
      <point x="173" y="246" type="line" smooth="yes"/>
      <point x="162" y="245" type="line" smooth="yes"/>
      <point x="151" y="243" type="line" smooth="yes"/>
      <point x="140" y="239" type="line" smooth="yes"/>
      <point x="130" y="233" type="line" smooth="yes"/>
      <point x="134" y="242" type="line" smooth="yes"/>
      <point x="140" y="249" type="line" smooth="yes"/>
      <point x="146" y="256" type="line" smooth="yes"/>
      <point x="153" y="262" type="line" smooth="yes"/>
      <point x="167" y="269" type="line" smooth="yes"/>
      <point x="187" y="276" type="line" smooth="yes"/>
      <point x="215" y="280" type="line" smooth="yes"/>
      <point x="252" y="282" type="line" smooth="yes"/>
    </contour>
  </outline>
</glyph>
