<?xml version="1.0" encoding="UTF-8"?>
<glyph name="Atilde" format="1">
  <advance width="611"/>
  <unicode hex="00C3"/>
  <outline>
    <contour>
      <point x="351" y="709" type="line" smooth="yes"/>
      <point x="417" y="265" type="line" smooth="yes"/>
      <point x="168" y="265" type="line" smooth="yes"/>
    </contour>
    <contour>
      <point x="309" y="788" type="line" smooth="yes"/>
      <point x="-20" y="0" type="line" smooth="yes"/>
      <point x="59" y="0" type="line" smooth="yes"/>
      <point x="141" y="200" type="line" smooth="yes"/>
      <point x="427" y="200" type="line" smooth="yes"/>
      <point x="457" y="0" type="line" smooth="yes"/>
      <point x="533" y="0" type="line" smooth="yes"/>
      <point x="411" y="788" type="line" smooth="yes"/>
    </contour>
    <contour>
      <point x="482" y="936" type="line" smooth="yes"/>
      <point x="477" y="915" type="line" smooth="yes"/>
      <point x="467" y="900" type="line" smooth="yes"/>
      <point x="453" y="892" type="line" smooth="yes"/>
      <point x="437" y="889" type="line" smooth="yes"/>
      <point x="409" y="898" type="line" smooth="yes"/>
      <point x="381" y="918" type="line" smooth="yes"/>
      <point x="349" y="938" type="line" smooth="yes"/>
      <point x="309" y="947" type="line" smooth="yes"/>
      <point x="276" y="942" type="line" smooth="yes"/>
      <point x="248" y="925" type="line" smooth="yes"/>
      <point x="227" y="896" type="line" smooth="yes"/>
      <point x="216" y="854" type="line" smooth="yes"/>
      <point x="264" y="854" type="line" smooth="yes"/>
      <point x="269" y="875" type="line" smooth="yes"/>
      <point x="279" y="890" type="line" smooth="yes"/>
      <point x="293" y="898" type="line" smooth="yes"/>
      <point x="309" y="901" type="line" smooth="yes"/>
      <point x="337" y="892" type="line" smooth="yes"/>
      <point x="366" y="872" type="line" smooth="yes"/>
      <point x="397" y="852" type="line" smooth="yes"/>
      <point x="437" y="843" type="line" smooth="yes"/>
      <point x="470" y="848" type="line" smooth="yes"/>
      <point x="498" y="865" type="line" smooth="yes"/>
      <point x="519" y="894" type="line" smooth="yes"/>
      <point x="530" y="936" type="line" smooth="yes"/>
    </contour>
  </outline>
</glyph>
