<?xml version="1.0" encoding="UTF-8"?>
<glyph name="copyright" format="1">
  <advance width="920"/>
  <unicode hex="00A9"/>
  <outline>
    <contour>
      <point x="461" y="206" type="line" smooth="yes"/>
      <point x="396" y="221" type="line" smooth="yes"/>
      <point x="352" y="260" type="line" smooth="yes"/>
      <point x="328" y="315" type="line" smooth="yes"/>
      <point x="320" y="378" type="line" smooth="yes"/>
      <point x="320" y="402" type="line" smooth="yes"/>
      <point x="328" y="465" type="line" smooth="yes"/>
      <point x="352" y="520" type="line" smooth="yes"/>
      <point x="396" y="559" type="line" smooth="yes"/>
      <point x="461" y="574" type="line" smooth="yes"/>
      <point x="521" y="564" type="line" smooth="yes"/>
      <point x="559" y="538" type="line" smooth="yes"/>
      <point x="580" y="501" type="line" smooth="yes"/>
      <point x="586" y="459" type="line" smooth="yes"/>
      <point x="651" y="459" type="line" smooth="yes"/>
      <point x="651" y="476" type="line" smooth="yes"/>
      <point x="641" y="528" type="line" smooth="yes"/>
      <point x="609" y="580" type="line" smooth="yes"/>
      <point x="550" y="620" type="line" smooth="yes"/>
      <point x="460" y="636" type="line" smooth="yes"/>
      <point x="364" y="615" type="line" smooth="yes"/>
      <point x="299" y="560" type="line" smooth="yes"/>
      <point x="263" y="485" type="line" smooth="yes"/>
      <point x="252" y="402" type="line" smooth="yes"/>
      <point x="252" y="378" type="line" smooth="yes"/>
      <point x="263" y="295" type="line" smooth="yes"/>
      <point x="299" y="220" type="line" smooth="yes"/>
      <point x="364" y="165" type="line" smooth="yes"/>
      <point x="460" y="144" type="line" smooth="yes"/>
      <point x="550" y="159" type="line" smooth="yes"/>
      <point x="609" y="198" type="line" smooth="yes"/>
      <point x="641" y="248" type="line" smooth="yes"/>
      <point x="651" y="298" type="line" smooth="yes"/>
      <point x="651" y="311" type="line" smooth="yes"/>
      <point x="586" y="311" type="line" smooth="yes"/>
      <point x="580" y="276" type="line" smooth="yes"/>
      <point x="560" y="242" type="line" smooth="yes"/>
      <point x="522" y="216" type="line" smooth="yes"/>
    </contour>
    <contour>
      <point x="102" y="390" type="line" smooth="yes"/>
      <point x="130" y="529" type="line" smooth="yes"/>
      <point x="207" y="643" type="line" smooth="yes"/>
      <point x="321" y="720" type="line" smooth="yes"/>
      <point x="460" y="748" type="line" smooth="yes"/>
      <point x="599" y="720" type="line" smooth="yes"/>
      <point x="713" y="643" type="line" smooth="yes"/>
      <point x="790" y="529" type="line" smooth="yes"/>
      <point x="818" y="390" type="line" smooth="yes"/>
      <point x="790" y="251" type="line" smooth="yes"/>
      <point x="713" y="137" type="line" smooth="yes"/>
      <point x="599" y="60" type="line" smooth="yes"/>
      <point x="460" y="32" type="line" smooth="yes"/>
      <point x="321" y="60" type="line" smooth="yes"/>
      <point x="207" y="137" type="line" smooth="yes"/>
      <point x="130" y="251" type="line" smooth="yes"/>
    </contour>
    <contour>
      <point x="59" y="390" type="line" smooth="yes"/>
      <point x="91" y="234" type="line" smooth="yes"/>
      <point x="177" y="107" type="line" smooth="yes"/>
      <point x="304" y="21" type="line" smooth="yes"/>
      <point x="460" y="-11" type="line" smooth="yes"/>
      <point x="616" y="21" type="line" smooth="yes"/>
      <point x="743" y="107" type="line" smooth="yes"/>
      <point x="829" y="234" type="line" smooth="yes"/>
      <point x="861" y="390" type="line" smooth="yes"/>
      <point x="829" y="546" type="line" smooth="yes"/>
      <point x="743" y="673" type="line" smooth="yes"/>
      <point x="616" y="759" type="line" smooth="yes"/>
      <point x="460" y="791" type="line" smooth="yes"/>
      <point x="304" y="759" type="line" smooth="yes"/>
      <point x="177" y="673" type="line" smooth="yes"/>
      <point x="91" y="546" type="line" smooth="yes"/>
    </contour>
  </outline>
</glyph>
