<?xml version="1.0" encoding="UTF-8"?>
<glyph name="edotaccent" format="1">
  <advance width="540"/>
  <unicode hex="0117"/>
  <outline>
    <contour>
      <point x="289" y="478" type="line" smooth="yes"/>
      <point x="354" y="466" type="line" smooth="yes"/>
      <point x="396" y="430" type="line" smooth="yes"/>
      <point x="416" y="372" type="line" smooth="yes"/>
      <point x="414" y="294" type="line" smooth="yes"/>
      <point x="110" y="294" type="line" smooth="yes"/>
      <point x="131" y="368" type="line" smooth="yes"/>
      <point x="169" y="427" type="line" smooth="yes"/>
      <point x="222" y="464" type="line" smooth="yes"/>
    </contour>
    <contour>
      <point x="477" y="236" type="line" smooth="yes"/>
      <point x="482" y="275" type="line" smooth="yes"/>
      <point x="483" y="382" type="line" smooth="yes"/>
      <point x="453" y="466" type="line" smooth="yes"/>
      <point x="390" y="521" type="line" smooth="yes"/>
      <point x="289" y="541" type="line" smooth="yes"/>
      <point x="189" y="521" type="line" smooth="yes"/>
      <point x="115" y="466" type="line" smooth="yes"/>
      <point x="64" y="382" type="line" smooth="yes"/>
      <point x="37" y="277" type="line" smooth="yes"/>
      <point x="34" y="255" type="line" smooth="yes"/>
      <point x="33" y="151" type="line" smooth="yes"/>
      <point x="65" y="67" type="line" smooth="yes"/>
      <point x="133" y="10" type="line" smooth="yes"/>
      <point x="243" y="-11" type="line" smooth="yes"/>
      <point x="335" y="4" type="line" smooth="yes"/>
      <point x="403" y="44" type="line" smooth="yes"/>
      <point x="446" y="98" type="line" smooth="yes"/>
      <point x="466" y="157" type="line" smooth="yes"/>
      <point x="468" y="170" type="line" smooth="yes"/>
      <point x="401" y="170" type="line" smooth="yes"/>
      <point x="388" y="128" type="line" smooth="yes"/>
      <point x="360" y="90" type="line" smooth="yes"/>
      <point x="313" y="62" type="line" smooth="yes"/>
      <point x="245" y="52" type="line" smooth="yes"/>
      <point x="173" y="65" type="line" smooth="yes"/>
      <point x="126" y="101" type="line" smooth="yes"/>
      <point x="104" y="159" type="line" smooth="yes"/>
      <point x="103" y="236" type="line" smooth="yes"/>
    </contour>
    <contour>
      <point x="366" y="745" type="line" smooth="yes"/>
      <point x="276" y="745" type="line" smooth="yes"/>
      <point x="264" y="655" type="line" smooth="yes"/>
      <point x="354" y="655" type="line" smooth="yes"/>
    </contour>
  </outline>
</glyph>
