<?xml version="1.0" encoding="UTF-8"?>
<glyph name="iogonek" format="1">
  <advance width="216"/>
  <unicode hex="012F"/>
  <outline>
    <contour>
      <point x="202" y="745" type="line" smooth="yes"/>
      <point x="112" y="745" type="line" smooth="yes"/>
      <point x="100" y="655" type="line" smooth="yes"/>
      <point x="190" y="655" type="line" smooth="yes"/>
    </contour>
    <contour>
      <point x="94" y="0" type="line" smooth="yes"/>
      <point x="163" y="530" type="line" smooth="yes"/>
      <point x="93" y="530" type="line" smooth="yes"/>
      <point x="25" y="9" type="line" smooth="yes"/>
      <point x="-9" y="-16" type="line" smooth="yes"/>
      <point x="-37" y="-47" type="line" smooth="yes"/>
      <point x="-56" y="-85" type="line" smooth="yes"/>
      <point x="-63" y="-129" type="line" smooth="yes"/>
      <point x="-56" y="-165" type="line" smooth="yes"/>
      <point x="-36" y="-191" type="line" smooth="yes"/>
      <point x="-4" y="-206" type="line" smooth="yes"/>
      <point x="38" y="-211" type="line" smooth="yes"/>
      <point x="60" y="-210" type="line" smooth="yes"/>
      <point x="83" y="-206" type="line" smooth="yes"/>
      <point x="104" y="-200" type="line" smooth="yes"/>
      <point x="123" y="-191" type="line" smooth="yes"/>
      <point x="111" y="-145" type="line" smooth="yes"/>
      <point x="98" y="-150" type="line" smooth="yes"/>
      <point x="84" y="-155" type="line" smooth="yes"/>
      <point x="69" y="-157" type="line" smooth="yes"/>
      <point x="53" y="-158" type="line" smooth="yes"/>
      <point x="29" y="-155" type="line" smooth="yes"/>
      <point x="10" y="-147" type="line" smooth="yes"/>
      <point x="-2" y="-133" type="line" smooth="yes"/>
      <point x="-6" y="-113" type="line" smooth="yes"/>
      <point x="3" y="-74" type="line" smooth="yes"/>
      <point x="28" y="-42" type="line" smooth="yes"/>
      <point x="60" y="-18" type="line" smooth="yes"/>
    </contour>
  </outline>
</glyph>
