<?xml version="1.0" encoding="UTF-8"?>
<glyph name="otilde" format="1">
  <advance width="540"/>
  <unicode hex="00F5"/>
  <outline>
    <contour>
      <point x="232" y="-11" type="line" smooth="yes"/>
      <point x="331" y="9" type="line" smooth="yes"/>
      <point x="404" y="64" type="line" smooth="yes"/>
      <point x="453" y="147" type="line" smooth="yes"/>
      <point x="479" y="253" type="line" smooth="yes"/>
      <point x="482" y="275" type="line" smooth="yes"/>
      <point x="482" y="379" type="line" smooth="yes"/>
      <point x="450" y="464" type="line" smooth="yes"/>
      <point x="384" y="520" type="line" smooth="yes"/>
      <point x="283" y="541" type="line" smooth="yes"/>
      <point x="184" y="521" type="line" smooth="yes"/>
      <point x="112" y="466" type="line" smooth="yes"/>
      <point x="63" y="383" type="line" smooth="yes"/>
      <point x="37" y="277" type="line" smooth="yes"/>
      <point x="34" y="255" type="line" smooth="yes"/>
      <point x="34" y="151" type="line" smooth="yes"/>
      <point x="66" y="66" type="line" smooth="yes"/>
      <point x="131" y="10" type="line" smooth="yes"/>
    </contour>
    <contour>
      <point x="232" y="52" type="line" smooth="yes"/>
      <point x="165" y="66" type="line" smooth="yes"/>
      <point x="123" y="107" type="line" smooth="yes"/>
      <point x="103" y="172" type="line" smooth="yes"/>
      <point x="105" y="257" type="line" smooth="yes"/>
      <point x="108" y="279" type="line" smooth="yes"/>
      <point x="129" y="362" type="line" smooth="yes"/>
      <point x="165" y="425" type="line" smooth="yes"/>
      <point x="216" y="464" type="line" smooth="yes"/>
      <point x="283" y="478" type="line" smooth="yes"/>
      <point x="350" y="464" type="line" smooth="yes"/>
      <point x="393" y="423" type="line" smooth="yes"/>
      <point x="413" y="358" type="line" smooth="yes"/>
      <point x="411" y="273" type="line" smooth="yes"/>
      <point x="408" y="251" type="line" smooth="yes"/>
      <point x="387" y="168" type="line" smooth="yes"/>
      <point x="351" y="105" type="line" smooth="yes"/>
      <point x="299" y="66" type="line" smooth="yes"/>
    </contour>
    <contour>
      <point x="424" y="746" type="line" smooth="yes"/>
      <point x="418" y="724" type="line" smooth="yes"/>
      <point x="409" y="710" type="line" smooth="yes"/>
      <point x="396" y="702" type="line" smooth="yes"/>
      <point x="382" y="699" type="line" smooth="yes"/>
      <point x="351" y="708" type="line" smooth="yes"/>
      <point x="321" y="728" type="line" smooth="yes"/>
      <point x="287" y="748" type="line" smooth="yes"/>
      <point x="247" y="757" type="line" smooth="yes"/>
      <point x="213" y="751" type="line" smooth="yes"/>
      <point x="185" y="732" type="line" smooth="yes"/>
      <point x="165" y="700" type="line" smooth="yes"/>
      <point x="153" y="654" type="line" smooth="yes"/>
      <point x="206" y="654" type="line" smooth="yes"/>
      <point x="211" y="676" type="line" smooth="yes"/>
      <point x="221" y="690" type="line" smooth="yes"/>
      <point x="233" y="698" type="line" smooth="yes"/>
      <point x="247" y="701" type="line" smooth="yes"/>
      <point x="278" y="692" type="line" smooth="yes"/>
      <point x="308" y="672" type="line" smooth="yes"/>
      <point x="342" y="652" type="line" smooth="yes"/>
      <point x="382" y="643" type="line" smooth="yes"/>
      <point x="416" y="649" type="line" smooth="yes"/>
      <point x="444" y="668" type="line" smooth="yes"/>
      <point x="465" y="700" type="line" smooth="yes"/>
      <point x="477" y="746" type="line" smooth="yes"/>
    </contour>
  </outline>
</glyph>
