<?xml version="1.0" encoding="UTF-8"?>
<glyph name="question" format="1">
  <advance width="455"/>
  <unicode hex="003F"/>
  <outline>
    <contour>
      <point x="234" y="90" type="line" smooth="yes"/>
      <point x="144" y="90" type="line" smooth="yes"/>
      <point x="132" y="0" type="line" smooth="yes"/>
      <point x="222" y="0" type="line" smooth="yes"/>
    </contour>
    <contour>
      <point x="273" y="726" type="line" smooth="yes"/>
      <point x="324" y="719" type="line" smooth="yes"/>
      <point x="358" y="697" type="line" smooth="yes"/>
      <point x="377" y="662" type="line" smooth="yes"/>
      <point x="383" y="613" type="line" smooth="yes"/>
      <point x="354" y="500" type="line" smooth="yes"/>
      <point x="287" y="413" type="line" smooth="yes"/>
      <point x="218" y="320" type="line" smooth="yes"/>
      <point x="179" y="189" type="line" smooth="yes"/>
      <point x="226" y="189" type="line" smooth="yes"/>
      <point x="277" y="314" type="line" smooth="yes"/>
      <point x="355" y="399" type="line" smooth="yes"/>
      <point x="426" y="486" type="line" smooth="yes"/>
      <point x="457" y="618" type="line" smooth="yes"/>
      <point x="447" y="690" type="line" smooth="yes"/>
      <point x="415" y="745" type="line" smooth="yes"/>
      <point x="358" y="779" type="line" smooth="yes"/>
      <point x="275" y="791" type="line" smooth="yes"/>
      <point x="177" y="772" type="line" smooth="yes"/>
      <point x="111" y="718" type="line" smooth="yes"/>
      <point x="69" y="632" type="line" smooth="yes"/>
      <point x="45" y="518" type="line" smooth="yes"/>
      <point x="43" y="504" type="line" smooth="yes"/>
      <point x="114" y="504" type="line" smooth="yes"/>
      <point x="131" y="596" type="line" smooth="yes"/>
      <point x="161" y="666" type="line" smooth="yes"/>
      <point x="206" y="710" type="line" smooth="yes"/>
    </contour>
  </outline>
</glyph>
