<?xml version="1.0" encoding="UTF-8"?>
<glyph name="caron.cap" format="1">
  <advance width="500"/>
  <unicode hex="E42D"/>
  <outline>
    <contour>
      <point x="388" y="950" type="line" smooth="yes"/>
      <point x="317" y="898" type="line" smooth="yes"/>
      <point x="260" y="950" type="line" smooth="yes"/>
      <point x="142" y="950" type="line" smooth="yes"/>
      <point x="246" y="840" type="line" smooth="yes"/>
      <point x="376" y="840" type="line" smooth="yes"/>
      <point x="510" y="950" type="line" smooth="yes"/>
    </contour>
  </outline>
</glyph>
