<?xml version="1.0" encoding="UTF-8"?>
<glyph name="braceleft.cap" format="1">
  <advance width="300"/>
  <unicode hex="E495"/>
  <outline>
    <contour>
      <point x="250" y="780" type="line" smooth="yes"/>
      <point x="246" y="780" type="line" smooth="yes"/>
      <point x="161" y="755" type="line" smooth="yes"/>
      <point x="125" y="655" type="line" smooth="yes"/>
      <point x="125" y="494" type="line" smooth="yes"/>
      <point x="100" y="418" type="line" smooth="yes"/>
      <point x="35" y="400" type="line" smooth="yes"/>
      <point x="35" y="380" type="line" smooth="yes"/>
      <point x="100" y="362" type="line" smooth="yes"/>
      <point x="125" y="286" type="line" smooth="yes"/>
      <point x="125" y="125" type="line" smooth="yes"/>
      <point x="161" y="25" type="line" smooth="yes"/>
      <point x="246" y="0" type="line" smooth="yes"/>
      <point x="250" y="0" type="line" smooth="yes"/>
      <point x="250" y="20" type="line" smooth="yes"/>
      <point x="174" y="41" type="line" smooth="yes"/>
      <point x="145" y="130" type="line" smooth="yes"/>
      <point x="145" y="287" type="line" smooth="yes"/>
      <point x="129" y="357" type="line" smooth="yes"/>
      <point x="87" y="390" type="line" smooth="yes"/>
      <point x="129" y="423" type="line" smooth="yes"/>
      <point x="145" y="493" type="line" smooth="yes"/>
      <point x="145" y="650" type="line" smooth="yes"/>
      <point x="174" y="739" type="line" smooth="yes"/>
      <point x="250" y="760" type="line" smooth="yes"/>
    </contour>
  </outline>
</glyph>
