<?xml version="1.0" encoding="UTF-8"?>
<glyph name="fi" format="1">
  <advance width="520"/>
  <unicode hex="E38C"/>
  <outline>
    <contour>
      <point x="450" y="720" type="line" smooth="yes"/>
      <point x="410" y="720" type="line" smooth="yes"/>
      <point x="410" y="680" type="line" smooth="yes"/>
      <point x="450" y="680" type="line" smooth="yes"/>
    </contour>
    <contour>
      <point x="420" y="0" type="line" smooth="yes"/>
      <point x="440" y="0" type="line" smooth="yes"/>
      <point x="440" y="530" type="line" smooth="yes"/>
      <point x="420" y="530" type="line" smooth="yes"/>
    </contour>
    <contour>
      <point x="135" y="665" type="line" smooth="yes"/>
      <point x="167" y="763" type="line" smooth="yes"/>
      <point x="250" y="786" type="line" smooth="yes"/>
      <point x="286" y="783" type="line" smooth="yes"/>
      <point x="310" y="776" type="line" smooth="yes"/>
      <point x="310" y="796" type="line" smooth="yes"/>
      <point x="290" y="802" type="line" smooth="yes"/>
      <point x="246" y="806" type="line" smooth="yes"/>
      <point x="154" y="779" type="line" smooth="yes"/>
      <point x="115" y="671" type="line" smooth="yes"/>
      <point x="115" y="530" type="line" smooth="yes"/>
      <point x="30" y="530" type="line" smooth="yes"/>
      <point x="30" y="510" type="line" smooth="yes"/>
      <point x="115" y="510" type="line" smooth="yes"/>
      <point x="115" y="0" type="line" smooth="yes"/>
      <point x="135" y="0" type="line" smooth="yes"/>
      <point x="135" y="510" type="line" smooth="yes"/>
      <point x="300" y="510" type="line" smooth="yes"/>
      <point x="300" y="530" type="line" smooth="yes"/>
      <point x="135" y="530" type="line" smooth="yes"/>
    </contour>
  </outline>
</glyph>
