<?xml version="1.0" encoding="UTF-8"?>
<glyph name="Scommaaccent" format="1">
  <advance width="580"/>
  <unicode hex="0218"/>
  <outline>
    <contour>
      <point x="310" y="-70" type="line" smooth="yes"/>
      <point x="270" y="-70" type="line" smooth="yes"/>
      <point x="270" y="-110" type="line" smooth="yes"/>
      <point x="290" y="-110" type="line" smooth="yes"/>
      <point x="276" y="-174" type="line" smooth="yes"/>
      <point x="235" y="-188" type="line" smooth="yes"/>
      <point x="235" y="-206" type="line" smooth="yes"/>
      <point x="292" y="-183" type="line" smooth="yes"/>
      <point x="310" y="-102" type="line" smooth="yes"/>
    </contour>
    <contour>
      <point x="286" y="395" type="line" smooth="yes"/>
      <point x="458" y="336" type="line" smooth="yes"/>
      <point x="510" y="207" type="line" smooth="yes"/>
      <point x="510" y="197" type="line" smooth="yes"/>
      <point x="448" y="62" type="line" smooth="yes"/>
      <point x="293" y="14" type="line" smooth="yes"/>
      <point x="287" y="14" type="line" smooth="yes"/>
      <point x="127" y="74" type="line" smooth="yes"/>
      <point x="70" y="250" type="line" smooth="yes"/>
      <point x="50" y="250" type="line" smooth="yes"/>
      <point x="50" y="240" type="line" smooth="yes"/>
      <point x="110" y="62" type="line" smooth="yes"/>
      <point x="290" y="-6" type="line" smooth="yes"/>
      <point x="461" y="47" type="line" smooth="yes"/>
      <point x="530" y="201" type="line" smooth="yes"/>
      <point x="530" y="211" type="line" smooth="yes"/>
      <point x="477" y="347" type="line" smooth="yes"/>
      <point x="296" y="414" type="line" smooth="yes"/>
      <point x="127" y="469" type="line" smooth="yes"/>
      <point x="77" y="585" type="line" smooth="yes"/>
      <point x="77" y="595" type="line" smooth="yes"/>
      <point x="140" y="719" type="line" smooth="yes"/>
      <point x="287" y="766" type="line" smooth="yes"/>
      <point x="293" y="766" type="line" smooth="yes"/>
      <point x="452" y="708" type="line" smooth="yes"/>
      <point x="505" y="520" type="line" smooth="yes"/>
      <point x="525" y="520" type="line" smooth="yes"/>
      <point x="525" y="545" type="line" smooth="yes"/>
      <point x="468" y="721" type="line" smooth="yes"/>
      <point x="289" y="786" type="line" smooth="yes"/>
      <point x="123" y="734" type="line" smooth="yes"/>
      <point x="55" y="590" type="line" smooth="yes"/>
      <point x="55" y="580" type="line" smooth="yes"/>
      <point x="107" y="458" type="line" smooth="yes"/>
    </contour>
  </outline>
</glyph>
