<?xml version="1.0" encoding="UTF-8"?>
<glyph name="slash.cap" format="1">
  <advance width="300"/>
  <unicode hex="E461"/>
  <outline>
    <contour>
      <point x="64" y="0" type="line" smooth="yes"/>
      <point x="256" y="780" type="line" smooth="yes"/>
      <point x="236" y="780" type="line" smooth="yes"/>
      <point x="44" y="0" type="line" smooth="yes"/>
    </contour>
  </outline>
</glyph>
