<?xml version="1.0" encoding="UTF-8"?>
<glyph name="threequarteremdash" format="1">
  <advance width="750"/>
  <unicode hex="E472"/>
  <outline>
    <contour>
      <point x="50" y="330" type="line" smooth="yes"/>
      <point x="700" y="330" type="line" smooth="yes"/>
      <point x="700" y="350" type="line" smooth="yes"/>
      <point x="50" y="350" type="line" smooth="yes"/>
    </contour>
  </outline>
</glyph>
