<?xml version="1.0" encoding="UTF-8"?>
<glyph name="asterisk" format="1">
  <advance width="380"/>
  <unicode hex="002A"/>
  <outline>
    <contour>
      <point x="400" y="686" type="line" smooth="yes"/>
      <point x="251" y="640" type="line" smooth="yes"/>
      <point x="254" y="621" type="line" smooth="yes"/>
      <point x="403" y="667" type="line" smooth="yes"/>
    </contour>
    <contour>
      <point x="317" y="479" type="line" smooth="yes"/>
      <point x="246" y="601" type="line" smooth="yes"/>
      <point x="229" y="590" type="line" smooth="yes"/>
      <point x="300" y="468" type="line" smooth="yes"/>
    </contour>
    <contour>
      <point x="53" y="668" type="line" smooth="yes"/>
      <point x="190" y="622" type="line" smooth="yes"/>
      <point x="199" y="640" type="line" smooth="yes"/>
      <point x="62" y="686" type="line" smooth="yes"/>
    </contour>
    <contour>
      <point x="104" y="468" type="line" smooth="yes"/>
      <point x="208" y="589" type="line" smooth="yes"/>
      <point x="194" y="602" type="line" smooth="yes"/>
      <point x="90" y="481" type="line" smooth="yes"/>
    </contour>
    <contour>
      <point x="236" y="800" type="line" smooth="yes"/>
      <point x="216" y="650" type="line" smooth="yes"/>
      <point x="236" y="650" type="line" smooth="yes"/>
      <point x="256" y="800" type="line" smooth="yes"/>
    </contour>
  </outline>
</glyph>
