<?xml version="1.0" encoding="UTF-8"?>
<glyph name="dotlessi" format="1">
  <advance width="180"/>
  <unicode hex="0131"/>
  <outline>
    <contour>
      <point x="31" y="0" type="line" smooth="yes"/>
      <point x="51" y="0" type="line" smooth="yes"/>
      <point x="120" y="530" type="line" smooth="yes"/>
      <point x="100" y="530" type="line" smooth="yes"/>
    </contour>
  </outline>
</glyph>
