<?xml version="1.0" encoding="UTF-8"?>
<glyph name="fivesixteenths" format="1">
  <advance width="1100"/>
  <unicode hex="F217"/>
  <outline>
    <contour>
      <point x="934" y="226" type="line" smooth="yes"/>
      <point x="1000" y="201" type="line" smooth="yes"/>
      <point x="1021" y="125" type="line" smooth="yes"/>
      <point x="1020" y="115" type="line" smooth="yes"/>
      <point x="987" y="41" type="line" smooth="yes"/>
      <point x="913" y="14" type="line" smooth="yes"/>
      <point x="907" y="14" type="line" smooth="yes"/>
      <point x="842" y="40" type="line" smooth="yes"/>
      <point x="817" y="113" type="line" smooth="yes"/>
      <point x="819" y="139" type="line" smooth="yes"/>
      <point x="823" y="162" type="line" smooth="yes"/>
      <point x="866" y="207" type="line" smooth="yes"/>
      <point x="928" y="226" type="line" smooth="yes"/>
    </contour>
    <contour>
      <point x="1060" y="395" type="line" smooth="yes"/>
      <point x="968" y="379" type="line" smooth="yes"/>
      <point x="877" y="318" type="line" smooth="yes"/>
      <point x="822" y="230" type="line" smooth="yes"/>
      <point x="799" y="140" type="line" smooth="yes"/>
      <point x="798" y="130" type="line" smooth="yes"/>
      <point x="822" y="31" type="line" smooth="yes"/>
      <point x="910" y="-5" type="line" smooth="yes"/>
      <point x="998" y="24" type="line" smooth="yes"/>
      <point x="1041" y="116" type="line" smooth="yes"/>
      <point x="1042" y="126" type="line" smooth="yes"/>
      <point x="1016" y="217" type="line" smooth="yes"/>
      <point x="931" y="245" type="line" smooth="yes"/>
      <point x="874" y="231" type="line" smooth="yes"/>
      <point x="831" y="198" type="line" smooth="yes"/>
      <point x="855" y="252" type="line" smooth="yes"/>
      <point x="892" y="305" type="line" smooth="yes"/>
      <point x="973" y="361" type="line" smooth="yes"/>
      <point x="1057" y="375" type="line" smooth="yes"/>
    </contour>
    <contour>
      <point x="722" y="0" type="line" smooth="yes"/>
      <point x="725" y="20" type="line" smooth="yes"/>
      <point x="618" y="20" type="line" smooth="yes"/>
      <point x="667" y="392" type="line" smooth="yes"/>
      <point x="652" y="392" type="line" smooth="yes"/>
      <point x="517" y="309" type="line" smooth="yes"/>
      <point x="527" y="291" type="line" smooth="yes"/>
      <point x="643" y="362" type="line" smooth="yes"/>
      <point x="598" y="20" type="line" smooth="yes"/>
      <point x="490" y="20" type="line" smooth="yes"/>
      <point x="487" y="0" type="line" smooth="yes"/>
    </contour>
    <contour>
      <point x="77" y="0" type="line" smooth="yes"/>
      <point x="753" y="780" type="line" smooth="yes"/>
      <point x="727" y="780" type="line" smooth="yes"/>
      <point x="51" y="0" type="line" smooth="yes"/>
    </contour>
    <contour>
      <point x="71" y="555" type="line" smooth="yes"/>
      <point x="116" y="601" type="line" smooth="yes"/>
      <point x="175" y="616" type="line" smooth="yes"/>
      <point x="181" y="616" type="line" smooth="yes"/>
      <point x="247" y="592" type="line" smooth="yes"/>
      <point x="269" y="515" type="line" smooth="yes"/>
      <point x="268" y="505" type="line" smooth="yes"/>
      <point x="231" y="428" type="line" smooth="yes"/>
      <point x="160" y="404" type="line" smooth="yes"/>
      <point x="154" y="404" type="line" smooth="yes"/>
      <point x="81" y="429" type="line" smooth="yes"/>
      <point x="65" y="515" type="line" smooth="yes"/>
      <point x="45" y="515" type="line" smooth="yes"/>
      <point x="44" y="505" type="line" smooth="yes"/>
      <point x="66" y="418" type="line" smooth="yes"/>
      <point x="157" y="385" type="line" smooth="yes"/>
      <point x="245" y="416" type="line" smooth="yes"/>
      <point x="289" y="506" type="line" smooth="yes"/>
      <point x="290" y="516" type="line" smooth="yes"/>
      <point x="261" y="606" type="line" smooth="yes"/>
      <point x="178" y="635" type="line" smooth="yes"/>
      <point x="122" y="625" type="line" smooth="yes"/>
      <point x="80" y="595" type="line" smooth="yes"/>
      <point x="109" y="760" type="line" smooth="yes"/>
      <point x="317" y="760" type="line" smooth="yes"/>
      <point x="320" y="780" type="line" smooth="yes"/>
      <point x="93" y="780" type="line" smooth="yes"/>
      <point x="54" y="559" type="line" smooth="yes"/>
    </contour>
  </outline>
</glyph>
