<?xml version="1.0" encoding="UTF-8"?>
<glyph name="four.inf" format="1">
  <advance width="300"/>
  <unicode hex="E575"/>
  <outline>
    <contour>
      <point x="161" y="152" type="line" smooth="yes"/>
      <point x="132" y="-70" type="line" smooth="yes"/>
      <point x="37" y="-70" type="line" smooth="yes"/>
      <point x="-15" y="-71" type="line" smooth="yes"/>
    </contour>
    <contour>
      <point x="135" y="-200" type="line" smooth="yes"/>
      <point x="149" y="-90" type="line" smooth="yes"/>
      <point x="221" y="-90" type="line" smooth="yes"/>
      <point x="224" y="-70" type="line" smooth="yes"/>
      <point x="152" y="-70" type="line" smooth="yes"/>
      <point x="186" y="190" type="line" smooth="yes"/>
      <point x="167" y="190" type="line" smooth="yes"/>
      <point x="-42" y="-75" type="line" smooth="yes"/>
      <point x="-44" y="-90" type="line" smooth="yes"/>
      <point x="129" y="-90" type="line" smooth="yes"/>
      <point x="115" y="-200" type="line" smooth="yes"/>
    </contour>
  </outline>
</glyph>
