<?xml version="1.0" encoding="UTF-8"?>
<glyph name="tcommaaccent" format="1">
  <advance width="360"/>
  <unicode hex="0163"/>
  <outline>
    <contour>
      <point x="171" y="-70" type="line" smooth="yes"/>
      <point x="131" y="-70" type="line" smooth="yes"/>
      <point x="126" y="-110" type="line" smooth="yes"/>
      <point x="146" y="-110" type="line" smooth="yes"/>
      <point x="116" y="-173" type="line" smooth="yes"/>
      <point x="75" y="-186" type="line" smooth="yes"/>
      <point x="73" y="-206" type="line" smooth="yes"/>
      <point x="132" y="-183" type="line" smooth="yes"/>
      <point x="167" y="-102" type="line" smooth="yes"/>
    </contour>
    <contour>
      <point x="155" y="530" type="line" smooth="yes"/>
      <point x="175" y="680" type="line" smooth="yes"/>
      <point x="155" y="680" type="line" smooth="yes"/>
      <point x="135" y="530" type="line" smooth="yes"/>
      <point x="50" y="530" type="line" smooth="yes"/>
      <point x="47" y="510" type="line" smooth="yes"/>
      <point x="133" y="510" type="line" smooth="yes"/>
      <point x="83" y="129" type="line" smooth="yes"/>
      <point x="109" y="21" type="line" smooth="yes"/>
      <point x="200" y="-6" type="line" smooth="yes"/>
      <point x="241" y="-2" type="line" smooth="yes"/>
      <point x="261" y="4" type="line" smooth="yes"/>
      <point x="264" y="24" type="line" smooth="yes"/>
      <point x="239" y="18" type="line" smooth="yes"/>
      <point x="200" y="14" type="line" smooth="yes"/>
      <point x="122" y="39" type="line" smooth="yes"/>
      <point x="104" y="137" type="line" smooth="yes"/>
      <point x="153" y="510" type="line" smooth="yes"/>
      <point x="337" y="510" type="line" smooth="yes"/>
      <point x="340" y="530" type="line" smooth="yes"/>
    </contour>
  </outline>
</glyph>
