<?xml version="1.0" encoding="UTF-8"?>
<glyph name="thirteensixteenths" format="1">
  <advance width="1400"/>
  <unicode hex="F221"/>
  <outline>
    <contour>
      <point x="1234" y="226" type="line" smooth="yes"/>
      <point x="1300" y="201" type="line" smooth="yes"/>
      <point x="1321" y="125" type="line" smooth="yes"/>
      <point x="1320" y="115" type="line" smooth="yes"/>
      <point x="1287" y="41" type="line" smooth="yes"/>
      <point x="1213" y="14" type="line" smooth="yes"/>
      <point x="1207" y="14" type="line" smooth="yes"/>
      <point x="1142" y="40" type="line" smooth="yes"/>
      <point x="1117" y="113" type="line" smooth="yes"/>
      <point x="1119" y="139" type="line" smooth="yes"/>
      <point x="1123" y="162" type="line" smooth="yes"/>
      <point x="1166" y="207" type="line" smooth="yes"/>
      <point x="1228" y="226" type="line" smooth="yes"/>
    </contour>
    <contour>
      <point x="1360" y="395" type="line" smooth="yes"/>
      <point x="1268" y="379" type="line" smooth="yes"/>
      <point x="1177" y="318" type="line" smooth="yes"/>
      <point x="1122" y="230" type="line" smooth="yes"/>
      <point x="1099" y="140" type="line" smooth="yes"/>
      <point x="1098" y="130" type="line" smooth="yes"/>
      <point x="1122" y="31" type="line" smooth="yes"/>
      <point x="1210" y="-5" type="line" smooth="yes"/>
      <point x="1298" y="24" type="line" smooth="yes"/>
      <point x="1341" y="116" type="line" smooth="yes"/>
      <point x="1342" y="126" type="line" smooth="yes"/>
      <point x="1316" y="217" type="line" smooth="yes"/>
      <point x="1231" y="245" type="line" smooth="yes"/>
      <point x="1174" y="231" type="line" smooth="yes"/>
      <point x="1131" y="198" type="line" smooth="yes"/>
      <point x="1155" y="252" type="line" smooth="yes"/>
      <point x="1192" y="305" type="line" smooth="yes"/>
      <point x="1273" y="361" type="line" smooth="yes"/>
      <point x="1357" y="375" type="line" smooth="yes"/>
    </contour>
    <contour>
      <point x="1022" y="0" type="line" smooth="yes"/>
      <point x="1025" y="20" type="line" smooth="yes"/>
      <point x="918" y="20" type="line" smooth="yes"/>
      <point x="967" y="392" type="line" smooth="yes"/>
      <point x="952" y="392" type="line" smooth="yes"/>
      <point x="817" y="309" type="line" smooth="yes"/>
      <point x="827" y="291" type="line" smooth="yes"/>
      <point x="943" y="362" type="line" smooth="yes"/>
      <point x="898" y="20" type="line" smooth="yes"/>
      <point x="790" y="20" type="line" smooth="yes"/>
      <point x="787" y="0" type="line" smooth="yes"/>
    </contour>
    <contour>
      <point x="377" y="0" type="line" smooth="yes"/>
      <point x="1053" y="780" type="line" smooth="yes"/>
      <point x="1027" y="780" type="line" smooth="yes"/>
      <point x="351" y="0" type="line" smooth="yes"/>
    </contour>
    <contour>
      <point x="454" y="404" type="line" smooth="yes"/>
      <point x="381" y="429" type="line" smooth="yes"/>
      <point x="365" y="515" type="line" smooth="yes"/>
      <point x="345" y="515" type="line" smooth="yes"/>
      <point x="344" y="505" type="line" smooth="yes"/>
      <point x="366" y="418" type="line" smooth="yes"/>
      <point x="457" y="385" type="line" smooth="yes"/>
      <point x="544" y="411" type="line" smooth="yes"/>
      <point x="587" y="486" type="line" smooth="yes"/>
      <point x="588" y="496" type="line" smooth="yes"/>
      <point x="575" y="558" type="line" smooth="yes"/>
      <point x="528" y="588" type="line" smooth="yes"/>
      <point x="584" y="618" type="line" smooth="yes"/>
      <point x="609" y="676" type="line" smooth="yes"/>
      <point x="610" y="686" type="line" smooth="yes"/>
      <point x="585" y="759" type="line" smooth="yes"/>
      <point x="500" y="785" type="line" smooth="yes"/>
      <point x="405" y="751" type="line" smooth="yes"/>
      <point x="367" y="660" type="line" smooth="yes"/>
      <point x="366" y="650" type="line" smooth="yes"/>
      <point x="386" y="650" type="line" smooth="yes"/>
      <point x="420" y="739" type="line" smooth="yes"/>
      <point x="497" y="766" type="line" smooth="yes"/>
      <point x="503" y="766" type="line" smooth="yes"/>
      <point x="570" y="744" type="line" smooth="yes"/>
      <point x="589" y="685" type="line" smooth="yes"/>
      <point x="588" y="675" type="line" smooth="yes"/>
      <point x="554" y="617" type="line" smooth="yes"/>
      <point x="485" y="598" type="line" smooth="yes"/>
      <point x="429" y="598" type="line" smooth="yes"/>
      <point x="426" y="578" type="line" smooth="yes"/>
      <point x="485" y="578" type="line" smooth="yes"/>
      <point x="548" y="558" type="line" smooth="yes"/>
      <point x="567" y="496" type="line" smooth="yes"/>
      <point x="566" y="486" type="line" smooth="yes"/>
      <point x="530" y="424" type="line" smooth="yes"/>
      <point x="460" y="404" type="line" smooth="yes"/>
    </contour>
    <contour>
      <point x="273" y="390" type="line" smooth="yes"/>
      <point x="276" y="410" type="line" smooth="yes"/>
      <point x="169" y="410" type="line" smooth="yes"/>
      <point x="218" y="782" type="line" smooth="yes"/>
      <point x="203" y="782" type="line" smooth="yes"/>
      <point x="68" y="699" type="line" smooth="yes"/>
      <point x="78" y="681" type="line" smooth="yes"/>
      <point x="194" y="752" type="line" smooth="yes"/>
      <point x="149" y="410" type="line" smooth="yes"/>
      <point x="41" y="410" type="line" smooth="yes"/>
      <point x="38" y="390" type="line" smooth="yes"/>
    </contour>
  </outline>
</glyph>
