<?xml version="1.0" encoding="UTF-8"?>
<glyph name="Gbreve" format="1">
  <advance width="669"/>
  <unicode hex="011E"/>
  <outline>
    <contour>
      <point x="314" y="-13" type="line" smooth="yes"/>
      <point x="403" y="-5" type="line" smooth="yes"/>
      <point x="479" y="16" type="line" smooth="yes"/>
      <point x="539" y="45" type="line" smooth="yes"/>
      <point x="583" y="77" type="line" smooth="yes"/>
      <point x="628" y="422" type="line" smooth="yes"/>
      <point x="363" y="422" type="line" smooth="yes"/>
      <point x="345" y="282" type="line" smooth="yes"/>
      <point x="448" y="282" type="line" smooth="yes"/>
      <point x="431" y="154" type="line" smooth="yes"/>
      <point x="412" y="143" type="line" smooth="yes"/>
      <point x="388" y="135" type="line" smooth="yes"/>
      <point x="359" y="129" type="line" smooth="yes"/>
      <point x="325" y="127" type="line" smooth="yes"/>
      <point x="315" y="127" type="line" smooth="yes"/>
      <point x="253" y="144" type="line" smooth="yes"/>
      <point x="215" y="192" type="line" smooth="yes"/>
      <point x="199" y="269" type="line" smooth="yes"/>
      <point x="203" y="374" type="line" smooth="yes"/>
      <point x="207" y="407" type="line" smooth="yes"/>
      <point x="228" y="511" type="line" smooth="yes"/>
      <point x="261" y="589" type="line" smooth="yes"/>
      <point x="307" y="637" type="line" smooth="yes"/>
      <point x="367" y="653" type="line" smooth="yes"/>
      <point x="377" y="653" type="line" smooth="yes"/>
      <point x="430" y="642" type="line" smooth="yes"/>
      <point x="463" y="611" type="line" smooth="yes"/>
      <point x="476" y="558" type="line" smooth="yes"/>
      <point x="473" y="484" type="line" smooth="yes"/>
      <point x="636" y="484" type="line" smooth="yes"/>
      <point x="640" y="516" type="line" smooth="yes"/>
      <point x="637" y="637" type="line" smooth="yes"/>
      <point x="593" y="724" type="line" smooth="yes"/>
      <point x="506" y="776" type="line" smooth="yes"/>
      <point x="376" y="793" type="line" smooth="yes"/>
      <point x="247" y="771" type="line" smooth="yes"/>
      <point x="149" y="701" type="line" smooth="yes"/>
      <point x="81" y="581" type="line" smooth="yes"/>
      <point x="42" y="406" type="line" smooth="yes"/>
      <point x="38" y="374" type="line" smooth="yes"/>
      <point x="40" y="199" type="line" smooth="yes"/>
      <point x="91" y="79" type="line" smooth="yes"/>
      <point x="185" y="9" type="line" smooth="yes"/>
    </contour>
    <contour>
      <point x="401" y="825" type="line" smooth="yes"/>
      <point x="492" y="835" type="line" smooth="yes"/>
      <point x="550" y="862" type="line" smooth="yes"/>
      <point x="582" y="902" type="line" smooth="yes"/>
      <point x="596" y="950" type="line" smooth="yes"/>
      <point x="485" y="950" type="line" smooth="yes"/>
      <point x="479" y="932" type="line" smooth="yes"/>
      <point x="463" y="920" type="line" smooth="yes"/>
      <point x="438" y="912" type="line" smooth="yes"/>
      <point x="405" y="910" type="line" smooth="yes"/>
      <point x="374" y="912" type="line" smooth="yes"/>
      <point x="353" y="920" type="line" smooth="yes"/>
      <point x="340" y="932" type="line" smooth="yes"/>
      <point x="337" y="950" type="line" smooth="yes"/>
      <point x="230" y="950" type="line" smooth="yes"/>
      <point x="233" y="902" type="line" smooth="yes"/>
      <point x="259" y="862" type="line" smooth="yes"/>
      <point x="312" y="835" type="line" smooth="yes"/>
    </contour>
  </outline>
</glyph>
