<?xml version="1.0" encoding="UTF-8"?>
<glyph name="gcommaaccent" format="1">
  <advance width="574"/>
  <unicode hex="0123"/>
  <outline>
    <contour>
      <point x="341" y="204" type="line" smooth="yes"/>
      <point x="327" y="188" type="line" smooth="yes"/>
      <point x="308" y="172" type="line" smooth="yes"/>
      <point x="282" y="160" type="line" smooth="yes"/>
      <point x="248" y="155" type="line" smooth="yes"/>
      <point x="211" y="163" type="line" smooth="yes"/>
      <point x="185" y="184" type="line" smooth="yes"/>
      <point x="173" y="218" type="line" smooth="yes"/>
      <point x="173" y="262" type="line" smooth="yes"/>
      <point x="178" y="300" type="line" smooth="yes"/>
      <point x="189" y="344" type="line" smooth="yes"/>
      <point x="209" y="378" type="line" smooth="yes"/>
      <point x="239" y="399" type="line" smooth="yes"/>
      <point x="280" y="407" type="line" smooth="yes"/>
      <point x="311" y="402" type="line" smooth="yes"/>
      <point x="334" y="389" type="line" smooth="yes"/>
      <point x="351" y="372" type="line" smooth="yes"/>
      <point x="361" y="355" type="line" smooth="yes"/>
    </contour>
    <contour>
      <point x="315" y="7" type="line" smooth="yes"/>
      <point x="304" y="-35" type="line" smooth="yes"/>
      <point x="284" y="-64" type="line" smooth="yes"/>
      <point x="255" y="-80" type="line" smooth="yes"/>
      <point x="216" y="-85" type="line" smooth="yes"/>
      <point x="173" y="-79" type="line" smooth="yes"/>
      <point x="149" y="-62" type="line" smooth="yes"/>
      <point x="139" y="-36" type="line" smooth="yes"/>
      <point x="140" y="0" type="line" smooth="yes"/>
      <point x="-9" y="0" type="line" smooth="yes"/>
      <point x="-11" y="-15" type="line" smooth="yes"/>
      <point x="-9" y="-92" type="line" smooth="yes"/>
      <point x="26" y="-155" type="line" smooth="yes"/>
      <point x="99" y="-197" type="line" smooth="yes"/>
      <point x="218" y="-213" type="line" smooth="yes"/>
      <point x="314" y="-200" type="line" smooth="yes"/>
      <point x="390" y="-161" type="line" smooth="yes"/>
      <point x="444" y="-94" type="line" smooth="yes"/>
      <point x="472" y="0" type="line" smooth="yes"/>
      <point x="522" y="380" type="line" smooth="yes"/>
      <point x="550" y="530" type="line" smooth="yes"/>
      <point x="408" y="530" type="line" smooth="yes"/>
      <point x="390" y="465" type="line" smooth="yes"/>
      <point x="367" y="497" type="line" smooth="yes"/>
      <point x="336" y="521" type="line" smooth="yes"/>
      <point x="294" y="537" type="line" smooth="yes"/>
      <point x="243" y="543" type="line" smooth="yes"/>
      <point x="153" y="524" type="line" smooth="yes"/>
      <point x="87" y="473" type="line" smooth="yes"/>
      <point x="43" y="396" type="line" smooth="yes"/>
      <point x="20" y="300" type="line" smooth="yes"/>
      <point x="15" y="262" type="line" smooth="yes"/>
      <point x="15" y="164" type="line" smooth="yes"/>
      <point x="43" y="87" type="line" smooth="yes"/>
      <point x="101" y="37" type="line" smooth="yes"/>
      <point x="187" y="19" type="line" smooth="yes"/>
      <point x="231" y="23" type="line" smooth="yes"/>
      <point x="268" y="34" type="line" smooth="yes"/>
      <point x="299" y="51" type="line" smooth="yes"/>
      <point x="324" y="74" type="line" smooth="yes"/>
    </contour>
    <contour>
      <point x="235" y="596" type="line" smooth="yes"/>
      <point x="377" y="596" type="line" smooth="yes"/>
      <point x="390" y="700" type="line" smooth="yes"/>
      <point x="311" y="700" type="line" smooth="yes"/>
      <point x="324" y="718" type="line" smooth="yes"/>
      <point x="346" y="730" type="line" smooth="yes"/>
      <point x="372" y="736" type="line" smooth="yes"/>
      <point x="401" y="738" type="line" smooth="yes"/>
      <point x="408" y="793" type="line" smooth="yes"/>
      <point x="343" y="787" type="line" smooth="yes"/>
      <point x="294" y="765" type="line" smooth="yes"/>
      <point x="262" y="727" type="line" smooth="yes"/>
      <point x="245" y="668" type="line" smooth="yes"/>
    </contour>
  </outline>
</glyph>
