<?xml version="1.0" encoding="UTF-8"?>
<glyph name="H" format="1">
  <advance width="663"/>
  <unicode hex="0048"/>
  <outline>
    <contour>
      <point x="498" y="780" type="line" smooth="yes"/>
      <point x="457" y="468" type="line" smooth="yes"/>
      <point x="230" y="468" type="line" smooth="yes"/>
      <point x="271" y="780" type="line" smooth="yes"/>
      <point x="109" y="780" type="line" smooth="yes"/>
      <point x="7" y="0" type="line" smooth="yes"/>
      <point x="169" y="0" type="line" smooth="yes"/>
      <point x="212" y="328" type="line" smooth="yes"/>
      <point x="439" y="328" type="line" smooth="yes"/>
      <point x="396" y="0" type="line" smooth="yes"/>
      <point x="558" y="0" type="line" smooth="yes"/>
      <point x="660" y="780" type="line" smooth="yes"/>
    </contour>
  </outline>
</glyph>
