<?xml version="1.0" encoding="UTF-8"?>
<glyph name="Ohungarumlaut" format="1">
  <advance width="668"/>
  <unicode hex="0150"/>
  <outline>
    <contour>
      <point x="299" y="127" type="line" smooth="yes"/>
      <point x="239" y="144" type="line" smooth="yes"/>
      <point x="206" y="192" type="line" smooth="yes"/>
      <point x="196" y="269" type="line" smooth="yes"/>
      <point x="203" y="374" type="line" smooth="yes"/>
      <point x="207" y="406" type="line" smooth="yes"/>
      <point x="227" y="511" type="line" smooth="yes"/>
      <point x="257" y="588" type="line" smooth="yes"/>
      <point x="303" y="636" type="line" smooth="yes"/>
      <point x="367" y="653" type="line" smooth="yes"/>
      <point x="377" y="653" type="line" smooth="yes"/>
      <point x="437" y="636" type="line" smooth="yes"/>
      <point x="470" y="588" type="line" smooth="yes"/>
      <point x="481" y="511" type="line" smooth="yes"/>
      <point x="473" y="406" type="line" smooth="yes"/>
      <point x="469" y="374" type="line" smooth="yes"/>
      <point x="449" y="269" type="line" smooth="yes"/>
      <point x="419" y="192" type="line" smooth="yes"/>
      <point x="373" y="144" type="line" smooth="yes"/>
      <point x="309" y="127" type="line" smooth="yes"/>
    </contour>
    <contour>
      <point x="376" y="793" type="line" smooth="yes"/>
      <point x="243" y="771" type="line" smooth="yes"/>
      <point x="146" y="701" type="line" smooth="yes"/>
      <point x="80" y="581" type="line" smooth="yes"/>
      <point x="42" y="406" type="line" smooth="yes"/>
      <point x="38" y="374" type="line" smooth="yes"/>
      <point x="36" y="199" type="line" smooth="yes"/>
      <point x="80" y="79" type="line" smooth="yes"/>
      <point x="169" y="9" type="line" smooth="yes"/>
      <point x="300" y="-13" type="line" smooth="yes"/>
      <point x="433" y="9" type="line" smooth="yes"/>
      <point x="530" y="79" type="line" smooth="yes"/>
      <point x="596" y="199" type="line" smooth="yes"/>
      <point x="634" y="374" type="line" smooth="yes"/>
      <point x="638" y="406" type="line" smooth="yes"/>
      <point x="640" y="581" type="line" smooth="yes"/>
      <point x="596" y="702" type="line" smooth="yes"/>
      <point x="507" y="771" type="line" smooth="yes"/>
    </contour>
    <contour>
      <point x="480" y="950" type="line" smooth="yes"/>
      <point x="411" y="840" type="line" smooth="yes"/>
      <point x="550" y="840" type="line" smooth="yes"/>
      <point x="629" y="950" type="line" smooth="yes"/>
    </contour>
    <contour>
      <point x="305" y="950" type="line" smooth="yes"/>
      <point x="244" y="840" type="line" smooth="yes"/>
      <point x="383" y="840" type="line" smooth="yes"/>
      <point x="454" y="950" type="line" smooth="yes"/>
    </contour>
  </outline>
</glyph>
