<?xml version="1.0" encoding="UTF-8"?>
<glyph name="Ccedilla" format="1">
  <advance width="635"/>
  <unicode hex="00C7"/>
  <outline>
    <contour>
      <point x="184" y="408" type="line" smooth="yes"/>
      <point x="241" y="608" type="line" smooth="yes"/>
      <point x="363" y="676" type="line" smooth="yes"/>
      <point x="373" y="676" type="line" smooth="yes"/>
      <point x="468" y="629" type="line" smooth="yes"/>
      <point x="478" y="487" type="line" smooth="yes"/>
      <point x="612" y="487" type="line" smooth="yes"/>
      <point x="615" y="509" type="line" smooth="yes"/>
      <point x="576" y="722" type="line" smooth="yes"/>
      <point x="372" y="793" type="line" smooth="yes"/>
      <point x="154" y="702" type="line" smooth="yes"/>
      <point x="48" y="408" type="line" smooth="yes"/>
      <point x="43" y="370" type="line" smooth="yes"/>
      <point x="67" y="90" type="line" smooth="yes"/>
      <point x="249" y="-11" type="line" smooth="yes"/>
      <point x="216" y="-75" type="line" smooth="yes"/>
      <point x="229" y="-101" type="line" smooth="yes"/>
      <point x="241" y="-99" type="line" smooth="yes"/>
      <point x="267" y="-97" type="line" smooth="yes"/>
      <point x="301" y="-103" type="line" smooth="yes"/>
      <point x="313" y="-121" type="line" smooth="yes"/>
      <point x="301" y="-140" type="line" smooth="yes"/>
      <point x="262" y="-147" type="line" smooth="yes"/>
      <point x="221" y="-143" type="line" smooth="yes"/>
      <point x="190" y="-131" type="line" smooth="yes"/>
      <point x="162" y="-190" type="line" smooth="yes"/>
      <point x="201" y="-207" type="line" smooth="yes"/>
      <point x="261" y="-214" type="line" smooth="yes"/>
      <point x="353" y="-189" type="line" smooth="yes"/>
      <point x="388" y="-120" type="line" smooth="yes"/>
      <point x="361" y="-65" type="line" smooth="yes"/>
      <point x="298" y="-45" type="line" smooth="yes"/>
      <point x="314" y="-12" type="line" smooth="yes"/>
      <point x="504" y="58" type="line" smooth="yes"/>
      <point x="582" y="254" type="line" smooth="yes"/>
      <point x="583" y="263" type="line" smooth="yes"/>
      <point x="448" y="263" type="line" smooth="yes"/>
      <point x="410" y="147" type="line" smooth="yes"/>
      <point x="299" y="104" type="line" smooth="yes"/>
      <point x="289" y="104" type="line" smooth="yes"/>
      <point x="184" y="170" type="line" smooth="yes"/>
      <point x="179" y="370" type="line" smooth="yes"/>
    </contour>
  </outline>
</glyph>
