<?xml version="1.0" encoding="UTF-8"?>
<glyph name="dcaron" format="1">
  <advance width="569"/>
  <unicode hex="010F"/>
  <outline>
    <contour>
      <point x="628" y="800" type="line" smooth="yes"/>
      <point x="602" y="601" type="line" smooth="yes"/>
      <point x="664" y="601" type="line" smooth="yes"/>
      <point x="713" y="800" type="line" smooth="yes"/>
    </contour>
    <contour>
      <point x="285" y="430" type="line" smooth="yes"/>
      <point x="348" y="408" type="line" smooth="yes"/>
      <point x="380" y="367" type="line" smooth="yes"/>
      <point x="353" y="159" type="line" smooth="yes"/>
      <point x="312" y="121" type="line" smooth="yes"/>
      <point x="245" y="100" type="line" smooth="yes"/>
      <point x="167" y="143" type="line" smooth="yes"/>
      <point x="154" y="256" type="line" smooth="yes"/>
      <point x="157" y="278" type="line" smooth="yes"/>
      <point x="199" y="389" type="line" smooth="yes"/>
    </contour>
    <contour>
      <point x="195" y="-13" type="line" smooth="yes"/>
      <point x="288" y="10" type="line" smooth="yes"/>
      <point x="356" y="69" type="line" smooth="yes"/>
      <point x="356" y="0" type="line" smooth="yes"/>
      <point x="471" y="0" type="line" smooth="yes"/>
      <point x="481" y="150" type="line" smooth="yes"/>
      <point x="567" y="800" type="line" smooth="yes"/>
      <point x="437" y="800" type="line" smooth="yes"/>
      <point x="395" y="478" type="line" smooth="yes"/>
      <point x="348" y="521" type="line" smooth="yes"/>
      <point x="255" y="543" type="line" smooth="yes"/>
      <point x="97" y="467" type="line" smooth="yes"/>
      <point x="28" y="277" type="line" smooth="yes"/>
      <point x="25" y="255" type="line" smooth="yes"/>
      <point x="52" y="63" type="line" smooth="yes"/>
    </contour>
  </outline>
</glyph>
