<?xml version="1.0" encoding="UTF-8"?>
<glyph name="Lacute" format="1">
  <advance width="511"/>
  <unicode hex="0139"/>
  <outline>
    <contour>
      <point x="195" y="950" type="line" smooth="yes"/>
      <point x="124" y="840" type="line" smooth="yes"/>
      <point x="254" y="840" type="line" smooth="yes"/>
      <point x="332" y="950" type="line" smooth="yes"/>
    </contour>
    <contour>
      <point x="447" y="0" type="line" smooth="yes"/>
      <point x="462" y="117" type="line" smooth="yes"/>
      <point x="161" y="117" type="line" smooth="yes"/>
      <point x="248" y="780" type="line" smooth="yes"/>
      <point x="114" y="780" type="line" smooth="yes"/>
      <point x="12" y="0" type="line" smooth="yes"/>
    </contour>
  </outline>
</glyph>
