<?xml version="1.0" encoding="UTF-8"?>
<glyph name="mdotaccent" format="1">
  <advance width="841"/>
  <unicode hex="1E41"/>
  <outline>
    <contour>
      <point x="743" y="0" type="line" smooth="yes"/>
      <point x="791" y="367" type="line" smooth="yes"/>
      <point x="770" y="493" type="line" smooth="yes"/>
      <point x="649" y="543" type="line" smooth="yes"/>
      <point x="548" y="518" type="line" smooth="yes"/>
      <point x="482" y="465" type="line" smooth="yes"/>
      <point x="440" y="521" type="line" smooth="yes"/>
      <point x="347" y="543" type="line" smooth="yes"/>
      <point x="248" y="518" type="line" smooth="yes"/>
      <point x="184" y="469" type="line" smooth="yes"/>
      <point x="184" y="530" type="line" smooth="yes"/>
      <point x="69" y="530" type="line" smooth="yes"/>
      <point x="59" y="380" type="line" smooth="yes"/>
      <point x="9" y="0" type="line" smooth="yes"/>
      <point x="139" y="0" type="line" smooth="yes"/>
      <point x="188" y="375" type="line" smooth="yes"/>
      <point x="226" y="412" type="line" smooth="yes"/>
      <point x="289" y="430" type="line" smooth="yes"/>
      <point x="348" y="409" type="line" smooth="yes"/>
      <point x="357" y="350" type="line" smooth="yes"/>
      <point x="311" y="0" type="line" smooth="yes"/>
      <point x="441" y="0" type="line" smooth="yes"/>
      <point x="490" y="375" type="line" smooth="yes"/>
      <point x="529" y="412" type="line" smooth="yes"/>
      <point x="591" y="430" type="line" smooth="yes"/>
      <point x="650" y="409" type="line" smooth="yes"/>
      <point x="659" y="350" type="line" smooth="yes"/>
      <point x="613" y="0" type="line" smooth="yes"/>
    </contour>
    <contour>
      <point x="548" y="763" type="line" smooth="yes"/>
      <point x="406" y="763" type="line" smooth="yes"/>
      <point x="387" y="622" type="line" smooth="yes"/>
      <point x="529" y="622" type="line" smooth="yes"/>
    </contour>
  </outline>
</glyph>
