<?xml version="1.0" encoding="UTF-8"?>
<glyph name="quotedbl" format="1">
  <advance width="413"/>
  <unicode hex="0022"/>
  <outline>
    <contour>
      <point x="282" y="780" type="line" smooth="yes"/>
      <point x="251" y="474" type="line" smooth="yes"/>
      <point x="350" y="474" type="line" smooth="yes"/>
      <point x="411" y="780" type="line" smooth="yes"/>
    </contour>
    <contour>
      <point x="107" y="780" type="line" smooth="yes"/>
      <point x="88" y="474" type="line" smooth="yes"/>
      <point x="188" y="474" type="line" smooth="yes"/>
      <point x="237" y="780" type="line" smooth="yes"/>
    </contour>
  </outline>
</glyph>
