<?xml version="1.0" encoding="UTF-8"?>
<glyph name="uni2086" format="1">
  <advance width="300"/>
  <unicode hex="2086"/>
  <outline>
    <contour>
      <point x="122" y="165" type="line" smooth="yes"/>
      <point x="124" y="165" type="line" smooth="yes"/>
      <point x="149" y="156" type="line" smooth="yes"/>
      <point x="156" y="126" type="line" smooth="yes"/>
      <point x="155" y="117" type="line" smooth="yes"/>
      <point x="142" y="85" type="line" smooth="yes"/>
      <point x="115" y="74" type="line" smooth="yes"/>
      <point x="110" y="74" type="line" smooth="yes"/>
      <point x="86" y="86" type="line" smooth="yes"/>
      <point x="77" y="120" type="line" smooth="yes"/>
      <point x="78" y="136" type="line" smooth="yes"/>
      <point x="79" y="143" type="line" smooth="yes"/>
      <point x="100" y="160" type="line" smooth="yes"/>
    </contour>
    <contour>
      <point x="265" y="397" type="line" smooth="yes"/>
      <point x="155" y="385" type="line" smooth="yes"/>
      <point x="65" y="332" type="line" smooth="yes"/>
      <point x="10" y="248" type="line" smooth="yes"/>
      <point x="-13" y="148" type="line" smooth="yes"/>
      <point x="-14" y="138" type="line" smooth="yes"/>
      <point x="8" y="34" type="line" smooth="yes"/>
      <point x="106" y="-7" type="line" smooth="yes"/>
      <point x="206" y="27" type="line" smooth="yes"/>
      <point x="248" y="117" type="line" smooth="yes"/>
      <point x="249" y="127" type="line" smooth="yes"/>
      <point x="230" y="215" type="line" smooth="yes"/>
      <point x="156" y="246" type="line" smooth="yes"/>
      <point x="127" y="242" type="line" smooth="yes"/>
      <point x="101" y="228" type="line" smooth="yes"/>
      <point x="113" y="255" type="line" smooth="yes"/>
      <point x="128" y="275" type="line" smooth="yes"/>
      <point x="182" y="306" type="line" smooth="yes"/>
      <point x="254" y="315" type="line" smooth="yes"/>
    </contour>
  </outline>
</glyph>
