<?xml version="1.0" encoding="UTF-8"?>
<glyph name="Ymacron" format="1">
  <advance width="610"/>
  <unicode hex="0232"/>
  <outline>
    <contour>
      <point x="354" y="238" type="line" smooth="yes"/>
      <point x="651" y="780" type="line" smooth="yes"/>
      <point x="502" y="780" type="line" smooth="yes"/>
      <point x="305" y="403" type="line" smooth="yes"/>
      <point x="208" y="780" type="line" smooth="yes"/>
      <point x="65" y="780" type="line" smooth="yes"/>
      <point x="220" y="238" type="line" smooth="yes"/>
      <point x="189" y="0" type="line" smooth="yes"/>
      <point x="323" y="0" type="line" smooth="yes"/>
    </contour>
    <contour>
      <point x="230" y="853" type="line" smooth="yes"/>
      <point x="506" y="853" type="line" smooth="yes"/>
      <point x="517" y="937" type="line" smooth="yes"/>
      <point x="241" y="937" type="line" smooth="yes"/>
    </contour>
  </outline>
</glyph>
