<?xml version="1.0" encoding="UTF-8"?>
<glyph name="ellipsis" format="1">
  <advance width="1000"/>
  <unicode hex="2026"/>
  <outline>
    <contour>
      <point x="571" y="141" type="line" smooth="yes"/>
      <point x="429" y="141" type="line" smooth="yes"/>
      <point x="429" y="0" type="line" smooth="yes"/>
      <point x="571" y="0" type="line" smooth="yes"/>
    </contour>
    <contour>
      <point x="891" y="141" type="line" smooth="yes"/>
      <point x="749" y="141" type="line" smooth="yes"/>
      <point x="749" y="0" type="line" smooth="yes"/>
      <point x="891" y="0" type="line" smooth="yes"/>
    </contour>
    <contour>
      <point x="251" y="141" type="line" smooth="yes"/>
      <point x="109" y="141" type="line" smooth="yes"/>
      <point x="109" y="0" type="line" smooth="yes"/>
      <point x="251" y="0" type="line" smooth="yes"/>
    </contour>
  </outline>
</glyph>
