<?xml version="1.0" encoding="UTF-8"?>
<glyph name="Lslash" format="1">
  <advance width="571"/>
  <unicode hex="0141"/>
  <outline>
    <contour>
      <point x="14" y="212" type="line" smooth="yes"/>
      <point x="121" y="265" type="line" smooth="yes"/>
      <point x="121" y="0" type="line" smooth="yes"/>
      <point x="556" y="0" type="line" smooth="yes"/>
      <point x="556" y="117" type="line" smooth="yes"/>
      <point x="255" y="117" type="line" smooth="yes"/>
      <point x="255" y="332" type="line" smooth="yes"/>
      <point x="448" y="429" type="line" smooth="yes"/>
      <point x="448" y="543" type="line" smooth="yes"/>
      <point x="255" y="446" type="line" smooth="yes"/>
      <point x="255" y="780" type="line" smooth="yes"/>
      <point x="121" y="780" type="line" smooth="yes"/>
      <point x="121" y="379" type="line" smooth="yes"/>
      <point x="14" y="326" type="line" smooth="yes"/>
    </contour>
  </outline>
</glyph>
