<?xml version="1.0" encoding="UTF-8"?>
<glyph name="R" format="1">
  <advance width="611"/>
  <unicode hex="0052"/>
  <outline>
    <contour>
      <point x="195" y="408" type="line" smooth="yes"/>
      <point x="195" y="663" type="line" smooth="yes"/>
      <point x="310" y="663" type="line" smooth="yes"/>
      <point x="351" y="658" type="line" smooth="yes"/>
      <point x="390" y="641" type="line" smooth="yes"/>
      <point x="419" y="604" type="line" smooth="yes"/>
      <point x="430" y="541" type="line" smooth="yes"/>
      <point x="430" y="530" type="line" smooth="yes"/>
      <point x="419" y="467" type="line" smooth="yes"/>
      <point x="390" y="430" type="line" smooth="yes"/>
      <point x="351" y="413" type="line" smooth="yes"/>
      <point x="310" y="408" type="line" smooth="yes"/>
    </contour>
    <contour>
      <point x="195" y="291" type="line" smooth="yes"/>
      <point x="309" y="291" type="line" smooth="yes"/>
      <point x="421" y="0" type="line" smooth="yes"/>
      <point x="566" y="0" type="line" smooth="yes"/>
      <point x="439" y="312" type="line" smooth="yes"/>
      <point x="489" y="340" type="line" smooth="yes"/>
      <point x="529" y="383" type="line" smooth="yes"/>
      <point x="556" y="444" type="line" smooth="yes"/>
      <point x="566" y="526" type="line" smooth="yes"/>
      <point x="566" y="546" type="line" smooth="yes"/>
      <point x="542" y="666" type="line" smooth="yes"/>
      <point x="481" y="737" type="line" smooth="yes"/>
      <point x="397" y="771" type="line" smooth="yes"/>
      <point x="305" y="780" type="line" smooth="yes"/>
      <point x="61" y="780" type="line" smooth="yes"/>
      <point x="61" y="0" type="line" smooth="yes"/>
      <point x="195" y="0" type="line" smooth="yes"/>
    </contour>
  </outline>
</glyph>
