<?xml version="1.0" encoding="UTF-8"?>
<glyph name="z" format="1">
  <advance width="489"/>
  <unicode hex="007A"/>
  <outline>
    <contour>
      <point x="28" y="89" type="line" smooth="yes"/>
      <point x="28" y="0" type="line" smooth="yes"/>
      <point x="461" y="0" type="line" smooth="yes"/>
      <point x="461" y="114" type="line" smooth="yes"/>
      <point x="311" y="114" type="line" smooth="yes"/>
      <point x="198" y="111" type="line" smooth="yes"/>
      <point x="451" y="441" type="line" smooth="yes"/>
      <point x="451" y="530" type="line" smooth="yes"/>
      <point x="38" y="530" type="line" smooth="yes"/>
      <point x="38" y="416" type="line" smooth="yes"/>
      <point x="168" y="416" type="line" smooth="yes"/>
      <point x="281" y="419" type="line" smooth="yes"/>
    </contour>
  </outline>
</glyph>
